%!PS-Adobe-3.0 EPSF-3.0
%%Creator: cairo 1.14.8 (http://cairographics.org)
%%CreationDate: Wed Feb 20 09:42:43 2019
%%Pages: 1
%%DocumentData: Clean7Bit
%%LanguageLevel: 2
%%BoundingBox: 11 12 372 373
%%EndComments
%%BeginProlog
save
50 dict begin
/q { gsave } bind def
/Q { grestore } bind def
/cm { 6 array astore concat } bind def
/w { setlinewidth } bind def
/J { setlinecap } bind def
/j { setlinejoin } bind def
/M { setmiterlimit } bind def
/d { setdash } bind def
/m { moveto } bind def
/l { lineto } bind def
/c { curveto } bind def
/h { closepath } bind def
/re { exch dup neg 3 1 roll 5 3 roll moveto 0 rlineto
      0 exch rlineto 0 rlineto closepath } bind def
/S { stroke } bind def
/f { fill } bind def
/f* { eofill } bind def
/n { newpath } bind def
/W { clip } bind def
/W* { eoclip } bind def
/BT { } bind def
/ET { } bind def
/pdfmark where { pop globaldict /?pdfmark /exec load put }
    { globaldict begin /?pdfmark /pop load def /pdfmark
    /cleartomark load def end } ifelse
/BDC { mark 3 1 roll /BDC pdfmark } bind def
/EMC { mark /EMC pdfmark } bind def
/cairo_store_point { /cairo_point_y exch def /cairo_point_x exch def } def
/Tj { show currentpoint cairo_store_point } bind def
/TJ {
  {
    dup
    type /stringtype eq
    { show } { -0.001 mul 0 cairo_font_matrix dtransform rmoveto } ifelse
  } forall
  currentpoint cairo_store_point
} bind def
/cairo_selectfont { cairo_font_matrix aload pop pop pop 0 0 6 array astore
    cairo_font exch selectfont cairo_point_x cairo_point_y moveto } bind def
/Tf { pop /cairo_font exch def /cairo_font_matrix where
      { pop cairo_selectfont } if } bind def
/Td { matrix translate cairo_font_matrix matrix concatmatrix dup
      /cairo_font_matrix exch def dup 4 get exch 5 get cairo_store_point
      /cairo_font where { pop cairo_selectfont } if } bind def
/Tm { 2 copy 8 2 roll 6 array astore /cairo_font_matrix exch def
      cairo_store_point /cairo_font where { pop cairo_selectfont } if } bind def
/g { setgray } bind def
/rg { setrgbcolor } bind def
/d1 { setcachedevice } bind def
%%EndProlog
%%BeginSetup
%%EndSetup
%%Page: 1 1
%%BeginPageSetup
%%PageBoundingBox: 11 12 372 373
%%EndPageSetup
q 11 12 361 361 rectclip q
0.423529 0.733333 0.780392 rg
264 84 m 322.543 25.457 l 327.316 20.684 333.789 18 340.543 18 c 347.293
 18 353.77 20.68 358.547 25.453 c 363.32 30.23 366 36.707 366 43.457 c 366
 50.211 363.316 56.684 358.543 61.457 c 300 120 l h
264 84 m f
0.992157 0.713726 0.184314 rg
246 114 m 270 138 l 294.004 114 l 270 90 l h
246 114 m f
0.960784 0.811765 0.407843 rg
306 222 m 306 142.473 241.527 78 162 78 c 82.473 78 18 142.473 18 222 c
 18 301.527 82.473 366 162 366 c 241.527 366 306 301.527 306 222 c h
306 222 m f
0.901961 g
282 222 m 282 155.727 228.273 102 162 102 c 95.727 102 42 155.727 42 222
 c 42 288.273 95.727 342 162 342 c 228.273 342 282 288.273 282 222 c h
282 222 m f
0.654902 0.839216 0.866667 rg
102 288 m 222 288 l 228.629 288 234 282.629 234 276 c 234 192 l 90 192 
l 90 276 l 90 282.629 95.371 288 102 288 c h
102 288 m f
0.423529 0.733333 0.780392 rg
78 192 m 246 192 l 246 180 l 246 173.371 240.629 168 234 168 c 90 168 l
 83.371 168 78 173.371 78 180 c h
78 192 m f
0 g
300 128.484 m 294 122.484 l 282.996 133.488 l 329.359 196.828 319.141 285.184
 259.547 336.266 c 199.949 387.352 111.07 383.938 55.566 328.434 c 0.062
 272.93 -3.352 184.051 47.734 124.453 c 98.816 64.859 187.172 54.641 250.512
 101.004 c 261.516 90 l 255.516 84 l 318.301 21.215 l 324.199 15.316 332.199
 12.004 340.543 12.004 c 348.883 12.004 356.887 15.316 362.785 21.215 c 
368.684 27.113 371.996 35.117 371.996 43.457 c 371.996 51.801 368.684 59.801
 362.785 65.699 c h
24 222 m 24 277.816 57.621 328.137 109.191 349.496 c 160.758 370.855 220.113
 359.047 259.582 319.582 c 299.047 280.113 310.855 220.758 289.496 169.191
 c 268.137 117.621 217.816 84 162 84 c 85.82 84.086 24.086 145.82 24 222
 c h
259.945 108.539 m 265.488 113.328 270.672 118.512 275.461 124.055 c 285.516
 114 l 270 98.484 l h
340.543 24 m 335.379 23.984 330.426 26.039 326.785 29.699 c 272.484 84 
l 300 111.516 l 354.301 57.215 l 359.863 51.652 361.527 43.281 358.516 36.012
 c 355.504 28.742 348.41 24 340.543 24 c h
340.543 24 m f
162 348 m 111.039 348 65.094 317.301 45.59 270.219 c 26.09 223.137 36.867
 168.941 72.906 132.906 c 108.941 96.867 163.137 86.09 210.219 105.59 c 
257.301 125.094 288 171.039 288 222 c 287.926 291.555 231.555 347.926 162
 348 c h
162 108 m 115.891 108 74.324 135.773 56.676 178.375 c 39.031 220.973 48.785
 270.008 81.391 302.609 c 113.992 335.215 163.027 344.969 205.625 327.324
 c 248.227 309.676 276 268.109 276 222 c 275.93 159.066 224.934 108.07 162
 108 c h
162 108 m f
240 198 m 240 276 l 240 285.941 231.941 294 222 294 c 102 294 l 92.059 
294 84 285.941 84 276 c 84 198 l 72 198 l 72 180 l 72 170.059 80.059 162
 90 162 c 234 162 l 243.941 162 252 170.059 252 180 c 252 198 l h
96 276 m 96 279.312 98.688 282 102 282 c 222 282 l 225.312 282 228 279.312
 228 276 c 228 198 l 96 198 l h
240 180 m 240 176.688 237.312 174 234 174 c 90 174 l 86.688 174 84 176.688
 84 180 c 84 186 l 240 186 l h
240 180 m f
180 258 m 195.516 258 l 168 230.484 l 144 254.484 l 109.758 220.242 l 118.242
 211.758 l 144 237.516 l 168 213.516 l 204 249.516 l 204 234 l 216 234 l
 216 270 l 180 270 l h
180 258 m f
Q Q
showpage
%%Trailer
end restore
%%EOF
