%!PS-Adobe-3.0 EPSF-3.0
%%Creator: cairo 1.14.8 (http://cairographics.org)
%%CreationDate: Wed Feb 20 09:42:43 2019
%%Pages: 1
%%DocumentData: Clean7Bit
%%LanguageLevel: 2
%%BoundingBox: 12 12 372 378
%%EndComments
%%BeginProlog
save
50 dict begin
/q { gsave } bind def
/Q { grestore } bind def
/cm { 6 array astore concat } bind def
/w { setlinewidth } bind def
/J { setlinecap } bind def
/j { setlinejoin } bind def
/M { setmiterlimit } bind def
/d { setdash } bind def
/m { moveto } bind def
/l { lineto } bind def
/c { curveto } bind def
/h { closepath } bind def
/re { exch dup neg 3 1 roll 5 3 roll moveto 0 rlineto
      0 exch rlineto 0 rlineto closepath } bind def
/S { stroke } bind def
/f { fill } bind def
/f* { eofill } bind def
/n { newpath } bind def
/W { clip } bind def
/W* { eoclip } bind def
/BT { } bind def
/ET { } bind def
/pdfmark where { pop globaldict /?pdfmark /exec load put }
    { globaldict begin /?pdfmark /pop load def /pdfmark
    /cleartomark load def end } ifelse
/BDC { mark 3 1 roll /BDC pdfmark } bind def
/EMC { mark /EMC pdfmark } bind def
/cairo_store_point { /cairo_point_y exch def /cairo_point_x exch def } def
/Tj { show currentpoint cairo_store_point } bind def
/TJ {
  {
    dup
    type /stringtype eq
    { show } { -0.001 mul 0 cairo_font_matrix dtransform rmoveto } ifelse
  } forall
  currentpoint cairo_store_point
} bind def
/cairo_selectfont { cairo_font_matrix aload pop pop pop 0 0 6 array astore
    cairo_font exch selectfont cairo_point_x cairo_point_y moveto } bind def
/Tf { pop /cairo_font exch def /cairo_font_matrix where
      { pop cairo_selectfont } if } bind def
/Td { matrix translate cairo_font_matrix matrix concatmatrix dup
      /cairo_font_matrix exch def dup 4 get exch 5 get cairo_store_point
      /cairo_font where { pop cairo_selectfont } if } bind def
/Tm { 2 copy 8 2 roll 6 array astore /cairo_font_matrix exch def
      cairo_store_point /cairo_font where { pop cairo_selectfont } if } bind def
/g { setgray } bind def
/rg { setrgbcolor } bind def
/d1 { setcachedevice } bind def
%%EndProlog
%%BeginSetup
%%EndSetup
%%Page: 1 1
%%BeginPageSetup
%%PageBoundingBox: 12 12 372 378
%%EndPageSetup
q 12 12 360 366 rectclip q
0.901961 g
18 294 348 -228 re f
150 18 m 168 66 l 216 66 l 234 18 l h
150 18 m f
0.701961 g
18 90 348 -24 re f
0.00784314 0.6 0.541176 rg
192 294 m 102 114 l 95.633 117.184 90.793 122.762 88.543 129.516 c 86.293
 136.266 86.816 143.637 90 150 c 174 318 l h
192 294 m f
192 294 m 282 114 l 288.367 117.184 293.207 122.762 295.457 129.516 c 297.707
 136.266 297.184 143.637 294 150 c 210 318 l h
192 294 m f
180 372 24 -54 re f
0.423529 0.733333 0.780392 rg
168 336 m 168 300 l 168 286.746 178.746 276 192 276 c 205.254 276 216 286.746
 216 300 c 216 336 l h
168 336 m f
0 g
222 307.414 m 222 342 l 210 342 l 210 378 l 174 378 l 174 342 l 162 342
 l 162 307.414 l 158.293 300 l 12 300 l 12 60 l 159.344 60 l 141.344 12 
l 242.656 12 l 224.656 60 l 372 60 l 372 300 l 225.707 300 l h
175.723 274.867 m 99.715 122.84 l 93.031 129.148 91.266 139.094 95.371 
147.316 c 165.148 286.883 l 167.523 281.996 171.18 277.844 175.723 274.867
 c h
186.961 270.512 m 190.285 269.828 193.711 269.828 197.035 270.512 c 218.293
 228 l 165.707 228 l h
208.273 274.867 m 212.816 277.84 216.473 281.984 218.852 286.867 c 288.629
 147.301 l 292.734 139.074 290.969 129.133 284.285 122.82 c h
186 366 m 198 366 l 198 342 l 186 342 l h
174 330 m 210 330 l 210 300 l 210 290.059 201.941 282 192 282 c 182.059
 282 174 290.059 174 300 c h
225.344 24 m 158.656 24 l 172.156 60 l 211.844 60 l h
360 72 m 24 72 l 24 84 l 360 84 l h
360 288 m 360 96 l 24 96 l 24 288 l 152.293 288 l 84.629 152.684 l 80.73
 144.891 80.086 135.867 82.844 127.598 c 85.598 119.332 91.523 112.496 99.316
 108.602 c 104.684 105.918 l 159.707 216 l 224.293 216 l 279.316 105.949
 l 284.684 108.629 l 300.906 116.734 307.496 136.453 299.398 152.684 c 231.707
 288 l h
360 288 m f
192 300 m 194.828 300.027 197.242 302.047 197.773 304.824 c 198.305 307.602
 196.805 310.371 194.188 311.438 c 191.57 312.508 188.559 311.582 186.992
 309.227 c 185.43 306.871 185.742 303.738 187.738 301.738 c 188.891 300.645
 190.41 300.023 192 300 c h
192 300 m f
Q Q
showpage
%%Trailer
end restore
%%EOF
