%!PS-Adobe-3.0 EPSF-3.0
%%Creator: cairo 1.14.8 (http://cairographics.org)
%%CreationDate: Wed Feb 20 09:42:43 2019
%%Pages: 1
%%DocumentData: Clean7Bit
%%LanguageLevel: 2
%%BoundingBox: 12 24 372 360
%%EndComments
%%BeginProlog
save
50 dict begin
/q { gsave } bind def
/Q { grestore } bind def
/cm { 6 array astore concat } bind def
/w { setlinewidth } bind def
/J { setlinecap } bind def
/j { setlinejoin } bind def
/M { setmiterlimit } bind def
/d { setdash } bind def
/m { moveto } bind def
/l { lineto } bind def
/c { curveto } bind def
/h { closepath } bind def
/re { exch dup neg 3 1 roll 5 3 roll moveto 0 rlineto
      0 exch rlineto 0 rlineto closepath } bind def
/S { stroke } bind def
/f { fill } bind def
/f* { eofill } bind def
/n { newpath } bind def
/W { clip } bind def
/W* { eoclip } bind def
/BT { } bind def
/ET { } bind def
/pdfmark where { pop globaldict /?pdfmark /exec load put }
    { globaldict begin /?pdfmark /pop load def /pdfmark
    /cleartomark load def end } ifelse
/BDC { mark 3 1 roll /BDC pdfmark } bind def
/EMC { mark /EMC pdfmark } bind def
/cairo_store_point { /cairo_point_y exch def /cairo_point_x exch def } def
/Tj { show currentpoint cairo_store_point } bind def
/TJ {
  {
    dup
    type /stringtype eq
    { show } { -0.001 mul 0 cairo_font_matrix dtransform rmoveto } ifelse
  } forall
  currentpoint cairo_store_point
} bind def
/cairo_selectfont { cairo_font_matrix aload pop pop pop 0 0 6 array astore
    cairo_font exch selectfont cairo_point_x cairo_point_y moveto } bind def
/Tf { pop /cairo_font exch def /cairo_font_matrix where
      { pop cairo_selectfont } if } bind def
/Td { matrix translate cairo_font_matrix matrix concatmatrix dup
      /cairo_font_matrix exch def dup 4 get exch 5 get cairo_store_point
      /cairo_font where { pop cairo_selectfont } if } bind def
/Tm { 2 copy 8 2 roll 6 array astore /cairo_font_matrix exch def
      cairo_store_point /cairo_font where { pop cairo_selectfont } if } bind def
/g { setgray } bind def
/rg { setrgbcolor } bind def
/d1 { setcachedevice } bind def
%%EndProlog
%%BeginSetup
%%EndSetup
%%Page: 1 1
%%BeginPageSetup
%%PageBoundingBox: 12 24 372 360
%%EndPageSetup
q 12 24 360 336 rectclip q
0.701961 g
174 120 36 -78 re f
0.901961 g
18 336 348 -240 re f
144 54 m 240 54 l 246.648 54 252 48.648 252 42 c 252 35.352 246.648 30 
240 30 c 144 30 l 137.352 30 132 35.352 132 42 c 132 48.648 137.352 54 144
 54 c h
144 54 m f
0.00784314 0.6 0.541176 rg
240.004 132 m 264.004 156.004 l 342.008 78 l 318.004 54 l h
240.004 132 m f
0.423529 0.733333 0.780392 rg
192 167.996 m 227.996 203.996 l 251.996 179.996 l 216 143.996 l h
192 167.996 m f
0.513726 0.745098 0.72549 rg
222.004 150 m 246.008 174.004 l 264.008 156 l 240.008 132 l h
222.004 150 m f
0.654902 0.839216 0.866667 rg
246 252 m 246 195.668 200.332 150 144 150 c 87.668 150 42 195.668 42 252
 c 42 308.332 87.668 354 144 354 c 200.332 354 246 308.332 246 252 c h
246 252 m f
0.992157 0.713726 0.184314 rg
162 276.336 m 162 288 l 162 297.941 153.941 306 144 306 c 134.059 306 126
 297.941 126 288 c 126 276.336 l 114.391 267.922 107.66 254.336 108 240 
c 108 216.805 124.117 198 144 198 c 163.883 198 180 216.805 180 240 c 180.34
 254.336 173.609 267.922 162 276.336 c h
162 276.336 m f
0 g
144 360 m 122.801 360.016 102.074 353.754 84.434 342 c 12 342 l 12 90 l
 168 90 l 168 60 l 144 60 l 134.059 60 126 51.941 126 42 c 126 32.059 134.059
 24 144 24 c 240 24 l 249.941 24 258 32.059 258 42 c 258 51.941 249.941 
60 240 60 c 216 60 l 216 90 l 273.516 90 l 318 45.516 l 350.484 78 l 338.484
 90 l 372 90 l 372 342 l 203.566 342 l 185.926 353.754 165.199 360.016 144
 360 c h
240 252 m 240 213.172 216.609 178.168 180.738 163.309 c 144.863 148.449
 103.574 156.66 76.117 184.117 c 48.66 211.574 40.449 252.863 55.309 288.738
 c 70.168 324.609 105.172 348 144 348 c 196.992 347.938 239.938 304.992 
240 252 c h
246 165.516 m 255.516 156 l 240 140.484 l 230.484 150 l h
216 152.484 m 205.297 163.199 l 216.043 170.641 225.359 179.957 232.801
 190.703 c 243.516 180 l h
240 48 m 243.312 48 246 45.312 246 42 c 246 38.688 243.312 36 240 36 c 
144 36 l 140.688 36 138 38.688 138 42 c 138 45.312 140.688 48 144 48 c h
204 60 m 180 60 l 180 90 l 204 90 l h
24 102 m 24 330 l 69.504 330 l 30.426 292.777 24.863 232.402 56.488 188.668
 c 88.109 144.934 147.184 131.293 194.777 156.738 c 216 135.516 l 222 141.516
 l 261.516 102 l h
318 62.484 m 248.484 132 l 264 147.516 l 333.516 78 l h
360 330 m 360 102 l 326.484 102 l 254.484 174 l 260.484 180 l 239.262 201.223
 l 262.129 243.926 253.629 296.648 218.496 330 c h
360 330 m f
109.094 266.543 m 106.938 262.809 105.262 258.812 104.105 254.656 c 89.762
 258.258 l 70.105 251.699 l 73.895 240.301 l 90.238 245.742 l 102.148 242.742
 l 102.102 241.816 102 240.898 102 239.965 c 102.012 237.957 102.133 235.957
 102.367 233.965 c 88.199 233.965 l 68.688 220.957 l 75.348 210.973 l 91.801
 222 l 105.07 222 l 110.367 204.75 125.973 192.723 144 192 c 162.02 192.73
 177.617 204.758 182.91 222 c 196.199 222 l 212.688 211.008 l 219.348 220.992
 l 199.801 234 l 185.633 234 l 185.867 235.992 185.988 237.996 186 240 c
 186 240.938 185.898 241.855 185.852 242.777 c 197.762 245.777 l 214.105
 240.336 l 217.895 251.734 l 198.238 258.246 l 183.895 254.645 l 182.738
 258.801 181.062 262.793 178.906 266.531 c 196.648 270.965 l 203.695 292.094
 l 192.293 295.883 l 187.34 281.012 l 170.734 276.859 l 169.844 277.711 
168.938 278.578 167.988 279.355 c 167.988 288 l 167.988 301.254 157.242 
312 143.988 312 c 130.734 312 119.988 301.254 119.988 288 c 119.988 279.367
 l 119.023 278.594 118.133 277.723 117.238 276.871 c 100.637 281.023 l 95.684
 295.895 l 84.281 292.105 l 91.324 270.977 l h
129.359 271.344 m 132 273.145 l 132 288 l 132 294.629 137.371 300 144 300
 c 150.629 300 156 294.629 156 288 c 156 273.145 l 158.641 271.344 l 168.566
 264.027 174.301 252.328 174 240 c 174 220.145 160.543 204 144 204 c 127.457
 204 114 220.145 114 240 c 113.691 252.336 119.426 264.047 129.359 271.367
 c h
129.359 271.344 m f
Q Q
showpage
%%Trailer
end restore
%%EOF
