%!PS-Adobe-3.0 EPSF-3.0
%%Creator: cairo 1.14.8 (http://cairographics.org)
%%CreationDate: Wed Feb 20 09:42:43 2019
%%Pages: 1
%%DocumentData: Clean7Bit
%%LanguageLevel: 2
%%BoundingBox: 12 12 372 373
%%EndComments
%%BeginProlog
save
50 dict begin
/q { gsave } bind def
/Q { grestore } bind def
/cm { 6 array astore concat } bind def
/w { setlinewidth } bind def
/J { setlinecap } bind def
/j { setlinejoin } bind def
/M { setmiterlimit } bind def
/d { setdash } bind def
/m { moveto } bind def
/l { lineto } bind def
/c { curveto } bind def
/h { closepath } bind def
/re { exch dup neg 3 1 roll 5 3 roll moveto 0 rlineto
      0 exch rlineto 0 rlineto closepath } bind def
/S { stroke } bind def
/f { fill } bind def
/f* { eofill } bind def
/n { newpath } bind def
/W { clip } bind def
/W* { eoclip } bind def
/BT { } bind def
/ET { } bind def
/pdfmark where { pop globaldict /?pdfmark /exec load put }
    { globaldict begin /?pdfmark /pop load def /pdfmark
    /cleartomark load def end } ifelse
/BDC { mark 3 1 roll /BDC pdfmark } bind def
/EMC { mark /EMC pdfmark } bind def
/cairo_store_point { /cairo_point_y exch def /cairo_point_x exch def } def
/Tj { show currentpoint cairo_store_point } bind def
/TJ {
  {
    dup
    type /stringtype eq
    { show } { -0.001 mul 0 cairo_font_matrix dtransform rmoveto } ifelse
  } forall
  currentpoint cairo_store_point
} bind def
/cairo_selectfont { cairo_font_matrix aload pop pop pop 0 0 6 array astore
    cairo_font exch selectfont cairo_point_x cairo_point_y moveto } bind def
/Tf { pop /cairo_font exch def /cairo_font_matrix where
      { pop cairo_selectfont } if } bind def
/Td { matrix translate cairo_font_matrix matrix concatmatrix dup
      /cairo_font_matrix exch def dup 4 get exch 5 get cairo_store_point
      /cairo_font where { pop cairo_selectfont } if } bind def
/Tm { 2 copy 8 2 roll 6 array astore /cairo_font_matrix exch def
      cairo_store_point /cairo_font where { pop cairo_selectfont } if } bind def
/g { setgray } bind def
/rg { setrgbcolor } bind def
/d1 { setcachedevice } bind def
%%EndProlog
%%BeginSetup
%%EndSetup
%%Page: 1 1
%%BeginPageSetup
%%PageBoundingBox: 12 12 372 373
%%EndPageSetup
q 12 12 360 361 rectclip q
0.513726 0.745098 0.72549 rg
342 336 m 339.266 335.973 336.559 335.477 333.996 334.531 c 328.922 348.105
 314.855 356.098 300.598 353.508 c 286.336 350.918 275.98 338.492 276 324
 c 266.059 324 258 315.941 258 306 c 258 296.059 266.059 288 276 288 c 342
 288 l 355.254 288 366 298.746 366 312 c 366 325.254 355.254 336 342 336
 c h
342 336 m f
0.423529 0.733333 0.780392 rg
162 342 m 158.094 341.992 154.207 341.438 150.457 340.355 c 141.164 358.035
 121.887 368.105 102.07 365.633 c 82.25 363.16 66.039 348.66 61.379 329.238
 c 51.406 331.324 41.012 329.082 32.781 323.074 c 24.551 317.062 19.254 
307.848 18.203 297.711 c 17.152 287.574 20.449 277.465 27.273 269.895 c 
34.098 262.328 43.809 258.004 54 258 c 162 258 l 185.195 258 204 276.805
 204 300 c 204 323.195 185.195 342 162 342 c h
162 342 m f
0.654902 0.839216 0.866667 rg
282 294 m 275.691 293.996 269.465 292.559 263.789 289.801 c 263.867 291.199
 264 292.586 264 294 c 264.027 331.438 235.344 362.641 198.035 365.758 c
 160.727 368.879 127.262 342.867 121.074 305.945 c 120.715 305.945 120.359
 306 120 306 c 93.492 306 72 284.508 72 258 c 72 231.492 93.492 210 120 
210 c 282 210 l 305.195 210 324 228.805 324 252 c 324 275.195 305.195 294
 282 294 c h
282 294 m f
0.701961 g
234 78 m 234 102 l 214.613 102 l 213.266 107.922 210.918 113.574 207.68
 118.711 c 221.398 132.426 l 204.426 149.398 l 190.711 135.68 l 185.574 
138.918 179.922 141.266 174 142.613 c 174 162 l 150 162 l 150 142.613 l 
144.078 141.266 138.426 138.918 133.289 135.68 c 119.574 149.398 l 102.602
 132.426 l 116.316 118.711 l 113.078 113.574 110.734 107.922 109.387 102
 c 90 102 l 90 78 l 109.387 78 l 110.734 72.078 113.082 66.426 116.32 61.289
 c 102.602 47.574 l 119.574 30.602 l 133.289 44.316 l 138.426 41.078 144.078
 38.734 150 37.387 c 150 18 l 174 18 l 174 37.387 l 179.922 38.734 185.574
 41.082 190.711 44.32 c 204.426 30.602 l 221.398 47.574 l 207.684 61.289
 l 210.922 66.426 213.266 72.078 214.613 78 c h
162 66 m 152.293 66 143.543 71.848 139.828 80.816 c 136.113 89.785 138.164
 100.105 145.031 106.969 c 151.895 113.836 162.215 115.887 171.184 112.172
 c 180.152 108.457 186 99.707 186 90 c 186 76.746 175.254 66 162 66 c h
162 66 m f
0.901961 g
282.434 78 m 282.426 80.203 282.215 82.398 281.801 84.562 c 294 91.609 
l 282 112.391 l 269.801 105.348 l 266.445 108.215 262.594 110.438 258.434
 111.906 c 258.434 126 l 234.434 126 l 234.434 111.906 l 230.262 110.441
 226.395 108.219 223.031 105.348 c 210.84 112.391 l 198.84 91.609 l 211.031
 84.562 l 210.199 80.227 210.199 75.773 211.031 71.438 c 198.84 64.391 l
 210.84 43.609 l 223.039 50.652 l 226.398 47.781 230.266 45.559 234.438 
44.094 c 234.438 30 l 258.438 30 l 258.438 44.094 l 262.598 45.562 266.453
 47.785 269.809 50.652 c 282 43.609 l 294 64.391 l 281.801 71.438 l 282.215
 73.602 282.426 75.797 282.434 78 c h
246.434 66 m 241.578 66 237.203 68.922 235.344 73.406 c 233.488 77.891 
234.516 83.055 237.945 86.484 c 241.379 89.918 246.539 90.945 251.023 89.086
 c 255.508 87.23 258.434 82.855 258.434 78 c 258.434 71.371 253.059 66 246.434
 66 c h
246.434 66 m f
0 g
372 312 m 371.98 328.559 358.559 341.98 342 342 c 340.426 342 338.855 341.867
 337.301 341.598 c 329.801 355.023 314.586 362.184 299.461 359.414 c 284.332
 356.641 272.648 344.551 270.391 329.34 c 267.773 328.688 265.285 327.602
 263.027 326.125 c 253.34 347.609 234.449 363.555 211.645 369.496 c 188.84
 375.441 164.57 370.746 145.625 356.723 c 132.426 369.578 113.574 374.805
 95.641 370.582 c 77.703 366.359 63.164 353.273 57.086 335.879 c 56.059 
335.957 55.027 336 54 336 c 30.805 336 12 317.195 12 294 c 12 270.805 30.805
 252 54 252 c 66.355 252 l 69.434 224.691 92.516 204.039 120 204 c 186 204
 l 186 144.906 l 184.043 145.781 182.039 146.551 180 147.203 c 180 168 l
 144 168 l 144 147.203 l 140.648 146.148 137.398 144.797 134.285 143.164
 c 119.574 157.879 l 94.121 132.426 l 108.836 117.715 l 107.199 114.602 
105.848 111.352 104.797 108 c 84 108 l 84 96 l 12 96 l 12 84 l 84 84 l 84
 72 l 104.797 72 l 105.848 68.648 107.199 65.398 108.836 62.285 c 94.121
 47.574 l 119.574 22.121 l 134.285 36.836 l 137.398 35.199 140.648 33.848
 144 32.797 c 144 12 l 180 12 l 180 32.797 l 183.352 33.848 186.602 35.199
 189.715 36.836 c 204.426 22.121 l 224.598 42.293 l 225.836 41.488 227.113
 40.75 228.434 40.086 c 228.434 24 l 264.434 24 l 264.434 40.086 l 266.465
 41.047 268.418 42.172 270.27 43.445 c 284.195 35.406 l 302.195 66.605 l
 288.289 74.633 l 288.383 75.77 288.434 76.891 288.434 78.012 c 288.434 
79.133 288.383 80.258 288.289 81.391 c 292.801 84 l 372 84 l 372 96 l 298.391
 96 l 284.195 120.602 l 270.27 112.559 l 268.418 113.836 266.465 114.961
 264.434 115.922 c 264.434 132 l 229.453 132 l 229.879 132.426 l 204.426
 157.879 l 198 151.453 l 198 204 l 282 204 l 300.465 203.98 317.301 214.562
 325.285 231.211 c 333.27 247.859 330.984 267.613 319.41 282 c 342 282 l
 358.559 282.02 371.98 295.441 372 312 c h
240.434 107.664 m 240.434 120 l 252.434 120 l 252.434 107.664 l 256.43 
106.254 l 259.895 105.031 263.102 103.184 265.895 100.793 c 269.125 98.035
 l 279.805 104.195 l 285.805 93.805 l 275.137 87.648 l 275.902 83.484 l 
276.609 79.863 276.609 76.137 275.902 72.516 c 275.137 68.352 l 285.805 
62.195 l 279.805 51.805 l 269.125 57.965 l 265.895 55.207 l 263.102 52.816
 259.895 50.969 256.43 49.746 c 252.434 48.336 l 252.434 36 l 240.434 36
 l 240.434 48.336 l 236.438 49.746 l 232.969 50.969 229.758 52.82 226.961
 55.207 c 223.734 57.965 l 213.059 51.805 l 207.059 62.195 l 217.723 68.352
 l 216.953 72.516 l 216.258 76.141 216.258 79.859 216.953 83.484 c 217.723
 87.648 l 207.059 93.805 l 213.059 104.195 l 223.734 98.035 l 226.961 100.793
 l 229.758 103.18 232.969 105.031 236.438 106.254 c h
228.434 130.98 m 228.434 115.914 l 226.398 114.957 224.445 113.832 222.594
 112.555 c 215.762 116.496 l 215.562 116.902 215.375 117.312 215.16 117.695
 c h
212.91 132.426 m 200.059 119.574 l 202.602 115.52 l 203.172 114.613 203.605
 113.645 204.113 112.703 c 191.852 91.465 l 191.102 107.688 177.539 120.344
 161.301 119.973 c 145.066 119.598 132.098 106.328 132.098 90.086 c 132.098
 73.848 145.066 60.578 161.301 60.203 c 177.539 59.828 191.102 72.488 191.852
 88.711 c 204.602 81.379 l 204.496 80.238 204.449 79.109 204.449 78 c 204.449
 76.891 204.496 75.762 204.602 74.621 c 190.66 66.602 l 205.766 40.434 l
 204.426 39.098 l 191.566 51.953 l 187.512 49.398 l 182.949 46.508 177.93
 44.414 172.668 43.199 c 168 42.168 l 168 24 l 156 24 l 156 42.168 l 151.332
 43.23 l 146.07 44.43 141.051 46.516 136.488 49.391 c 132.434 51.949 l 119.574
 39.09 l 111.09 47.574 l 123.949 60.434 l 121.391 64.488 l 118.504 69.051
 116.41 74.07 115.199 79.332 c 114.168 84 l 96 84 l 96 96 l 114.168 96 l
 115.23 100.668 l 116.43 105.93 118.516 110.949 121.391 115.512 c 123.949
 119.566 l 111.09 132.426 l 119.574 140.91 l 132.434 128.051 l 136.48 130.602
 l 141.051 133.48 146.07 135.566 151.332 136.77 c 156 137.832 l 156 156 
l 168 156 l 168 137.832 l 172.668 136.77 l 177.93 135.566 182.949 133.48
 187.52 130.602 c 191.566 128.051 l 204.426 140.91 l h
180 90 m 180 82.719 175.613 76.156 168.887 73.371 c 162.164 70.586 154.422
 72.125 149.273 77.273 c 144.125 82.422 142.586 90.164 145.371 96.887 c 
148.156 103.613 154.719 108 162 108 c 171.941 108 180 99.941 180 90 c h
276 318 m 282 318 l 282 324 l 281.973 335.598 290.262 345.551 301.672 347.617
 c 313.086 349.684 324.34 343.273 328.379 332.398 c 330.457 326.887 l 336
 328.871 l 337.918 329.594 339.949 329.973 342 330 c 351.941 330 360 321.941
 360 312 c 360 302.059 351.941 294 342 294 c 305.184 294 l 294.426 299.973
 281.773 301.562 269.875 298.43 c 269.57 303.75 268.711 309.027 267.316 
314.172 c 269.562 316.59 272.703 317.977 276 318 c h
24 294 m 24.02 310.559 37.441 323.98 54 324 c 56.07 323.996 58.133 323.785
 60.16 323.363 c 65.855 322.164 l 67.199 327.84 l 70.66 342.34 81.562 353.91
 95.836 358.223 c 110.105 362.531 125.59 358.934 136.5 348.773 c 126.438
 338.586 119.391 325.812 116.137 311.867 c 90.191 309.957 69.281 289.852
 66.359 264 c 54 264 l 37.441 264.02 24.02 277.441 24 294 c h
282 216 m 120 216 l 96.805 216.035 78.027 234.867 78.062 258.062 c 78.098
 281.258 96.93 300.035 120.125 300 c 126.125 299.879 l 126.977 304.969 l
 132.613 338.852 163.312 362.738 197.543 359.875 c 231.773 357.008 258.074
 328.352 258 294 c 258 293.102 257.934 292.199 257.875 291.324 c 257.195
 279.961 l 266.398 284.398 l 276.273 289.184 287.789 289.199 297.68 284.449
 c 307.566 279.699 314.75 270.699 317.191 260.004 c 319.629 249.309 317.059
 238.086 310.207 229.516 c 303.355 220.949 292.973 215.973 282 216 c h
282 216 m f
246.434 60 m 253.711 60 260.277 64.387 263.062 71.113 c 265.848 77.836 
264.309 85.578 259.16 90.727 c 254.012 95.875 246.27 97.414 239.543 94.629
 c 232.816 91.844 228.434 85.281 228.434 78 c 228.434 68.059 236.492 60 
246.434 60 c h
246.434 84 m 248.859 84 251.047 82.539 251.977 80.297 c 252.902 78.055 
252.391 75.473 250.676 73.758 c 248.957 72.043 246.379 71.527 244.137 72.457
 c 241.895 73.387 240.434 75.574 240.434 78 c 240.434 81.312 243.117 84 
246.434 84 c h
246.434 84 m f
Q Q
showpage
%%Trailer
end restore
%%EOF
