%!PS-Adobe-3.0 EPSF-3.0
%%Creator: cairo 1.14.8 (http://cairographics.org)
%%CreationDate: Wed Feb 20 09:42:43 2019
%%Pages: 1
%%DocumentData: Clean7Bit
%%LanguageLevel: 2
%%BoundingBox: 12 12 372 372
%%EndComments
%%BeginProlog
save
50 dict begin
/q { gsave } bind def
/Q { grestore } bind def
/cm { 6 array astore concat } bind def
/w { setlinewidth } bind def
/J { setlinecap } bind def
/j { setlinejoin } bind def
/M { setmiterlimit } bind def
/d { setdash } bind def
/m { moveto } bind def
/l { lineto } bind def
/c { curveto } bind def
/h { closepath } bind def
/re { exch dup neg 3 1 roll 5 3 roll moveto 0 rlineto
      0 exch rlineto 0 rlineto closepath } bind def
/S { stroke } bind def
/f { fill } bind def
/f* { eofill } bind def
/n { newpath } bind def
/W { clip } bind def
/W* { eoclip } bind def
/BT { } bind def
/ET { } bind def
/pdfmark where { pop globaldict /?pdfmark /exec load put }
    { globaldict begin /?pdfmark /pop load def /pdfmark
    /cleartomark load def end } ifelse
/BDC { mark 3 1 roll /BDC pdfmark } bind def
/EMC { mark /EMC pdfmark } bind def
/cairo_store_point { /cairo_point_y exch def /cairo_point_x exch def } def
/Tj { show currentpoint cairo_store_point } bind def
/TJ {
  {
    dup
    type /stringtype eq
    { show } { -0.001 mul 0 cairo_font_matrix dtransform rmoveto } ifelse
  } forall
  currentpoint cairo_store_point
} bind def
/cairo_selectfont { cairo_font_matrix aload pop pop pop 0 0 6 array astore
    cairo_font exch selectfont cairo_point_x cairo_point_y moveto } bind def
/Tf { pop /cairo_font exch def /cairo_font_matrix where
      { pop cairo_selectfont } if } bind def
/Td { matrix translate cairo_font_matrix matrix concatmatrix dup
      /cairo_font_matrix exch def dup 4 get exch 5 get cairo_store_point
      /cairo_font where { pop cairo_selectfont } if } bind def
/Tm { 2 copy 8 2 roll 6 array astore /cairo_font_matrix exch def
      cairo_store_point /cairo_font where { pop cairo_selectfont } if } bind def
/g { setgray } bind def
/rg { setrgbcolor } bind def
/d1 { setcachedevice } bind def
%%EndProlog
%%BeginSetup
%%EndSetup
%%Page: 1 1
%%BeginPageSetup
%%PageBoundingBox: 12 12 372 372
%%EndPageSetup
q 12 12 360 360 rectclip q
0.901961 g
120 336 144 -120 re f
0.701961 g
120 366 144 -30 re f
0.901961 g
18 138 144 -120 re f
0.701961 g
18 168 144 -30 re f
0.901961 g
222 138 144 -120 re f
0.701961 g
222 168 144 -30 re f
0 g
216 54 m 204 54 l 204 84 l 168 84 l 168 102 l 192 102 l 192 198 l 102 198
 l 102 240 l 114 240 l 114 210 l 270 210 l 270 372 l 114 372 l 114 252 l
 90 252 l 90 186 l 180 186 l 180 114 l 168 114 l 168 174 l 12 174 l 12 12
 l 168 12 l 168 72 l 192 72 l 192 42 l 216 42 l 216 12 l 372 12 l 372 174
 l 216 174 l h
126 360 m 258 360 l 258 342 l 126 342 l h
258 330 m 258 222 l 126 222 l 126 330 l h
24 162 m 156 162 l 156 144 l 24 144 l h
156 24 m 24 24 l 24 132 l 156 132 l h
360 24 m 228 24 l 228 132 l 360 132 l h
228 162 m 360 162 l 360 144 l 228 144 l h
228 162 m f
144 252 96 -12 re f
246 54 96 -12 re f
246 84 96 -12 re f
246 114 96 -12 re f
144 282 96 -12 re f
144 312 96 -12 re f
42 54 96 -12 re f
42 84 96 -12 re f
42 114 96 -12 re f
Q Q
showpage
%%Trailer
end restore
%%EOF
