%!PS-Adobe-3.0 EPSF-3.0
%%Creator: cairo 1.14.8 (http://cairographics.org)
%%CreationDate: Wed Feb 20 09:42:43 2019
%%Pages: 1
%%DocumentData: Clean7Bit
%%LanguageLevel: 2
%%BoundingBox: 12 12 372 373
%%EndComments
%%BeginProlog
save
50 dict begin
/q { gsave } bind def
/Q { grestore } bind def
/cm { 6 array astore concat } bind def
/w { setlinewidth } bind def
/J { setlinecap } bind def
/j { setlinejoin } bind def
/M { setmiterlimit } bind def
/d { setdash } bind def
/m { moveto } bind def
/l { lineto } bind def
/c { curveto } bind def
/h { closepath } bind def
/re { exch dup neg 3 1 roll 5 3 roll moveto 0 rlineto
      0 exch rlineto 0 rlineto closepath } bind def
/S { stroke } bind def
/f { fill } bind def
/f* { eofill } bind def
/n { newpath } bind def
/W { clip } bind def
/W* { eoclip } bind def
/BT { } bind def
/ET { } bind def
/pdfmark where { pop globaldict /?pdfmark /exec load put }
    { globaldict begin /?pdfmark /pop load def /pdfmark
    /cleartomark load def end } ifelse
/BDC { mark 3 1 roll /BDC pdfmark } bind def
/EMC { mark /EMC pdfmark } bind def
/cairo_store_point { /cairo_point_y exch def /cairo_point_x exch def } def
/Tj { show currentpoint cairo_store_point } bind def
/TJ {
  {
    dup
    type /stringtype eq
    { show } { -0.001 mul 0 cairo_font_matrix dtransform rmoveto } ifelse
  } forall
  currentpoint cairo_store_point
} bind def
/cairo_selectfont { cairo_font_matrix aload pop pop pop 0 0 6 array astore
    cairo_font exch selectfont cairo_point_x cairo_point_y moveto } bind def
/Tf { pop /cairo_font exch def /cairo_font_matrix where
      { pop cairo_selectfont } if } bind def
/Td { matrix translate cairo_font_matrix matrix concatmatrix dup
      /cairo_font_matrix exch def dup 4 get exch 5 get cairo_store_point
      /cairo_font where { pop cairo_selectfont } if } bind def
/Tm { 2 copy 8 2 roll 6 array astore /cairo_font_matrix exch def
      cairo_store_point /cairo_font where { pop cairo_selectfont } if } bind def
/g { setgray } bind def
/rg { setrgbcolor } bind def
/d1 { setcachedevice } bind def
%%EndProlog
%%BeginSetup
%%EndSetup
%%Page: 1 1
%%BeginPageSetup
%%PageBoundingBox: 12 12 372 373
%%EndPageSetup
q 12 12 360 361 rectclip q
0.654902 0.839216 0.866667 rg
42 270 m 342 270 l 348.629 270 354 264.629 354 258 c 354 42 l 30 42 l 30
 258 l 30 264.629 35.371 270 42 270 c h
42 270 m f
0.901961 g
54 246 276 -180 re f
0.423529 0.733333 0.780392 rg
18 42 m 366 42 l 366 30 l 366 23.371 360.629 18 354 18 c 30 18 l 23.371
 18 18 23.371 18 30 c h
18 42 m f
1 0.396078 0.211765 rg
192 156 m 156 114 l 174 114 l 174 90 l 210 90 l 210 114 l 228 114 l h
192 156 m f
0.992157 0.713726 0.184314 rg
282 276 m 282 226.293 241.707 186 192 186 c 142.293 186 102 226.293 102
 276 c 102 325.707 142.293 366 192 366 c 241.707 366 282 325.707 282 276
 c h
282 276 m f
0.00784314 0.6 0.541176 rg
279.758 256.254 m 279.805 256.469 279.875 256.676 279.926 256.891 c 280.523
 259.543 280.922 262.254 281.262 264.988 c 281.316 265.465 281.426 265.922
 281.473 266.395 c 281.82 269.586 281.996 272.789 282 276 c 281.988 279.375
 281.789 282.746 281.398 286.098 c 281.285 287.094 281.094 288.066 280.949
 289.055 c 280.609 291.391 280.219 293.711 279.695 295.98 c 279.461 297.023
 279.176 298.051 278.902 299.074 c 278.305 301.312 277.645 303.523 276.883
 305.676 c 276.574 306.562 276.281 307.445 275.914 308.316 c 274.988 310.715
 273.957 313.074 272.824 315.391 c 272.555 315.93 272.309 316.48 272.039
 317.023 c 265.883 328.941 257.164 339.344 246.504 347.488 c 240.059 342.898
 l 229.805 335.574 226.758 321.672 233.012 310.727 c 236.695 304.285 l 242.191
 294.668 240.566 282.562 232.734 274.734 c 227.324 269.32 224.746 261.695
 225.762 254.109 c 226.781 246.523 231.273 239.844 237.918 236.047 c 240.59
 234.523 l 247.719 230.449 256.41 230.207 263.754 233.879 c 273.953 238.984
 l 276.465 244.531 278.41 250.316 279.758 256.254 c h
279.758 256.254 m f
193.703 228.602 m 178.082 235.543 168.012 251.031 168 268.129 c 168 277.148
 165.18 285.945 159.938 293.285 c 157.109 297.246 l 146.512 312.012 127.805
 318.566 110.309 313.645 c 108.996 310.793 107.828 307.875 106.812 304.902
 c 106.77 304.781 l 105.828 301.969 105.027 299.109 104.371 296.215 c 104.305
 295.934 104.215 295.66 104.152 295.379 c 103.555 292.734 103.141 290.016
 102.785 287.281 c 102.719 286.758 102.605 286.254 102.551 285.727 c 102.188
 282.496 102.004 279.25 102 276 c 102 226.293 142.293 186 192 186 c 194.898
 186 197.754 186.168 200.586 186.434 c 202.512 186.625 204.406 186.93 206.297
 187.242 c 207.078 187.367 207.863 187.453 208.633 187.598 c 211.078 188.07
 213.492 188.641 215.875 189.305 c 216.277 189.406 l 218.809 190.121 221.293
 190.941 223.734 191.867 c 220.113 208.18 208.969 221.809 193.703 228.602
 c h
193.703 228.602 m f
0 g
360 258 m 360 267.941 351.941 276 342 276 c 288 276 l 287.992 279.504 287.789
 283 287.398 286.48 c 287.262 287.766 287.004 289.02 286.801 290.297 c 286.48
 292.41 286.156 294.496 285.703 296.594 c 285.359 298.145 284.93 299.672
 284.504 301.207 c 284.035 302.922 283.555 304.625 282.988 306.301 c 282.426
 307.973 281.844 309.547 281.191 311.148 c 280.535 312.75 279.941 314.148
 279.266 315.66 c 278.543 317.25 277.805 318.828 276.988 320.375 c 276.176
 321.926 275.316 323.375 274.441 324.848 c 273.617 326.227 272.84 327.617
 271.945 328.957 c 270.379 331.309 268.691 333.574 266.934 335.777 c 266.633
 336.148 266.383 336.551 266.074 336.926 c 263.82 339.652 261.418 342.258
 258.875 344.723 c 258.551 345.031 258.211 345.324 257.879 345.625 c 255.586
 347.805 253.184 349.867 250.68 351.809 c 250.48 351.961 250.312 352.141
 250.117 352.289 c 246.602 354.961 l 246.516 354.906 l 223.645 370.793 194.988
 375.93 168.023 368.977 c 141.059 362.023 118.457 343.672 106.117 318.707
 c 106.016 318.68 l 104.812 316.156 l 104.746 316.008 104.699 315.852 104.633
 315.703 c 103.379 312.953 102.258 310.141 101.27 307.266 c 101.137 306.895
 100.984 306.527 100.859 306.156 c 99.949 303.414 99.18 300.617 98.52 297.758
 c 98.395 297.234 98.23 296.719 98.117 296.195 c 97.52 293.52 97.121 290.797
 96.773 288.043 c 96.695 287.398 96.551 286.77 96.48 286.121 c 96.145 282.758
 95.984 279.379 96 276 c 42 276 l 32.059 276 24 267.941 24 258 c 24 48 l
 12 48 l 12 30 l 12 20.059 20.059 12 30 12 c 354 12 l 363.941 12 372 20.059
 372 30 c 372 48 l 360 48 l h
108.426 284.398 m 109.262 292.699 111.344 300.824 114.602 308.504 c 128.945
 311.398 143.66 305.633 152.215 293.754 c 155.039 289.801 l 159.574 283.484
 162.008 275.902 162 268.129 c 162.012 248.656 173.477 231.012 191.27 223.094
 c 203.066 217.816 212.164 207.906 216.414 195.703 c 214.57 195.102 212.719
 194.645 210.859 194.215 c 210.672 194.172 210.496 194.113 210.312 194.07
 c 208.992 193.77 207.652 193.547 206.32 193.312 c 204.988 193.078 203.719
 192.875 202.402 192.715 c 201.406 192.59 200.418 192.469 199.402 192.379
 c 196.949 192.16 194.484 192 191.977 192 c 145.613 192.062 108.051 229.637
 108 276 c 108 278.832 108.148 281.633 108.426 284.398 c h
192 180 m 195.031 180 198.047 180.168 201.055 180.457 c 202.777 180.617
 204.449 180.91 206.141 181.156 c 207.344 181.34 208.5 181.477 209.672 181.703
 c 211.926 182.125 214.129 182.664 216.324 183.238 c 216.875 183.391 217.441
 183.516 217.992 183.672 c 220.391 184.352 222.793 185.141 225.09 186 c 
225.344 186.098 225.602 186.156 225.859 186.254 c 228.672 187.312 l 228.91
 187.414 229.156 187.488 229.398 187.59 c 230.723 188.09 l 230.695 188.215
 l 251.594 197.5 268.512 213.906 278.438 234.512 c 278.562 234.57 l 279.438
 236.516 l 279.496 236.641 279.535 236.773 279.59 236.898 c 280.051 237.926
 280.508 238.957 280.934 240 c 324 240 l 324 72 l 60 72 l 60 240 l 103.066
 240 l 117.75 203.777 152.914 180.055 192 180 c h
269.352 243.379 m 261.07 239.242 l 255.523 236.461 248.953 236.645 243.57
 239.73 c 240.895 241.254 l 235.871 244.125 232.477 249.176 231.707 254.906
 c 230.941 260.641 232.887 266.406 236.977 270.496 c 246.707 280.25 248.723
 295.297 241.902 307.266 c 238.199 313.711 l 233.453 321.977 235.758 332.496
 243.527 338.016 c 246.277 339.977 l 248.453 338.121 250.535 336.152 252.516
 334.086 c 253.031 333.551 253.52 332.988 254.016 332.438 c 255.395 330.938
 256.715 329.395 257.969 327.809 c 258.699 326.883 259.402 325.938 260.082
 324.977 c 261.012 323.707 261.883 322.402 262.746 321.078 c 263.508 319.879
 264.246 318.68 264.949 317.477 c 265.648 316.277 266.25 315.078 266.867
 313.879 c 267.559 312.516 268.242 311.152 268.855 309.758 c 269.387 308.555
 269.852 307.355 270.316 306.098 c 270.871 304.668 271.434 303.234 271.906
 301.77 c 272.34 300.422 272.688 299.039 273.055 297.664 c 273.422 296.293
 273.828 294.906 274.129 293.465 c 274.488 291.762 274.727 290.027 274.98
 288.293 c 275.148 287.152 275.383 286.039 275.504 284.879 c 275.82 281.93
 275.988 278.965 276 276 c 276 273.156 275.852 270.348 275.574 267.602 c
 274.727 259.258 272.629 251.094 269.352 243.379 c h
192 360 m 207.59 359.996 222.863 355.617 236.09 347.363 c 223.684 338.176
 220.121 321.156 227.801 307.766 c 231.484 301.32 l 235.617 294.051 234.391
 284.914 228.484 278.992 c 221.754 272.258 218.547 262.77 219.809 253.332
 c 221.074 243.895 226.664 235.582 234.93 230.855 c 237.605 229.324 l 244.18
 225.539 251.941 224.359 259.344 226.027 c 251.059 214.883 240.152 205.957
 227.594 200.039 c 222.191 215.199 210.828 227.488 196.141 234.059 c 182.684
 240.051 174.012 253.398 174 268.129 c 174.02 278.402 170.809 288.422 164.82
 296.773 c 162 300.73 l 152.566 313.773 137.348 321.379 121.254 321.09 c
 136.637 345.297 163.316 359.973 192 360 c h
36 258 m 36 261.312 38.688 264 42 264 c 96.836 264 l 97.352 259.953 98.129
 255.945 99.16 252 c 48 252 l 48 60 l 336 60 l 336 252 l 284.84 252 l 285.09
 252.965 285.367 253.926 285.59 254.902 c 285.672 255.277 285.793 255.637
 285.875 256.008 c 286.434 258.629 286.828 261.305 287.164 264 c 342 264
 l 345.312 264 348 261.312 348 258 c 348 48 l 36 48 l h
360 30 m 360 26.688 357.312 24 354 24 c 30 24 l 26.688 24 24 26.688 24 
30 c 24 36 l 360 36 l h
360 30 m f
168 84 m 216 84 l 216 108 l 241.043 108 l 192 165.223 l 142.957 108 l 168
 108 l h
192 146.777 m 214.957 120 l 204 120 l 204 96 l 180 96 l 180 120 l 169.043
 120 l h
192 146.777 m f
Q Q
showpage
%%Trailer
end restore
%%EOF
