%!PS-Adobe-3.0 EPSF-3.0
%%Creator: cairo 1.14.8 (http://cairographics.org)
%%CreationDate: Wed Feb 20 09:42:43 2019
%%Pages: 1
%%DocumentData: Clean7Bit
%%LanguageLevel: 2
%%BoundingBox: 12 12 372 369
%%EndComments
%%BeginProlog
save
50 dict begin
/q { gsave } bind def
/Q { grestore } bind def
/cm { 6 array astore concat } bind def
/w { setlinewidth } bind def
/J { setlinecap } bind def
/j { setlinejoin } bind def
/M { setmiterlimit } bind def
/d { setdash } bind def
/m { moveto } bind def
/l { lineto } bind def
/c { curveto } bind def
/h { closepath } bind def
/re { exch dup neg 3 1 roll 5 3 roll moveto 0 rlineto
      0 exch rlineto 0 rlineto closepath } bind def
/S { stroke } bind def
/f { fill } bind def
/f* { eofill } bind def
/n { newpath } bind def
/W { clip } bind def
/W* { eoclip } bind def
/BT { } bind def
/ET { } bind def
/pdfmark where { pop globaldict /?pdfmark /exec load put }
    { globaldict begin /?pdfmark /pop load def /pdfmark
    /cleartomark load def end } ifelse
/BDC { mark 3 1 roll /BDC pdfmark } bind def
/EMC { mark /EMC pdfmark } bind def
/cairo_store_point { /cairo_point_y exch def /cairo_point_x exch def } def
/Tj { show currentpoint cairo_store_point } bind def
/TJ {
  {
    dup
    type /stringtype eq
    { show } { -0.001 mul 0 cairo_font_matrix dtransform rmoveto } ifelse
  } forall
  currentpoint cairo_store_point
} bind def
/cairo_selectfont { cairo_font_matrix aload pop pop pop 0 0 6 array astore
    cairo_font exch selectfont cairo_point_x cairo_point_y moveto } bind def
/Tf { pop /cairo_font exch def /cairo_font_matrix where
      { pop cairo_selectfont } if } bind def
/Td { matrix translate cairo_font_matrix matrix concatmatrix dup
      /cairo_font_matrix exch def dup 4 get exch 5 get cairo_store_point
      /cairo_font where { pop cairo_selectfont } if } bind def
/Tm { 2 copy 8 2 roll 6 array astore /cairo_font_matrix exch def
      cairo_store_point /cairo_font where { pop cairo_selectfont } if } bind def
/g { setgray } bind def
/rg { setrgbcolor } bind def
/d1 { setcachedevice } bind def
%%EndProlog
%%BeginSetup
%%EndSetup
%%Page: 1 1
%%BeginPageSetup
%%PageBoundingBox: 12 12 372 369
%%EndPageSetup
q 12 12 360 357 rectclip q
0.654902 0.839216 0.866667 rg
42 270 m 342 270 l 348.629 270 354 264.629 354 258 c 354 42 l 30 42 l 30
 258 l 30 264.629 35.371 270 42 270 c h
42 270 m f
0.423529 0.733333 0.780392 rg
18 42 m 366 42 l 366 30 l 366 23.371 360.629 18 354 18 c 30 18 l 23.371
 18 18 23.371 18 30 c h
18 42 m f
1 0.854902 0.666667 rg
192 234 m 168 186 l 168 78 l 168 71.371 173.371 66 180 66 c 204 66 l 210.629
 66 216 71.371 216 78 c 216 186 l h
192 234 m f
1 0.396078 0.211765 rg
216 168 m 204 156 l 192 168 l 180 156 l 168 168 l 168 96 l 216 96 l h
216 168 m f
0.470588 0.290196 0.258824 rg
180 210 m 183.184 206.816 187.5 205.027 192 205.027 c 196.5 205.027 200.816
 206.816 204 210 c 192 234 l h
180 210 m f
0.992157 0.713726 0.184314 rg
192 360 m 78 246 l 306 246 l h
192 312 m 222 282 l 162 282 l h
192 312 m f
0 g
360 48 m 360 258 l 360 267.941 351.941 276 342 276 c 284.484 276 l 192 
368.484 l 99.516 276 l 42 276 l 32.059 276 24 267.941 24 258 c 24 48 l 12
 48 l 12 30 l 12 20.059 20.059 12 30 12 c 354 12 l 363.941 12 372 20.059
 372 30 c 372 48 l h
291.516 252 m 270 252 l 270 264 l 258 264 l 258 252 l 246 252 l 246 270
 l 234 270 l 234 252 l 222 252 l 222 264 l 210 264 l 210 252 l 198 252 l
 198 270 l 186 270 l 186 252 l 174 252 l 174 264 l 162 264 l 162 252 l 150
 252 l 150 270 l 138 270 l 138 252 l 126 252 l 126 264 l 114 264 l 114 252
 l 92.484 252 l 192 351.516 l h
210 170.484 m 204 164.484 l 192 176.484 l 180 164.484 l 174 170.484 l 174
 184.586 l 182.336 201.254 l 188.441 198.301 195.559 198.301 201.664 201.254
 c 210 184.586 l h
174 90 m 210 90 l 210 78 l 210 74.688 207.312 72 204 72 c 180 72 l 176.688
 72 174 74.688 174 78 c h
210 102 m 174 102 l 174 153.516 l 180 147.516 l 192 159.516 l 204 147.516
 l 210 153.516 l h
196.332 211.922 m 193.566 210.738 190.434 210.738 187.668 211.922 c 192
 220.586 l h
36 258 m 36 261.312 38.688 264 42 264 c 87.516 264 l 63.516 240 l 188.316
 240 l 162 187.414 l 162 78 l 162 68.059 170.059 60 180 60 c 204 60 l 213.941
 60 222 68.059 222 78 c 222 187.414 l 195.707 240 l 320.508 240 l 296.508
 264 l 342 264 l 345.312 264 348 261.312 348 258 c 348 48 l 36 48 l h
360 30 m 360 26.688 357.312 24 354 24 c 30 24 l 26.688 24 24 26.688 24 
30 c 24 36 l 360 36 l h
360 30 m f
192 320.484 m 147.516 276 l 236.484 276 l h
192 303.516 m 207.516 288 l 176.484 288 l h
192 303.516 m f
Q Q
showpage
%%Trailer
end restore
%%EOF
