%!PS-Adobe-3.0 EPSF-3.0
%%Creator: cairo 1.14.8 (http://cairographics.org)
%%CreationDate: Wed Feb 20 09:42:43 2019
%%Pages: 1
%%DocumentData: Clean7Bit
%%LanguageLevel: 2
%%BoundingBox: 12 12 372 372
%%EndComments
%%BeginProlog
save
50 dict begin
/q { gsave } bind def
/Q { grestore } bind def
/cm { 6 array astore concat } bind def
/w { setlinewidth } bind def
/J { setlinecap } bind def
/j { setlinejoin } bind def
/M { setmiterlimit } bind def
/d { setdash } bind def
/m { moveto } bind def
/l { lineto } bind def
/c { curveto } bind def
/h { closepath } bind def
/re { exch dup neg 3 1 roll 5 3 roll moveto 0 rlineto
      0 exch rlineto 0 rlineto closepath } bind def
/S { stroke } bind def
/f { fill } bind def
/f* { eofill } bind def
/n { newpath } bind def
/W { clip } bind def
/W* { eoclip } bind def
/BT { } bind def
/ET { } bind def
/pdfmark where { pop globaldict /?pdfmark /exec load put }
    { globaldict begin /?pdfmark /pop load def /pdfmark
    /cleartomark load def end } ifelse
/BDC { mark 3 1 roll /BDC pdfmark } bind def
/EMC { mark /EMC pdfmark } bind def
/cairo_store_point { /cairo_point_y exch def /cairo_point_x exch def } def
/Tj { show currentpoint cairo_store_point } bind def
/TJ {
  {
    dup
    type /stringtype eq
    { show } { -0.001 mul 0 cairo_font_matrix dtransform rmoveto } ifelse
  } forall
  currentpoint cairo_store_point
} bind def
/cairo_selectfont { cairo_font_matrix aload pop pop pop 0 0 6 array astore
    cairo_font exch selectfont cairo_point_x cairo_point_y moveto } bind def
/Tf { pop /cairo_font exch def /cairo_font_matrix where
      { pop cairo_selectfont } if } bind def
/Td { matrix translate cairo_font_matrix matrix concatmatrix dup
      /cairo_font_matrix exch def dup 4 get exch 5 get cairo_store_point
      /cairo_font where { pop cairo_selectfont } if } bind def
/Tm { 2 copy 8 2 roll 6 array astore /cairo_font_matrix exch def
      cairo_store_point /cairo_font where { pop cairo_selectfont } if } bind def
/g { setgray } bind def
/rg { setrgbcolor } bind def
/d1 { setcachedevice } bind def
%%EndProlog
%%BeginSetup
%%EndSetup
%%Page: 1 1
%%BeginPageSetup
%%PageBoundingBox: 12 12 372 372
%%EndPageSetup
q 12 12 360 360 rectclip q
0.992157 0.713726 0.184314 rg
210 138 m 210 18 l 18 18 l 18 138 l 18 157.883 34.117 174 54 174 c 174 
174 l 193.883 174 210 157.883 210 138 c h
210 138 m f
1 0.854902 0.666667 rg
90 198 m 138 198 l 138 174 l 138 160.746 127.254 150 114 150 c 100.746 
150 90 160.746 90 174 c h
90 198 m f
0.470588 0.290196 0.258824 rg
114 366 m 64.293 366 24 325.707 24 276 c 24 198 l 204 198 l 204 276 l 204
 325.707 163.707 366 114 366 c h
114 366 m f
1 0.854902 0.666667 rg
54 270 m 36 270 l 29.371 270 24 264.629 24 258 c 24 251.371 29.371 246 
36 246 c 54 246 l h
54 270 m f
174 270 m 192 270 l 198.629 270 204 264.629 204 258 c 204 251.371 198.629
 246 192 246 c 174 246 l h
174 270 m f
1 0.913725 0.8 rg
180 252 m 180 294 l 48 294 l 48 252 l 48 215.551 77.551 186 114 186 c 150.449
 186 180 215.551 180 252 c h
180 252 m f
0.654902 0.839216 0.866667 rg
198 162 m 330 162 l 343.254 162 354 151.254 354 138 c 354 42 l 174 42 l
 174 138 l 174 151.254 184.746 162 198 162 c h
198 162 m f
0.423529 0.733333 0.780392 rg
162 42 m 366 42 l 366 30 l 366 23.371 360.629 18 354 18 c 174 18 l 167.371
 18 162 23.371 162 30 c h
162 42 m f
0 g
78 258 m 78 261.312 80.688 264 84 264 c 87.312 264 90 261.312 90 258 c 
90 252 l 102 252 l 102 258 l 102 267.941 93.941 276 84 276 c 74.059 276 
66 267.941 66 258 c 66 252 l 78 252 l h
78 258 m f
138 258 m 138 261.312 140.688 264 144 264 c 147.312 264 150 261.312 150
 258 c 150 252 l 162 252 l 162 258 l 162 267.941 153.941 276 144 276 c 134.059
 276 126 267.941 126 258 c 126 252 l 138 252 l h
138 258 m f
102 234 m 90 234 l 90 228 l 90 214.746 100.746 204 114 204 c 127.254 204
 138 214.746 138 228 c 138 234 l 126 234 l 126 228 l 126 221.371 120.629
 216 114 216 c 107.371 216 102 221.371 102 228 c h
102 234 m f
360 138 m 359.98 154.559 346.559 167.98 330 168 c 203.316 168 l 195.484
 175.672 184.965 179.98 174 180 c 144 180 l 144 186.602 l 147.371 188.148
 150.621 189.953 153.715 192 c 210 192 l 210 276 l 210 329.02 167.02 372
 114 372 c 60.98 372 18 329.02 18 276 c 18 192 l 74.285 192 l 77.379 189.953
 80.629 188.148 84 186.602 c 84 180 l 54 180 l 30.816 179.973 12.027 161.184
 12 138 c 12 18 l 12 14.688 14.688 12 18 12 c 354 12 l 363.941 12 372 20.059
 372 30 c 372 48 l 360 48 l h
348 138 m 348 48 l 180 48 l 180 138 l 180 147.941 188.059 156 198 156 c
 330 156 l 339.941 156 348 147.941 348 138 c h
54 288 m 174 288 l 174 252 l 174 218.863 147.137 192 114 192 c 80.863 192
 54 218.863 54 252 c h
186 264 m 192 264 l 195.312 264 198 261.312 198 258 c 198 254.688 195.312
 252 192 252 c 186 252 l h
167.516 204 m 176.613 214.105 182.648 226.594 184.914 240 c 192 240 l 194.047
 240.02 196.078 240.395 198 241.105 c 198 204 l h
114 360 m 160.371 359.949 197.949 322.371 198 276 c 198 274.895 l 196.078
 275.605 194.047 275.98 192 276 c 186 276 l 186 294 l 186 297.312 183.312
 300 180 300 c 48 300 l 44.688 300 42 297.312 42 294 c 42 276 l 36 276 l
 33.953 275.98 31.922 275.605 30 274.895 c 30 276 l 30.051 322.371 67.629
 359.949 114 360 c h
42 252 m 36 252 l 32.688 252 30 254.688 30 258 c 30 261.312 32.688 264 
36 264 c 42 264 l h
30 241.105 m 31.922 240.395 33.953 240.02 36 240 c 43.086 240 l 45.352 
226.594 51.387 214.105 60.484 204 c 30 204 l h
114 180 m 120.078 180.031 126.125 180.84 132 182.398 c 132 174 l 132 164.059
 123.941 156 114 156 c 104.059 156 96 164.059 96 174 c 96 182.398 l 101.875
 180.84 107.922 180.031 114 180 c h
24 138 m 24.02 154.559 37.441 167.98 54 168 c 84.602 168 l 87.438 154.02
 99.734 143.969 114 143.969 c 128.266 143.969 140.562 154.02 143.398 168
 c 174 168 l 178.133 167.992 182.219 167.129 186 165.469 c 175.078 160.699
 168.012 149.918 168 138 c 168 48 l 156 48 l 156 30 l 156.02 27.953 156.395
 25.922 157.105 24 c 72 24 l 72 102 l 60 102 l 60 24 l 24 24 l h
360 30 m 360 26.688 357.312 24 354 24 c 174 24 l 170.688 24 168 26.688 
168 30 c 168 36 l 360 36 l h
360 30 m f
244.242 88.242 m 230.484 102 l 244.242 115.758 l 235.758 124.242 l 213.516
 102 l 235.758 79.758 l h
244.242 88.242 m f
292.242 79.758 m 314.484 102 l 292.242 124.242 l 283.758 115.758 l 297.516
 102 l 283.758 88.242 l h
292.242 79.758 m f
252.309 85.902 m 264.316 121.902 l 275.699 118.105 l 263.691 82.105 l h
252.309 85.902 m f
Q Q
showpage
%%Trailer
end restore
%%EOF
