%!PS-Adobe-3.0 EPSF-3.0
%%Creator: cairo 1.14.8 (http://cairographics.org)
%%CreationDate: Wed Feb 20 09:42:43 2019
%%Pages: 1
%%DocumentData: Clean7Bit
%%LanguageLevel: 2
%%BoundingBox: 12 12 372 372
%%EndComments
%%BeginProlog
save
50 dict begin
/q { gsave } bind def
/Q { grestore } bind def
/cm { 6 array astore concat } bind def
/w { setlinewidth } bind def
/J { setlinecap } bind def
/j { setlinejoin } bind def
/M { setmiterlimit } bind def
/d { setdash } bind def
/m { moveto } bind def
/l { lineto } bind def
/c { curveto } bind def
/h { closepath } bind def
/re { exch dup neg 3 1 roll 5 3 roll moveto 0 rlineto
      0 exch rlineto 0 rlineto closepath } bind def
/S { stroke } bind def
/f { fill } bind def
/f* { eofill } bind def
/n { newpath } bind def
/W { clip } bind def
/W* { eoclip } bind def
/BT { } bind def
/ET { } bind def
/pdfmark where { pop globaldict /?pdfmark /exec load put }
    { globaldict begin /?pdfmark /pop load def /pdfmark
    /cleartomark load def end } ifelse
/BDC { mark 3 1 roll /BDC pdfmark } bind def
/EMC { mark /EMC pdfmark } bind def
/cairo_store_point { /cairo_point_y exch def /cairo_point_x exch def } def
/Tj { show currentpoint cairo_store_point } bind def
/TJ {
  {
    dup
    type /stringtype eq
    { show } { -0.001 mul 0 cairo_font_matrix dtransform rmoveto } ifelse
  } forall
  currentpoint cairo_store_point
} bind def
/cairo_selectfont { cairo_font_matrix aload pop pop pop 0 0 6 array astore
    cairo_font exch selectfont cairo_point_x cairo_point_y moveto } bind def
/Tf { pop /cairo_font exch def /cairo_font_matrix where
      { pop cairo_selectfont } if } bind def
/Td { matrix translate cairo_font_matrix matrix concatmatrix dup
      /cairo_font_matrix exch def dup 4 get exch 5 get cairo_store_point
      /cairo_font where { pop cairo_selectfont } if } bind def
/Tm { 2 copy 8 2 roll 6 array astore /cairo_font_matrix exch def
      cairo_store_point /cairo_font where { pop cairo_selectfont } if } bind def
/g { setgray } bind def
/rg { setrgbcolor } bind def
/d1 { setcachedevice } bind def
%%EndProlog
%%BeginSetup
%%EndSetup
%%Page: 1 1
%%BeginPageSetup
%%PageBoundingBox: 12 12 372 372
%%EndPageSetup
q 12 12 360 360 rectclip q
0.654902 0.839216 0.866667 rg
42 270 m 342 270 l 348.629 270 354 264.629 354 258 c 354 42 l 30 42 l 30
 258 l 30 264.629 35.371 270 42 270 c h
42 270 m f
0.423529 0.733333 0.780392 rg
18 42 m 366 42 l 366 30 l 366 23.371 360.629 18 354 18 c 30 18 l 23.371
 18 18 23.371 18 30 c h
18 42 m f
0.901961 g
66 66 m 318 66 l 324.629 66 330 71.371 330 78 c 330 330 l 54 330 l 54 78
 l 54 71.371 59.371 66 66 66 c h
66 66 m f
0.701961 g
54 318 m 330 318 l 330 354 l 330 360.629 324.629 366 318 366 c 66 366 l
 59.371 366 54 360.629 54 354 c h
54 318 m f
214.543 252 m 204.516 241.973 l 198.734 245.387 192.5 247.969 186 249.641
 c 186 270 l 150 270 l 150 249.641 l 143.5 247.969 137.266 245.387 131.484
 241.973 c 117.086 256.375 l 91.625 230.914 l 106.027 216.516 l 102.613 
210.734 100.031 204.5 98.359 198 c 78 198 l 78 162 l 98.359 162 l 100.031
 155.5 102.613 149.266 106.027 143.484 c 91.625 129.086 l 117.086 103.625
 l 131.484 118.027 l 137.266 114.613 143.5 112.031 150 110.359 c 150 90 
l 186 90 l 186 110.359 l 192.5 112.031 198.734 114.613 204.516 118.027 c
 218.914 103.625 l 244.375 129.086 l 229.973 143.484 l 233.387 149.266 235.969
 155.5 237.641 162 c 258 162 l 258 198 l 237.641 198 l 235.969 204.5 233.387
 210.734 229.973 216.516 c 240 226.543 l h
168 138 m 151.012 138 135.699 148.234 129.195 163.926 c 122.695 179.621
 126.289 197.688 138.301 209.699 c 150.312 221.711 168.379 225.305 184.074
 218.805 c 199.766 212.301 210 196.988 210 180 c 210 156.805 191.195 138
 168 138 c h
168 138 m f
0.501961 g
252 282 m 248.727 281.98 245.465 281.578 242.285 280.801 c 235.391 292.738
 l 214.609 280.738 l 221.504 268.801 l 216.984 264.043 213.648 258.285 211.766
 252 c 198 252 l 198 228 l 211.766 228 l 213.648 221.715 216.984 215.957
 221.504 211.199 c 214.609 199.254 l 235.391 187.254 l 242.285 199.195 l
 248.668 197.625 255.332 197.625 261.715 199.195 c 268.609 187.254 l 289.391
 199.254 l 282.496 211.199 l 287.016 215.957 290.352 221.715 292.234 228
 c 306 228 l 306 252 l 292.234 252 l 290.352 258.285 287.016 264.043 282.496
 268.801 c 289.391 280.746 l 268.609 292.746 l 261.715 280.801 l 258.535
 281.578 255.273 281.98 252 282 c h
270 240 m 270 232.719 265.613 226.156 258.887 223.371 c 252.164 220.586
 244.422 222.125 239.273 227.273 c 234.125 232.422 232.586 240.164 235.371
 246.887 c 238.156 253.613 244.719 258 252 258 c 261.941 258 270 249.941
 270 240 c h
270 240 m f
0 g
360 258 m 360 267.941 351.941 276 342 276 c 336 276 l 336 354 l 336 363.941
 327.941 372 318 372 c 66 372 l 56.059 372 48 363.941 48 354 c 48 276 l 
42 276 l 32.059 276 24 267.941 24 258 c 24 48 l 12 48 l 12 30 l 12 20.059
 20.059 12 30 12 c 354 12 l 363.941 12 372 20.059 372 30 c 372 48 l 360 
48 l h
60 354 m 60 357.312 62.688 360 66 360 c 318 360 l 321.312 360 324 357.312
 324 354 c 324 324 l 60 324 l h
324 312 m 324 78 l 324 74.688 321.312 72 318 72 c 66 72 l 62.688 72 60 
74.688 60 78 c 60 312 l h
36 258 m 36 261.312 38.688 264 42 264 c 48 264 l 48 78 l 48 68.059 56.059
 60 66 60 c 318 60 l 327.941 60 336 68.059 336 78 c 336 264 l 342 264 l 
345.312 264 348 261.312 348 258 c 348 48 l 36 48 l h
360 30 m 360 26.688 357.312 24 354 24 c 30 24 l 26.688 24 24 26.688 24 
30 c 24 36 l 360 36 l h
360 30 m f
82.262 346.262 m 81.688 346.801 81.016 347.23 80.281 347.52 c 78.82 348.121
 77.18 348.121 75.719 347.52 c 74.984 347.23 74.312 346.801 73.738 346.262
 c 71.387 343.906 71.387 340.094 73.738 337.738 c 76.094 335.387 79.906 
335.387 82.262 337.738 c 82.801 338.312 83.23 338.984 83.52 339.719 c 84.16
 341.172 84.16 342.828 83.52 344.281 c 83.23 345.016 82.801 345.688 82.262
 346.262 c h
82.262 346.262 m f
106.262 346.262 m 103.855 348.48 100.145 348.48 97.738 346.262 c 97.184
 345.695 96.754 345.023 96.48 344.281 c 96.172 343.559 96.008 342.785 96
 342 c 96.012 340.41 96.637 338.883 97.738 337.738 c 100.105 335.418 103.895
 335.418 106.262 337.738 c 107.363 338.883 107.988 340.41 108 342 c 107.992
 342.785 107.828 343.559 107.52 344.281 c 107.246 345.023 106.816 345.695
 106.262 346.262 c h
106.262 346.262 m f
130.262 346.262 m 128.543 347.992 125.949 348.512 123.699 347.578 c 121.449
 346.641 119.984 344.438 120 342 c 119.984 339.562 121.449 337.359 123.699
 336.422 c 125.949 335.488 128.543 336.008 130.262 337.738 c 130.789 338.324
 131.215 338.992 131.52 339.719 c 132.16 341.172 132.16 342.828 131.52 344.281
 c 131.215 345.008 130.789 345.676 130.262 346.262 c h
130.262 346.262 m f
98.598 144.539 m 83.148 129.09 l 117.09 95.148 l 132.539 110.598 l 136.227
 108.715 140.059 107.129 144 105.859 c 144 84 l 192 84 l 192 105.859 l 195.941
 107.129 199.773 108.715 203.461 110.598 c 218.91 95.148 l 252.852 129.09
 l 237.402 144.539 l 239.285 148.227 240.871 152.059 242.141 156 c 264 156
 l 264 183.215 l 266.398 179.016 l 297.602 197.016 l 289.801 210.48 l 292.547
 213.992 294.793 217.871 296.477 222 c 312 222 l 312 258 l 296.477 258 l
 294.797 262.121 292.559 265.992 289.816 269.504 c 297.617 282.965 l 266.418
 300.965 l 258.652 287.516 l 254.246 288.156 249.766 288.156 245.359 287.516
 c 237.602 300.965 l 206.398 282.965 l 214.199 269.504 l 211.453 265.992
 209.207 262.125 207.523 258 c 192 258 l 192 276 l 144 276 l 144 254.141
 l 140.059 252.871 136.227 251.285 132.539 249.402 c 117.09 264.852 l 83.148
 230.91 l 98.598 215.461 l 96.715 211.773 95.129 207.941 93.859 204 c 72
 204 l 72 156 l 93.859 156 l 95.129 152.059 96.715 148.227 98.598 144.539
 c h
216.238 246 m 217.512 250.289 l 219.141 255.676 222 260.605 225.863 264.691
 c 228.938 267.938 l 222.805 278.555 l 233.195 284.555 l 239.32 273.941 
l 243.672 274.973 l 249.141 276.324 254.859 276.324 260.328 274.973 c 264.68
 273.941 l 270.805 284.555 l 281.195 278.555 l 275.062 267.938 l 278.137
 264.691 l 282 260.605 284.859 255.676 286.488 250.289 c 287.762 246 l 300
 246 l 300 234 l 287.762 234 l 286.488 229.711 l 284.859 224.324 282 219.395
 278.137 215.309 c 275.062 212.062 l 281.195 201.445 l 270.805 195.445 l
 264.68 206.059 l 260.328 205.027 l 254.859 203.676 249.141 203.676 243.672
 205.027 c 239.32 206.059 l 233.195 195.445 l 222.805 201.445 l 228.938 
212.062 l 225.863 215.309 l 222 219.395 219.141 224.324 217.512 229.711 
c 216.238 234 l 204 234 l 204 246 l h
84 192 m 103.008 192 l 104.172 196.5 l 105.707 202.457 108.07 208.168 111.191
 213.469 c 113.555 217.477 l 100.117 230.91 l 117.09 247.883 l 130.523 234.445
 l 134.531 236.809 l 139.832 239.93 145.543 242.293 151.5 243.828 c 156 
244.992 l 156 264 l 180 264 l 180 244.992 l 184.5 243.828 l 187.047 243.152
 189.551 242.324 192 241.352 c 192 222 l 207.523 222 l 209.203 217.879 211.441
 214.008 214.184 210.496 c 210 203.219 l 197.523 226.055 169.41 235.207 
145.883 224.098 c 122.352 212.988 111.559 185.465 121.262 161.32 c 130.965
 137.18 157.805 124.781 182.477 133.043 c 207.148 141.309 221.109 167.367
 214.312 192.484 c 237.602 179.035 l 245.363 192.484 l 247.562 192.168 249.777
 192.004 252 192 c 252 168 l 232.992 168 l 231.828 163.5 l 230.293 157.543
 227.93 151.832 224.809 146.531 c 222.445 142.523 l 235.883 129.09 l 218.91
 112.117 l 205.477 125.555 l 201.469 123.191 l 196.168 120.07 190.457 117.707
 184.5 116.172 c 180 115.008 l 180 96 l 156 96 l 156 115.008 l 151.5 116.172
 l 145.543 117.707 139.832 120.07 134.531 123.191 c 130.523 125.555 l 117.09
 112.117 l 100.117 129.09 l 113.555 142.523 l 111.191 146.531 l 108.07 151.832
 105.707 157.543 104.172 163.5 c 103.008 168 l 84 168 l h
204 180 m 204 165.438 195.23 152.312 181.777 146.742 c 168.324 141.168 
152.84 144.25 142.543 154.543 c 132.25 164.84 129.168 180.324 134.742 193.777
 c 140.312 207.23 153.438 216 168 216 c 187.875 215.98 203.98 199.875 204
 180 c h
204 180 m f
252 216 m 261.707 216 270.457 221.848 274.172 230.816 c 277.887 239.785
 275.836 250.105 268.969 256.969 c 262.105 263.836 251.785 265.887 242.816
 262.172 c 233.848 258.457 228 249.707 228 240 c 228 226.746 238.746 216
 252 216 c h
252 252 m 256.855 252 261.23 249.078 263.086 244.594 c 264.945 240.109 
263.918 234.945 260.484 231.516 c 257.055 228.082 251.891 227.055 247.406
 228.914 c 242.922 230.77 240 235.145 240 240 c 240 246.629 245.371 252 
252 252 c h
252 252 m f
Q Q
showpage
%%Trailer
end restore
%%EOF
