%!PS-Adobe-3.0 EPSF-3.0
%%Creator: cairo 1.14.8 (http://cairographics.org)
%%CreationDate: Wed Feb 20 09:42:43 2019
%%Pages: 1
%%DocumentData: Clean7Bit
%%LanguageLevel: 2
%%BoundingBox: 12 12 372 372
%%EndComments
%%BeginProlog
save
50 dict begin
/q { gsave } bind def
/Q { grestore } bind def
/cm { 6 array astore concat } bind def
/w { setlinewidth } bind def
/J { setlinecap } bind def
/j { setlinejoin } bind def
/M { setmiterlimit } bind def
/d { setdash } bind def
/m { moveto } bind def
/l { lineto } bind def
/c { curveto } bind def
/h { closepath } bind def
/re { exch dup neg 3 1 roll 5 3 roll moveto 0 rlineto
      0 exch rlineto 0 rlineto closepath } bind def
/S { stroke } bind def
/f { fill } bind def
/f* { eofill } bind def
/n { newpath } bind def
/W { clip } bind def
/W* { eoclip } bind def
/BT { } bind def
/ET { } bind def
/pdfmark where { pop globaldict /?pdfmark /exec load put }
    { globaldict begin /?pdfmark /pop load def /pdfmark
    /cleartomark load def end } ifelse
/BDC { mark 3 1 roll /BDC pdfmark } bind def
/EMC { mark /EMC pdfmark } bind def
/cairo_store_point { /cairo_point_y exch def /cairo_point_x exch def } def
/Tj { show currentpoint cairo_store_point } bind def
/TJ {
  {
    dup
    type /stringtype eq
    { show } { -0.001 mul 0 cairo_font_matrix dtransform rmoveto } ifelse
  } forall
  currentpoint cairo_store_point
} bind def
/cairo_selectfont { cairo_font_matrix aload pop pop pop 0 0 6 array astore
    cairo_font exch selectfont cairo_point_x cairo_point_y moveto } bind def
/Tf { pop /cairo_font exch def /cairo_font_matrix where
      { pop cairo_selectfont } if } bind def
/Td { matrix translate cairo_font_matrix matrix concatmatrix dup
      /cairo_font_matrix exch def dup 4 get exch 5 get cairo_store_point
      /cairo_font where { pop cairo_selectfont } if } bind def
/Tm { 2 copy 8 2 roll 6 array astore /cairo_font_matrix exch def
      cairo_store_point /cairo_font where { pop cairo_selectfont } if } bind def
/g { setgray } bind def
/rg { setrgbcolor } bind def
/d1 { setcachedevice } bind def
%%EndProlog
%%BeginSetup
%%EndSetup
%%Page: 1 1
%%BeginPageSetup
%%PageBoundingBox: 12 12 372 372
%%EndPageSetup
q 12 12 360 360 rectclip q
0.901961 g
66 18 m 318 18 l 344.508 18 366 39.492 366 66 c 366 318 l 18 318 l 18 66
 l 18 39.492 39.492 18 66 18 c h
66 18 m f
0.701961 g
18 318 m 366 318 l 366 344.508 344.508 366 318 366 c 66 366 l 39.492 366
 18 344.508 18 318 c h
18 318 m f
1 0.756863 0.686275 rg
180 270 m 180 260.059 171.941 252 162 252 c 152.059 252 144 260.059 144
 270 c 144 279.941 152.059 288 162 288 c 171.941 288 180 279.941 180 270
 c h
180 270 m f
0.960784 0.811765 0.407843 rg
313.332 142.98 m 313.332 133.039 305.273 124.98 295.332 124.98 c 285.391
 124.98 277.332 133.039 277.332 142.98 c 277.332 152.922 285.391 160.98 
295.332 160.98 c 305.273 160.98 313.332 152.922 313.332 142.98 c h
313.332 142.98 m f
0.513726 0.745098 0.72549 rg
136.668 91.02 m 136.668 81.078 128.609 73.02 118.668 73.02 c 108.727 73.02
 100.668 81.078 100.668 91.02 c 100.668 100.961 108.727 109.02 118.668 109.02
 c 128.609 109.02 136.668 100.961 136.668 91.02 c h
136.668 91.02 m f
0.423529 0.733333 0.780392 rg
222 168 m 222 151.43 208.57 138 192 138 c 175.43 138 162 151.43 162 168
 c 162 184.57 175.43 198 192 198 c 208.57 198 222 184.57 222 168 c h
222 168 m f
0 g
273.719 347.52 m 272.984 347.23 272.312 346.801 271.738 346.262 c 271.211
 345.676 270.785 345.008 270.48 344.281 c 270.172 343.559 270.008 342.785
 270 342 c 270.023 340.41 270.645 338.891 271.738 337.738 c 272.312 337.199
 272.984 336.77 273.719 336.48 c 274.441 336.172 275.215 336.008 276 336
 c 278.438 335.984 280.641 337.449 281.578 339.699 c 282.512 341.949 281.992
 344.543 280.262 346.262 c 278.535 347.961 275.953 348.461 273.719 347.52
 c h
273.719 347.52 m f
304.262 346.262 m 302.535 347.961 299.953 348.461 297.719 347.52 c 296.984
 347.23 296.312 346.801 295.738 346.262 c 295.184 345.695 294.754 345.023
 294.48 344.281 c 294.172 343.559 294.008 342.785 294 342 c 293.945 339.559
 295.434 337.344 297.719 336.48 c 298.441 336.172 299.215 336.008 300 336
 c 301.59 336.012 303.117 336.637 304.262 337.738 c 305.355 338.891 305.977
 340.41 306 342 c 305.992 342.785 305.828 343.559 305.52 344.281 c 305.23
 345.016 304.801 345.688 304.262 346.262 c h
304.262 346.262 m f
329.52 344.281 m 329.391 344.664 329.207 345.027 328.98 345.359 c 328.758
 345.676 328.52 345.977 328.262 346.262 c 326.543 347.992 323.949 348.512
 321.699 347.578 c 319.449 346.641 317.984 344.438 318 342 c 318 338.688
 320.688 336 324 336 c 327.312 336 330 338.688 330 342 c 329.988 342.383
 329.949 342.766 329.879 343.141 c 329.824 343.539 329.703 343.922 329.52
 344.281 c h
329.52 344.281 m f
77.684 102 m 81.656 95.508 87.719 90.559 94.871 87.961 c 96.098 78.301 
103.047 70.348 112.453 67.836 c 114.492 67.289 116.594 67.012 118.703 67.008
 c 129.832 67.027 139.473 74.719 141.961 85.566 c 142.879 85.715 143.762
 85.859 144.707 86.035 c 155.598 55.422 172.566 36 192 36 c 211.434 36 228.406
 55.43 239.305 86.051 c 247.215 84.531 255.25 83.73 263.305 83.652 c 283.703
 83.652 299.195 89.652 306.328 102.02 c 309.977 108.695 311.246 116.414 
309.93 123.906 c 319.059 130.852 321.996 143.289 316.938 153.586 c 311.879
 163.883 300.242 169.16 289.164 166.184 c 288.91 166.117 288.695 165.984
 288.445 165.91 c 287.844 166.621 287.281 167.336 286.645 168.043 c 307.703
 192.785 316.043 217.188 306.328 234.043 c 296.617 250.895 271.297 255.859
 239.316 249.977 c 228.406 280.566 211.441 300 192 300 c 184.391 299.805
 177.074 297.035 171.246 292.141 c 160.539 296.664 148.133 292.848 141.82
 283.09 c 135.508 273.332 137.113 260.449 145.625 252.539 c 145.301 251.672
 144.977 250.812 144.664 249.93 c 112.703 255.805 87.402 250.824 77.684 
233.988 c 67.961 217.152 76.312 192.738 97.391 167.988 c 76.312 143.25 67.961
 118.836 77.684 102 c h
130.254 87.91 m 128.773 82.383 123.59 78.668 117.879 79.043 c 112.168 79.418
 107.512 83.773 106.766 89.449 c 106.02 95.125 109.383 100.539 114.805 102.379
 c 120.223 104.223 126.191 101.977 129.055 97.02 c 130.656 94.266 131.09
 90.984 130.254 87.91 c h
144 168 m 144 177.211 144.48 186.254 145.324 195.047 c 152.32 199.996 159.863
 204.871 168 209.566 c 176.137 214.266 184.199 218.398 192 222 c 199.801
 218.398 207.836 214.297 216 209.578 c 223.98 204.973 231.562 200.039 238.766
 194.91 c 239.555 186.367 240 177.395 240 168 c 240 158.605 239.551 149.574
 238.754 141 c 231.73 136.031 224.164 131.141 216 126.426 c 208.02 121.816
 199.949 117.719 191.91 114.047 c 184.109 117.648 176.137 121.727 168 126.426
 c 159.863 131.125 152.27 136.027 145.246 141 c 144.449 149.574 144 158.566
 144 168 c h
132.551 150.652 m 125.82 156.043 119.426 161.836 113.398 168 c 119.441 
174.168 125.855 179.965 132.602 185.359 c 132.227 179.629 132 173.855 132
 168 c 132 162.145 132.227 156.336 132.551 150.652 c h
147.316 210.852 m 148.641 219.355 150.477 227.77 152.812 236.051 c 161.129
 233.922 169.305 231.289 177.301 228.168 c 172.219 225.605 167.102 222.926
 162 219.973 c 156.898 217.02 152.051 213.961 147.316 210.852 c h
206.719 228.16 m 214.75 231.301 222.965 233.941 231.316 236.074 c 233.645
 227.77 235.461 219.328 236.762 210.797 c 231.961 213.949 227.082 217.039
 222.012 219.965 c 216.941 222.895 211.801 225.602 206.699 228.16 c h
251.473 185.273 m 258.172 179.875 264.539 174.074 270.539 167.91 c 264.535
 161.781 258.164 156.016 251.465 150.652 c 251.773 156.336 252 162.09 252
 168 c 252 173.91 251.777 179.617 251.453 185.273 c h
236.746 125.191 m 235.449 116.664 233.633 108.227 231.305 99.926 c 222.953
 102.062 214.738 104.707 206.707 107.844 c 211.828 110.418 216.949 113.113
 222.02 116.035 c 227.09 118.957 231.988 122.062 236.746 125.191 c h
162 116.035 m 167.082 113.102 172.152 110.406 177.199 107.863 c 169.184
 104.773 160.992 102.168 152.664 100.062 c 150.355 108.328 148.555 116.723
 147.266 125.207 c 152.012 122.062 156.883 118.992 162 116.035 c h
192 48 m 179.102 48 165.707 62.969 156.348 88.586 c 168.539 91.762 180.461
 95.898 192 100.957 c 203.535 95.887 215.461 91.754 227.656 88.598 c 218.297
 62.969 204.898 48 192 48 c h
295.922 108 m 289.469 96.82 269.789 92.707 242.902 97.43 c 246.273 109.57
 248.664 121.961 250.051 134.484 c 258.82 140.941 267.145 147.988 274.969
 155.566 c 274.844 155.359 274.676 155.191 274.547 154.969 c 270.266 147.547
 270.262 138.406 274.539 130.984 c 278.816 123.562 286.727 118.98 295.297
 118.969 c 296.312 118.969 297.328 119.035 298.34 119.164 c 298.609 115.289
 297.77 111.418 295.922 108 c h
301.32 153.371 m 305.516 150.945 307.84 146.23 307.211 141.426 c 306.578
 136.617 303.121 132.664 298.441 131.398 c 294.57 130.363 290.438 131.328
 287.422 133.973 c 284.41 136.613 282.918 140.586 283.441 144.559 c 283.965
 148.535 286.438 151.984 290.031 153.754 c 293.625 155.527 297.867 155.387
 301.34 153.383 c h
295.922 228 m 302.371 216.828 296.105 197.742 278.598 176.832 c 269.75 
185.809 260.199 194.066 250.043 201.527 c 248.66 214.047 246.273 226.438
 242.902 238.57 c 269.789 243.293 289.469 239.18 295.922 228 c h
227.664 247.367 m 215.465 244.215 203.539 240.09 192 235.031 c 182.023 
239.398 171.762 243.09 161.285 246.07 c 161.531 246.07 161.754 246 162 246
 c 175.254 246 186 256.746 186 270 c 185.98 275.234 184.234 280.316 181.031
 284.453 c 184.273 286.66 188.082 287.891 192 288 c 204.906 288 218.309 
273 227.664 247.367 c h
162 282 m 166.855 282 171.23 279.078 173.086 274.594 c 174.945 270.109 
173.918 264.945 170.484 261.516 c 167.055 258.082 161.891 257.055 157.406
 258.914 c 152.922 260.77 150 265.145 150 270 c 150 276.629 155.371 282 
162 282 c h
88.078 228 m 94.523 239.172 114.188 243.289 141.055 238.586 c 137.711 226.43
 135.332 214.031 133.938 201.504 c 123.789 194.043 114.258 185.781 105.434
 176.797 c 87.898 197.723 81.602 216.82 88.078 228 c h
105.434 159.203 m 114.262 150.215 123.797 141.949 133.949 134.484 c 135.156
 123.656 137.094 112.922 139.754 102.355 c 139.633 102.57 139.57 102.805
 139.453 103.02 c 136.27 108.535 131.027 112.559 124.875 114.203 c 118.727
 115.852 112.176 114.988 106.66 111.805 c 102.141 109.168 98.617 105.117
 96.629 100.277 c 93.102 101.98 90.133 104.66 88.078 108 c 81.602 119.18
 87.898 138.277 105.434 159.203 c h
105.434 159.203 m f
228 168 m 228 182.562 219.23 195.688 205.777 201.258 c 192.324 206.832 
176.84 203.75 166.543 193.457 c 156.25 183.16 153.168 167.676 158.742 154.223
 c 164.312 140.77 177.438 132 192 132 c 211.875 132.02 227.98 148.125 228
 168 c h
168 168 m 168 177.707 173.848 186.457 182.816 190.172 c 191.785 193.887
 202.105 191.836 208.969 184.969 c 215.836 178.105 217.887 167.785 214.172
 158.816 c 210.457 149.848 201.707 144 192 144 c 178.746 144 168 154.746
 168 168 c h
168 168 m f
318 372 m 66 372 l 36.191 371.965 12.035 347.809 12 318 c 12 66 l 12.035
 36.191 36.191 12.035 66 12 c 318 12 l 347.809 12.035 371.965 36.191 372
 66 c 372 318 l 371.965 347.809 347.809 371.965 318 372 c h
66 360 m 318 360 l 338.871 359.973 356.566 344.652 359.574 324 c 24.426
 324 l 27.434 344.652 45.129 359.973 66 360 c h
360 66 m 359.973 42.816 341.184 24.027 318 24 c 66 24 l 42.816 24.027 24.027
 42.816 24 66 c 24 312 l 360 312 l h
360 66 m f
Q Q
showpage
%%Trailer
end restore
%%EOF
