%!PS-Adobe-3.0 EPSF-3.0
%%Creator: cairo 1.14.8 (http://cairographics.org)
%%CreationDate: Wed Feb 20 09:42:43 2019
%%Pages: 1
%%DocumentData: Clean7Bit
%%LanguageLevel: 2
%%BoundingBox: 12 12 372 372
%%EndComments
%%BeginProlog
save
50 dict begin
/q { gsave } bind def
/Q { grestore } bind def
/cm { 6 array astore concat } bind def
/w { setlinewidth } bind def
/J { setlinecap } bind def
/j { setlinejoin } bind def
/M { setmiterlimit } bind def
/d { setdash } bind def
/m { moveto } bind def
/l { lineto } bind def
/c { curveto } bind def
/h { closepath } bind def
/re { exch dup neg 3 1 roll 5 3 roll moveto 0 rlineto
      0 exch rlineto 0 rlineto closepath } bind def
/S { stroke } bind def
/f { fill } bind def
/f* { eofill } bind def
/n { newpath } bind def
/W { clip } bind def
/W* { eoclip } bind def
/BT { } bind def
/ET { } bind def
/pdfmark where { pop globaldict /?pdfmark /exec load put }
    { globaldict begin /?pdfmark /pop load def /pdfmark
    /cleartomark load def end } ifelse
/BDC { mark 3 1 roll /BDC pdfmark } bind def
/EMC { mark /EMC pdfmark } bind def
/cairo_store_point { /cairo_point_y exch def /cairo_point_x exch def } def
/Tj { show currentpoint cairo_store_point } bind def
/TJ {
  {
    dup
    type /stringtype eq
    { show } { -0.001 mul 0 cairo_font_matrix dtransform rmoveto } ifelse
  } forall
  currentpoint cairo_store_point
} bind def
/cairo_selectfont { cairo_font_matrix aload pop pop pop 0 0 6 array astore
    cairo_font exch selectfont cairo_point_x cairo_point_y moveto } bind def
/Tf { pop /cairo_font exch def /cairo_font_matrix where
      { pop cairo_selectfont } if } bind def
/Td { matrix translate cairo_font_matrix matrix concatmatrix dup
      /cairo_font_matrix exch def dup 4 get exch 5 get cairo_store_point
      /cairo_font where { pop cairo_selectfont } if } bind def
/Tm { 2 copy 8 2 roll 6 array astore /cairo_font_matrix exch def
      cairo_store_point /cairo_font where { pop cairo_selectfont } if } bind def
/g { setgray } bind def
/rg { setrgbcolor } bind def
/d1 { setcachedevice } bind def
%%EndProlog
%%BeginSetup
%%EndSetup
%%Page: 1 1
%%BeginPageSetup
%%PageBoundingBox: 12 12 372 372
%%EndPageSetup
q 12 12 360 360 rectclip q
0.654902 0.839216 0.866667 rg
42 252 m 342 252 l 348.629 252 354 246.629 354 240 c 354 42 l 30 42 l 30
 240 l 30 246.629 35.371 252 42 252 c h
42 252 m f
0.423529 0.733333 0.780392 rg
18 42 m 366 42 l 366 30 l 366 23.371 360.629 18 354 18 c 30 18 l 23.371
 18 18 23.371 18 30 c h
18 42 m f
0.00784314 0.6 0.541176 rg
54 306 276 -240 re f
0.992157 0.713726 0.184314 rg
222 306 m 216 366 l 168 366 l 162 306 l 162 289.43 175.43 276 192 276 c
 208.57 276 222 289.43 222 306 c h
222 306 m f
1 0.396078 0.211765 rg
282 306 m 264 366 l 216 366 l 222 306 l 222 289.43 235.43 276 252 276 c
 268.57 276 282 289.43 282 306 c h
282 306 m f
0.992157 0.713726 0.184314 rg
342 306 m 312 366 l 264 366 l 282 306 l 282 289.43 295.43 276 312 276 c
 328.57 276 342 289.43 342 306 c h
342 306 m f
1 0.396078 0.211765 rg
102 306 m 120 366 l 168 366 l 162 306 l 162 289.43 148.57 276 132 276 c
 115.43 276 102 289.43 102 306 c h
102 306 m f
0.992157 0.713726 0.184314 rg
102 306 m 102 289.43 88.57 276 72 276 c 55.43 276 42 289.43 42 306 c 72
 366 l 120 366 l h
102 306 m f
0 g
360 240 m 360 249.941 351.941 258 342 258 c 336 258 l 336 279.238 l 343.629
 286.043 347.992 295.777 348 306 c 348 307.414 l 315.707 372 l 68.293 372
 l 36 307.414 l 36 306 l 36.008 295.777 40.371 286.043 48 279.238 c 48 258
 l 42 258 l 32.059 258 24 249.941 24 240 c 24 48 l 12 48 l 12 30 l 12 20.059
 20.059 12 30 12 c 354 12 l 363.941 12 372 20.059 372 30 c 372 48 l 360 
48 l h
272.062 360 m 308.293 360 l 335.965 304.656 l 335.254 291.672 324.328 281.613
 311.328 281.98 c 298.328 282.344 287.984 292.996 288 306 c h
259.535 360 m 276 305.164 l 275.605 291.91 264.539 281.488 251.281 281.883
 c 238.027 282.277 227.605 293.344 228 306.602 c 222.602 360 l h
173.43 360 m 210.602 360 l 216 305.719 l 216.086 292.465 205.414 281.648
 192.16 281.559 c 178.902 281.473 168.086 292.145 168 305.398 c h
161.398 360 m 156 306 l 156.23 292.746 145.672 281.812 132.418 281.582 
c 119.164 281.352 108.23 291.91 108 305.164 c 124.465 360 l h
75.707 360 m 111.938 360 l 96.254 307.723 l 96 306 l 96.016 292.996 85.672
 282.344 72.672 281.98 c 59.672 281.613 48.746 291.672 48.035 304.656 c 
h
72 270 m 84.078 270.008 95.348 276.074 102 286.156 c 108.66 276.082 119.926
 270.016 132.004 270 c 144.082 269.98 155.363 276.02 162.055 286.074 c 168.723
 276.027 179.984 269.996 192.043 270.008 c 204.102 270.023 215.352 276.078
 222 286.141 c 228.656 276.062 239.926 270 252 270 c 264.074 270 275.344
 276.062 282 286.141 c 291.066 272.309 308.434 266.492 324 272.082 c 324
 72 l 60 72 l 60 272.102 l 63.852 270.719 67.91 270.012 72 270 c h
36 240 m 36 243.312 38.688 246 42 246 c 48 246 l 48 60 l 336 60 l 336 246
 l 342 246 l 345.312 246 348 243.312 348 240 c 348 48 l 36 48 l h
360 30 m 360 26.688 357.312 24 354 24 c 30 24 l 26.688 24 24 26.688 24 
30 c 24 36 l 360 36 l h
360 30 m f
133.078 120 m 281.281 120 l 294.883 222 l 124.922 222 l 118.922 252 l 90
 252 l 90 240 l 109.078 240 l h
281.148 210 m 270.75 132 l 142.922 132 l 127.32 210 l h
281.148 210 m f
144 102 m 144 94.719 148.387 88.156 155.113 85.371 c 161.836 82.586 169.578
 84.125 174.727 89.273 c 179.875 94.422 181.414 102.164 178.629 108.887 
c 175.844 115.613 169.281 120 162 120 c 152.059 120 144 111.941 144 102 
c h
162 108 m 164.426 108 166.613 106.539 167.543 104.297 c 168.473 102.055
 167.957 99.473 166.242 97.758 c 164.527 96.043 161.945 95.527 159.703 96.457
 c 157.461 97.387 156 99.574 156 102 c 156 105.312 158.688 108 162 108 c
 h
162 108 m f
234 102 m 234 94.719 238.387 88.156 245.113 85.371 c 251.836 82.586 259.578
 84.125 264.727 89.273 c 269.875 94.422 271.414 102.164 268.629 108.887 
c 265.844 115.613 259.281 120 252 120 c 242.059 120 234 111.941 234 102 
c h
252 108 m 254.426 108 256.613 106.539 257.543 104.297 c 258.473 102.055
 257.957 99.473 256.242 97.758 c 254.527 96.043 251.945 95.527 249.703 96.457
 c 247.461 97.387 246 99.574 246 102 c 246 105.312 248.688 108 252 108 c
 h
252 108 m f
Q Q
showpage
%%Trailer
end restore
%%EOF
