%!PS-Adobe-3.0 EPSF-3.0
%%Creator: cairo 1.14.8 (http://cairographics.org)
%%CreationDate: Wed Feb 20 09:42:43 2019
%%Pages: 1
%%DocumentData: Clean7Bit
%%LanguageLevel: 2
%%BoundingBox: 12 12 372 372
%%EndComments
%%BeginProlog
save
50 dict begin
/q { gsave } bind def
/Q { grestore } bind def
/cm { 6 array astore concat } bind def
/w { setlinewidth } bind def
/J { setlinecap } bind def
/j { setlinejoin } bind def
/M { setmiterlimit } bind def
/d { setdash } bind def
/m { moveto } bind def
/l { lineto } bind def
/c { curveto } bind def
/h { closepath } bind def
/re { exch dup neg 3 1 roll 5 3 roll moveto 0 rlineto
      0 exch rlineto 0 rlineto closepath } bind def
/S { stroke } bind def
/f { fill } bind def
/f* { eofill } bind def
/n { newpath } bind def
/W { clip } bind def
/W* { eoclip } bind def
/BT { } bind def
/ET { } bind def
/pdfmark where { pop globaldict /?pdfmark /exec load put }
    { globaldict begin /?pdfmark /pop load def /pdfmark
    /cleartomark load def end } ifelse
/BDC { mark 3 1 roll /BDC pdfmark } bind def
/EMC { mark /EMC pdfmark } bind def
/cairo_store_point { /cairo_point_y exch def /cairo_point_x exch def } def
/Tj { show currentpoint cairo_store_point } bind def
/TJ {
  {
    dup
    type /stringtype eq
    { show } { -0.001 mul 0 cairo_font_matrix dtransform rmoveto } ifelse
  } forall
  currentpoint cairo_store_point
} bind def
/cairo_selectfont { cairo_font_matrix aload pop pop pop 0 0 6 array astore
    cairo_font exch selectfont cairo_point_x cairo_point_y moveto } bind def
/Tf { pop /cairo_font exch def /cairo_font_matrix where
      { pop cairo_selectfont } if } bind def
/Td { matrix translate cairo_font_matrix matrix concatmatrix dup
      /cairo_font_matrix exch def dup 4 get exch 5 get cairo_store_point
      /cairo_font where { pop cairo_selectfont } if } bind def
/Tm { 2 copy 8 2 roll 6 array astore /cairo_font_matrix exch def
      cairo_store_point /cairo_font where { pop cairo_selectfont } if } bind def
/g { setgray } bind def
/rg { setrgbcolor } bind def
/d1 { setcachedevice } bind def
%%EndProlog
%%BeginSetup
%%EndSetup
%%Page: 1 1
%%BeginPageSetup
%%PageBoundingBox: 12 12 372 372
%%EndPageSetup
q 12 12 360 360 rectclip q
0.654902 0.839216 0.866667 rg
18 102 84 -84 re f
0.960784 0.811765 0.407843 rg
366 312 m 366 282.176 341.824 258 312 258 c 282.176 258 258 282.176 258
 312 c 258 341.824 282.176 366 312 366 c 341.824 366 366 341.824 366 312
 c h
366 312 m f
0.00784314 0.6 0.541176 rg
96 222 m 126.734 222 156.211 234.211 177.941 255.941 c 192 270 l 206.059
 255.941 l 227.789 234.211 257.266 222 288 222 c 288.004 165.059 262.344
 111.148 218.148 75.246 c 192 54 l 165.852 75.246 l 121.656 111.148 95.996
 165.059 96 222 c h
96 222 m f
0.992157 0.713726 0.184314 rg
216 186 m 216.039 194.586 211.492 202.535 204.074 206.855 c 196.656 211.176
 187.496 211.203 180.051 206.926 c 172.605 202.652 168.012 194.727 168 186.145
 c 167.988 177.559 172.566 169.621 180 165.328 c 180 138 l 180 131.371 185.371
 126 192 126 c 198.629 126 204 131.371 204 138 c 204 165.328 l 211.406 169.582
 215.98 177.461 216 186 c h
216 186 m f
0.654902 0.839216 0.866667 rg
18 366 m 18 282 l 60 324 l h
18 366 m f
0.00784314 0.6 0.541176 rg
18 366 m 73.031 310.969 l 82.402 301.598 97.598 301.598 106.969 310.969
 c 162 366 l h
18 366 m f
0.654902 0.839216 0.866667 rg
120 324 m 162 282 l 162 366 l h
120 324 m f
0.423529 0.733333 0.780392 rg
106.969 310.969 m 97.598 301.598 82.402 301.598 73.031 310.969 c 60 324
 l 18 282 l 162 282 l 120 324 l h
106.969 310.969 m f
1 0.854902 0.666667 rg
348 132 m 348 118.746 337.254 108 324 108 c 310.746 108 300 118.746 300
 132 c 300 145.254 310.746 156 324 156 c 337.254 156 348 145.254 348 132
 c h
348 132 m f
0.654902 0.839216 0.866667 rg
282 18 m 366 18 l 366 54 l 366 73.883 349.883 90 330 90 c 318 90 l 298.117
 90 282 73.883 282 54 c h
282 18 m f
0.00784314 0.6 0.541176 rg
18 54 m 18 18 l 102 18 l 42 78 l h
18 54 m f
1 0.396078 0.211765 rg
90 78 m 90 71.371 84.629 66 78 66 c 71.371 66 66 71.371 66 78 c 66 84.629
 71.371 90 78 90 c 84.629 90 90 84.629 90 78 c h
90 78 m f
0 g
210.301 260.184 m 192 278.484 l 173.699 260.184 l 153.137 239.508 125.16
 227.922 96 228 c 90 228 l 90 222 l 89.887 163.227 116.383 107.562 162.066
 70.59 c 192 46.273 l 221.934 70.59 l 267.617 107.562 294.113 163.227 294
 222 c 294 228 l 288 228 l 258.84 227.922 230.863 239.508 210.301 260.184
 c h
214.367 79.902 m 192 61.727 l 169.633 79.902 l 128.348 113.309 103.684 
163.059 102.098 216.145 c 132.297 217.574 160.867 230.262 182.184 251.699
 c 192 261.516 l 201.816 251.699 l 223.133 230.262 251.703 217.574 281.902
 216.145 c 280.316 163.059 255.652 113.309 214.367 79.902 c h
214.367 79.902 m f
184.879 215.172 m 173.609 212.445 164.93 203.457 162.602 192.098 c 160.27
 180.742 164.711 169.059 174 162.121 c 174 138 l 174 128.059 182.059 120
 192 120 c 201.941 120 210 128.059 210 138 c 210 162.125 l 221.355 170.68
 225.137 186.035 219.051 198.887 c 212.969 211.734 198.691 218.539 184.879
 215.172 c h
203.18 200.105 m 207.852 196.426 210.391 190.66 209.949 184.727 c 209.512
 178.793 206.148 173.465 200.98 170.516 c 197.98 168.781 l 197.98 138 l 
197.98 134.688 195.297 132 191.98 132 c 188.668 132 185.98 134.688 185.98
 138 c 185.98 168.781 l 182.98 170.516 l 176.609 174.148 173.09 181.297 
174.102 188.566 c 175.109 195.832 180.441 201.754 187.566 203.516 c 189.031
 203.848 190.531 204.012 192.035 204 c 196.086 204.012 200.02 202.641 203.18
 200.105 c h
203.18 200.105 m f
168 372 m 12 372 l 12 276 l 168 276 l h
102.727 315.211 m 95.695 308.184 84.305 308.184 77.273 315.211 c 32.484
 360 l 147.516 360 l h
51.516 324 m 24 296.484 l 24 351.516 l h
60 315.516 m 68.789 306.727 l 80.504 295.016 99.496 295.016 111.211 306.727
 c 120 315.516 l 147.516 288 l 32.484 288 l h
128.484 324 m 156 351.516 l 156 296.484 l h
128.484 324 m f
324 102 m 336.133 102 347.074 109.309 351.715 120.52 c 356.359 131.73 353.793
 144.633 345.215 153.215 c 336.633 161.793 323.73 164.359 312.52 159.715
 c 301.309 155.074 294 144.133 294 132 c 294.02 115.441 307.441 102.02 324
 102 c h
324 150 m 331.281 150 337.844 145.613 340.629 138.887 c 343.414 132.164
 341.875 124.422 336.727 119.273 c 331.578 114.125 323.836 112.586 317.113
 115.371 c 310.387 118.156 306 124.719 306 132 c 306 141.941 314.059 150
 324 150 c h
324 150 m f
330 96 m 318 96 l 294.816 95.969 276.031 77.184 276 54 c 276 12 l 372 12
 l 372 54 l 371.969 77.184 353.184 95.969 330 96 c h
360 24 m 288 24 l 288 54 l 288.02 70.559 301.441 83.98 318 84 c 330 84 
l 346.559 83.98 359.98 70.559 360 54 c h
360 24 m f
330 340.895 m 330 348 l 318 348 l 318 342 l 312 342 l 312 348 l 300 348
 l 300 342 l 288 342 l 288 330 l 294 330 l 294 318 l 288 318 l 288 306 l
 294 306 l 294 294 l 288 294 l 288 282 l 300 282 l 300 276 l 312 276 l 312
 282 l 318 282 l 318 276 l 330 276 l 330 283.105 l 335.676 285.066 339.98
 289.754 341.457 295.578 c 342.93 301.398 341.375 307.57 337.32 312 c 341.375
 316.43 342.93 322.602 341.457 328.422 c 339.98 334.246 335.676 338.934 
330 340.895 c h
306 330 m 324 330 l 327.312 330 330 327.312 330 324 c 330 320.688 327.312
 318 324 318 c 306 318 l h
324 294 m 306 294 l 306 306 l 324 306 l 327.312 306 330 303.312 330 300
 c 330 296.688 327.312 294 324 294 c h
324 294 m f
312 372 m 287.73 372 265.855 357.383 256.566 334.961 c 247.281 312.539 
252.414 286.734 269.574 269.574 c 286.734 252.414 312.539 247.281 334.961
 256.566 c 357.383 265.855 372 287.73 372 312 c 371.965 345.121 345.121 
371.965 312 372 c h
312 264 m 292.586 264 275.082 275.695 267.652 293.633 c 260.223 311.566
 264.332 332.215 278.059 345.941 c 291.785 359.668 312.434 363.777 330.367
 356.348 c 348.305 348.918 360 331.414 360 312 c 359.969 285.504 338.496
 264.031 312 264 c h
312 264 m f
108 108 m 12 108 l 12 12 l 108 12 l h
78 96 m 96 96 l 96 32.484 l 42 86.484 l 24 68.484 l 24 96 l h
24 51.516 m 42 69.516 l 87.516 24 l 24 24 l h
24 51.516 m f
60 78 m 60 70.719 64.387 64.156 71.113 61.371 c 77.836 58.586 85.578 60.125
 90.727 65.273 c 95.875 70.422 97.414 78.164 94.629 84.887 c 91.844 91.613
 85.281 96 78 96 c 68.059 96 60 87.941 60 78 c h
78 84 m 80.426 84 82.613 82.539 83.543 80.297 c 84.473 78.055 83.957 75.473
 82.242 73.758 c 80.527 72.043 77.945 71.527 75.703 72.457 c 73.461 73.387
 72 75.574 72 78 c 72 81.312 74.688 84 78 84 c h
78 84 m f
Q Q
showpage
%%Trailer
end restore
%%EOF
