%!PS-Adobe-3.0 EPSF-3.0
%%Creator: cairo 1.14.8 (http://cairographics.org)
%%CreationDate: Wed Feb 20 09:42:43 2019
%%Pages: 1
%%DocumentData: Clean7Bit
%%LanguageLevel: 2
%%BoundingBox: 12 12 372 372
%%EndComments
%%BeginProlog
save
50 dict begin
/q { gsave } bind def
/Q { grestore } bind def
/cm { 6 array astore concat } bind def
/w { setlinewidth } bind def
/J { setlinecap } bind def
/j { setlinejoin } bind def
/M { setmiterlimit } bind def
/d { setdash } bind def
/m { moveto } bind def
/l { lineto } bind def
/c { curveto } bind def
/h { closepath } bind def
/re { exch dup neg 3 1 roll 5 3 roll moveto 0 rlineto
      0 exch rlineto 0 rlineto closepath } bind def
/S { stroke } bind def
/f { fill } bind def
/f* { eofill } bind def
/n { newpath } bind def
/W { clip } bind def
/W* { eoclip } bind def
/BT { } bind def
/ET { } bind def
/pdfmark where { pop globaldict /?pdfmark /exec load put }
    { globaldict begin /?pdfmark /pop load def /pdfmark
    /cleartomark load def end } ifelse
/BDC { mark 3 1 roll /BDC pdfmark } bind def
/EMC { mark /EMC pdfmark } bind def
/cairo_store_point { /cairo_point_y exch def /cairo_point_x exch def } def
/Tj { show currentpoint cairo_store_point } bind def
/TJ {
  {
    dup
    type /stringtype eq
    { show } { -0.001 mul 0 cairo_font_matrix dtransform rmoveto } ifelse
  } forall
  currentpoint cairo_store_point
} bind def
/cairo_selectfont { cairo_font_matrix aload pop pop pop 0 0 6 array astore
    cairo_font exch selectfont cairo_point_x cairo_point_y moveto } bind def
/Tf { pop /cairo_font exch def /cairo_font_matrix where
      { pop cairo_selectfont } if } bind def
/Td { matrix translate cairo_font_matrix matrix concatmatrix dup
      /cairo_font_matrix exch def dup 4 get exch 5 get cairo_store_point
      /cairo_font where { pop cairo_selectfont } if } bind def
/Tm { 2 copy 8 2 roll 6 array astore /cairo_font_matrix exch def
      cairo_store_point /cairo_font where { pop cairo_selectfont } if } bind def
/g { setgray } bind def
/rg { setrgbcolor } bind def
/d1 { setcachedevice } bind def
%%EndProlog
%%BeginSetup
%%EndSetup
%%Page: 1 1
%%BeginPageSetup
%%PageBoundingBox: 12 12 372 372
%%EndPageSetup
q 12 12 360 360 rectclip q
0.901961 g
18 366 348 -348 re f
0.701961 g
18 366 348 -36 re f
0.423529 0.733333 0.780392 rg
342 150 m 342 198 l 309.043 198 l 306.566 208.254 302.504 218.055 297 227.051
 c 320.316 250.367 l 286.375 284.309 l 263.051 261 l 254.055 266.504 244.254
 270.566 234 273.043 c 234 306 l 186 306 l 186 273.043 l 175.746 270.566
 165.945 266.504 156.949 261 c 133.633 284.316 l 99.691 250.375 l 123 227.051
 l 117.496 218.055 113.434 208.254 110.957 198 c 84 198 l 84 150 l 110.957
 150 l 113.434 139.746 117.496 129.945 123 120.949 c 99.684 97.633 l 133.625
 63.691 l 156.949 87 l 165.945 81.496 175.746 77.434 186 74.957 c 186 42
 l 234 42 l 234 74.957 l 244.254 77.434 254.055 81.496 263.051 87 c 286.367
 63.684 l 320.309 97.625 l 297 120.949 l 302.504 129.945 306.566 139.746
 309.043 150 c h
210 108 m 183.305 108 159.238 124.082 149.023 148.742 c 138.809 173.406
 144.457 201.793 163.332 220.668 c 182.207 239.543 210.594 245.191 235.258
 234.977 c 259.918 224.762 276 200.695 276 174 c 276 137.551 246.449 108
 210 108 c h
210 108 m f
1 0.396078 0.211765 rg
156 297.828 m 156 306 l 120 306 l 120 297.828 l 131.824 300.723 144.176
 300.723 156 297.828 c h
156 297.828 m f
156 246 m 156 297.828 l 144.176 300.723 131.824 300.723 120 297.828 c 120
 246 l h
156 246 m f
0.992157 0.713726 0.184314 rg
60 222 m 216 222 l 216 265.078 181.078 300 138 300 c 94.922 300 60 265.078
 60 222 c h
60 222 m f
1 0.396078 0.211765 rg
120 306 36 -60 re f
0.513726 0.745098 0.72549 rg
234 66 m 234 42 l 42 42 l 42 66 l 42 85.883 58.117 102 78 102 c 198 102
 l 217.883 102 234 85.883 234 66 c h
234 66 m f
1 0.854902 0.666667 rg
114 126 48 -48 re f
78 198 m 60 198 l 53.371 198 48 192.629 48 186 c 48 179.371 53.371 174 
60 174 c 78 174 l h
78 198 m f
198 198 m 216 198 l 222.629 198 228 192.629 228 186 c 228 179.371 222.629
 174 216 174 c 198 174 l h
198 198 m f
1 0.913725 0.8 rg
204 180 m 204 222 l 72 222 l 72 180 l 72 143.551 101.551 114 138 114 c 
174.449 114 204 143.551 204 180 c h
204 180 m f
0.00784314 0.6 0.541176 rg
138 78 m 162 102 l 198 102 l 162 54 l h
138 78 m f
138 78 m 114 102 l 78 102 l 114 54 l h
138 78 m f
0.960784 0.811765 0.407843 rg
96 258 m 96 287.656 l 80.77 277.918 69.391 263.195 63.805 246 c 84 246 
l 90.629 246 96 251.371 96 258 c h
96 258 m f
192 246 m 212.195 246 l 206.609 263.195 195.23 277.918 180 287.656 c 180
 258 l 180 251.371 185.371 246 192 246 c h
192 246 m f
0 g
12 12 m 372 12 l 372 372 l 12 372 l h
360 24 m 24 24 l 24 324 l 360 324 l h
24 360 m 360 360 l 360 336 l 24 336 l h
24 360 m f
40.262 352.262 m 39.676 352.789 39.008 353.215 38.281 353.52 c 36.82 354.125
 35.18 354.125 33.719 353.52 c 32.992 353.215 32.324 352.789 31.738 352.262
 c 31.199 351.688 30.77 351.016 30.48 350.281 c 29.84 348.828 29.84 347.172
 30.48 345.719 c 30.785 344.992 31.211 344.324 31.738 343.738 c 32.324 343.211
 32.992 342.785 33.719 342.48 c 35.953 341.523 38.543 342.023 40.262 343.738
 c 40.789 344.324 41.215 344.992 41.52 345.719 c 42.16 347.172 42.16 348.828
 41.52 350.281 c 41.215 351.008 40.789 351.676 40.262 352.262 c h
40.262 352.262 m f
58.262 352.262 m 57.676 352.789 57.008 353.215 56.281 353.52 c 54.824 354.152
 53.176 354.152 51.719 353.52 c 50.211 352.973 49.027 351.789 48.48 350.281
 c 47.84 348.828 47.84 347.172 48.48 345.719 c 48.785 344.992 49.211 344.324
 49.738 343.738 c 51.457 342.023 54.047 341.523 56.281 342.48 c 57.008 342.785
 57.676 343.211 58.262 343.738 c 58.789 344.324 59.215 344.992 59.52 345.719
 c 60.16 347.172 60.16 348.828 59.52 350.281 c 59.23 351.016 58.801 351.688
 58.262 352.262 c h
58.262 352.262 m f
76.262 352.262 m 75.688 352.801 75.016 353.23 74.281 353.52 c 72.82 354.125
 71.18 354.125 69.719 353.52 c 68.992 353.215 68.324 352.789 67.738 352.262
 c 67.199 351.688 66.77 351.016 66.48 350.281 c 65.84 348.828 65.84 347.172
 66.48 345.719 c 66.785 344.992 67.211 344.324 67.738 343.738 c 68.324 343.211
 68.992 342.785 69.719 342.48 c 71.953 341.523 74.543 342.023 76.262 343.738
 c 76.789 344.324 77.215 344.992 77.52 345.719 c 78.16 347.172 78.16 348.828
 77.52 350.281 c 77.215 351.008 76.789 351.676 76.262 352.262 c h
76.262 352.262 m f
78 108 m 54.816 107.973 36.027 89.184 36 66 c 36 42 l 36 38.688 38.688 
36 42 36 c 234 36 l 237.312 36 240 38.688 240 42 c 240 66 l 240 67.449 239.926
 68.898 239.777 70.34 c 247.531 72.543 255.012 75.617 262.074 79.5 c 286.367
 55.199 l 328.801 97.633 l 304.5 121.922 l 308.367 128.914 311.441 136.32
 313.656 144 c 348 144 l 348 204 l 313.656 204 l 311.441 211.68 308.367 
219.086 304.5 226.078 c 328.801 250.367 l 286.367 292.801 l 262.074 268.5
 l 255.082 272.367 247.676 275.438 240 277.656 c 240 312 l 180 312 l 180
 294.75 l 174.32 298.008 168.281 300.594 162 302.449 c 162 306 l 162 309.312
 159.312 312 156 312 c 120 312 l 116.688 312 114 309.312 114 306 c 114 302.453
 l 78.336 291.961 53.883 259.176 54 222 c 54 218.688 56.688 216 60 216 c
 66 216 l 66 204 l 60 204 l 50.059 204 42 195.941 42 186 c 42 176.059 50.059
 168 60 168 c 67.086 168 l 71.078 144.539 86.387 124.559 108 114.602 c 108
 108 l h
208.914 168 m 216 168 l 225.941 168 234 176.059 234 186 c 234 195.941 225.941
 204 216 204 c 210 204 l 210 216 l 216 216 l 219.312 216 222 218.688 222
 222 c 221.977 225.645 221.719 229.281 221.227 232.891 c 251.508 226.984
 272.375 199.074 269.477 168.359 c 266.574 137.645 240.852 114.133 210 114
 c 199.586 113.98 189.352 116.695 180.316 121.879 c 195.504 132.93 205.766
 149.484 208.914 168 c h
210 192 m 216 192 l 219.312 192 222 189.312 222 186 c 222 182.688 219.312
 180 216 180 c 210 180 l h
186 275.719 m 193.398 269.105 199.344 261.031 203.461 252 c 192 252 l 188.688
 252 186 254.688 186 258 c h
168.797 115.016 m 172.668 112.273 176.801 109.926 181.133 108 c 168 108
 l 168 114.602 l h
164.484 96 m 186 96 l 161.352 63.133 l 146.484 78 l h
159.516 48 m 116.484 48 l 138 69.516 l h
114.648 63.133 m 90 96 l 111.516 96 l 129.516 78 l h
48 66 m 48.047 81.445 59.836 94.316 75.215 95.719 c 111 48 l 48 48 l h
228 48 m 165 48 l 200.789 95.719 l 216.168 94.309 227.949 81.441 228 66
 c h
192 300 m 228 300 l 228 268.32 l 232.59 267.211 l 242.234 264.875 251.461
 261.055 259.926 255.875 c 263.957 253.41 l 286.367 275.824 l 311.824 250.367
 l 289.41 227.957 l 291.875 223.926 l 297.055 215.461 300.879 206.242 303.211
 196.598 c 304.32 192 l 336 192 l 336 156 l 304.32 156 l 303.211 151.402
 l 300.879 141.758 297.055 132.539 291.875 124.074 c 289.41 120.043 l 311.824
 97.633 l 286.367 72.176 l 263.957 94.59 l 259.926 92.125 l 252.707 87.738
 244.938 84.328 236.82 81.988 c 233.207 90.688 226.797 97.93 218.598 102.562
 c 254.758 106.879 281.988 137.539 282.004 173.957 c 282.016 210.375 254.809
 241.059 218.652 245.398 c 214.051 261.406 204.77 275.676 192 286.367 c 
h
126 300 m 150 300 l 150 252 l 126 252 l h
120 240 m 156 240 l 159.312 240 162 242.688 162 246 c 162 289.867 l 166.16
 288.402 170.176 286.562 174 284.363 c 174 258 l 174 248.059 182.059 240
 192 240 c 207.719 240 l 208.734 236.062 209.414 232.051 209.754 228 c 66.246
 228 l 66.582 232.051 67.258 236.062 68.27 240 c 84 240 l 93.941 240 102
 248.059 102 258 c 102 284.398 l 105.824 286.59 109.84 288.43 114 289.891
 c 114 246 l 114 242.688 116.688 240 120 240 c h
90 275.734 m 90 258 l 90 254.688 87.312 252 84 252 c 72.527 252 l 76.641
 261.039 82.59 269.121 90 275.734 c h
60 180 m 56.688 180 54 182.688 54 186 c 54 189.312 56.688 192 60 192 c 
66 192 l 66 180 l h
78 180 m 78 216 l 198 216 l 198 180 l 198 146.863 171.137 120 138 120 c
 104.863 120 78 146.863 78 180 c h
138 108 m 144.078 108.031 150.125 108.84 156 110.398 c 156 104.516 l 138
 86.516 l 120 104.516 l 120 110.398 l 125.875 108.84 131.922 108.031 138
 108 c h
138 108 m f
114 180 m 126 180 l 126 186 l 126 195.941 117.941 204 108 204 c 98.059 
204 90 195.941 90 186 c 90 180 l 102 180 l 102 186 l 102 189.312 104.688
 192 108 192 c 111.312 192 114 189.312 114 186 c h
114 180 m f
162 186 m 162 189.312 164.688 192 168 192 c 171.312 192 174 189.312 174
 186 c 174 180 l 186 180 l 186 186 l 186 195.941 177.941 204 168 204 c 158.059
 204 150 195.941 150 186 c 150 180 l 162 180 l h
162 186 m f
162 156 m 162 162 l 150 162 l 150 156 l 150 149.371 144.629 144 138 144
 c 131.371 144 126 149.371 126 156 c 126 162 l 114 162 l 114 156 l 114 142.746
 124.746 132 138 132 c 151.254 132 162 142.746 162 156 c h
162 156 m f
133.738 55.738 m 134.324 55.211 134.992 54.785 135.719 54.48 c 137.172 
53.84 138.828 53.84 140.281 54.48 c 141.008 54.785 141.676 55.211 142.262
 55.738 c 143.391 56.867 144.016 58.402 144 60 c 143.977 61.59 143.355 63.109
 142.262 64.262 c 141.977 64.52 141.676 64.758 141.359 64.98 c 141.027 65.207
 140.664 65.391 140.281 65.52 c 139.941 65.691 139.574 65.816 139.199 65.879
 c 138.41 66.059 137.59 66.059 136.801 65.879 c 136.426 65.816 136.059 65.691
 135.719 65.52 c 135.336 65.391 134.973 65.207 134.641 64.98 c 134.324 64.758
 134.023 64.52 133.738 64.262 c 132.645 63.109 132.023 61.59 132 60 c 131.984
 58.402 132.609 56.867 133.738 55.738 c h
133.738 55.738 m f
Q Q
showpage
%%Trailer
end restore
%%EOF
