%!PS-Adobe-3.0 EPSF-3.0
%%Creator: cairo 1.14.8 (http://cairographics.org)
%%CreationDate: Wed Feb 20 09:42:43 2019
%%Pages: 1
%%DocumentData: Clean7Bit
%%LanguageLevel: 2
%%BoundingBox: 12 12 372 372
%%EndComments
%%BeginProlog
save
50 dict begin
/q { gsave } bind def
/Q { grestore } bind def
/cm { 6 array astore concat } bind def
/w { setlinewidth } bind def
/J { setlinecap } bind def
/j { setlinejoin } bind def
/M { setmiterlimit } bind def
/d { setdash } bind def
/m { moveto } bind def
/l { lineto } bind def
/c { curveto } bind def
/h { closepath } bind def
/re { exch dup neg 3 1 roll 5 3 roll moveto 0 rlineto
      0 exch rlineto 0 rlineto closepath } bind def
/S { stroke } bind def
/f { fill } bind def
/f* { eofill } bind def
/n { newpath } bind def
/W { clip } bind def
/W* { eoclip } bind def
/BT { } bind def
/ET { } bind def
/pdfmark where { pop globaldict /?pdfmark /exec load put }
    { globaldict begin /?pdfmark /pop load def /pdfmark
    /cleartomark load def end } ifelse
/BDC { mark 3 1 roll /BDC pdfmark } bind def
/EMC { mark /EMC pdfmark } bind def
/cairo_store_point { /cairo_point_y exch def /cairo_point_x exch def } def
/Tj { show currentpoint cairo_store_point } bind def
/TJ {
  {
    dup
    type /stringtype eq
    { show } { -0.001 mul 0 cairo_font_matrix dtransform rmoveto } ifelse
  } forall
  currentpoint cairo_store_point
} bind def
/cairo_selectfont { cairo_font_matrix aload pop pop pop 0 0 6 array astore
    cairo_font exch selectfont cairo_point_x cairo_point_y moveto } bind def
/Tf { pop /cairo_font exch def /cairo_font_matrix where
      { pop cairo_selectfont } if } bind def
/Td { matrix translate cairo_font_matrix matrix concatmatrix dup
      /cairo_font_matrix exch def dup 4 get exch 5 get cairo_store_point
      /cairo_font where { pop cairo_selectfont } if } bind def
/Tm { 2 copy 8 2 roll 6 array astore /cairo_font_matrix exch def
      cairo_store_point /cairo_font where { pop cairo_selectfont } if } bind def
/g { setgray } bind def
/rg { setrgbcolor } bind def
/d1 { setcachedevice } bind def
%%EndProlog
%%BeginSetup
%%EndSetup
%%Page: 1 1
%%BeginPageSetup
%%PageBoundingBox: 12 12 372 372
%%EndPageSetup
q 12 12 360 360 rectclip q
0.901961 g
18 294 m 18 102 l 366 102 l 366 294 l 366 300.629 360.629 306 354 306 c
 30 306 l 23.371 306 18 300.629 18 294 c h
18 294 m f
0.654902 0.839216 0.866667 rg
96 366 m 240 366 l 288 318 l 288 126 l 96 126 l h
96 366 m f
0.901961 g
222 50.496 m 222 78 l 162 78 l 162 50.496 l 162 44.906 160.699 39.398 158.203
 34.398 c 150 18 l 234 18 l 225.797 34.398 l 223.301 39.398 222 44.906 222
 50.496 c h
222 50.496 m f
0.701961 g
18 102 m 18 78 l 18 71.371 23.371 66 30 66 c 354 66 l 360.629 66 366 71.371
 366 78 c 366 102 l h
18 102 m f
0.423529 0.733333 0.780392 rg
288 318 m 240 366 l 240 318 l h
288 318 m f
0.960784 0.811765 0.407843 rg
156 294 m 162.629 294 168 288.629 168 282 c 192 282 l 192 296.562 183.23
 309.691 169.777 315.266 c 156.324 320.836 140.84 317.754 130.543 307.457
 c 147.516 290.484 l 149.762 292.738 152.816 294.004 156 294 c h
156 294 m f
0.00784314 0.6 0.541176 rg
168 282 m 168 277.992 166 274.246 162.668 272.02 c 159.336 269.793 155.109
 269.379 151.406 270.91 c 147.703 272.445 145.012 275.727 144.23 279.656
 c 143.449 283.59 144.68 287.648 147.516 290.484 c 130.543 307.457 l 122.043
 298.957 118.348 286.773 120.691 274.98 c 123.039 263.188 131.117 253.348
 142.223 248.746 c 153.332 244.145 166 245.391 176 252.07 c 185.996 258.75
 192 269.977 192 282 c h
168 282 m f
1 0.396078 0.211765 rg
156 294 m 152.816 294.004 149.762 292.738 147.516 290.484 c 150 288 l 147.516
 290.484 l 143.469 286.434 142.844 280.09 146.027 275.332 c 149.207 270.57
 155.309 268.723 160.598 270.914 c 165.887 273.105 168.891 278.73 167.773
 284.344 c 166.652 289.957 161.727 294 156 294 c h
156 294 m f
0 g
354 312 m 294 312 l 294 320.484 l 242.484 372 l 90 372 l 90 312 l 30 312
 l 20.059 312 12 303.941 12 294 c 12 78 l 12 68.059 20.059 60 30 60 c 156
 60 l 156 50.504 l 155.992 45.844 154.91 41.25 152.832 37.078 c 140.293 
12 l 243.707 12 l 231.168 37.078 l 229.09 41.25 228.008 45.844 228 50.504
 c 228 60 l 354 60 l 363.941 60 372 68.059 372 78 c 372 294 l 372 303.941
 363.941 312 354 312 c h
246 351.516 m 273.516 324 l 246 324 l h
102 360 m 234 360 l 234 312 l 282 312 l 282 132 l 102 132 l h
220.434 31.715 m 224.293 24 l 159.707 24 l 163.566 31.715 l 166.477 37.551
 167.996 43.98 168 50.504 c 168 60 l 216 60 l 216 50.504 l 216.004 43.98
 217.523 37.551 220.434 31.715 c h
360 78 m 360 74.688 357.312 72 354 72 c 30 72 l 26.688 72 24 74.688 24 
78 c 24 96 l 360 96 l h
24 108 m 24 294 l 24 297.312 26.688 300 30 300 c 90 300 l 90 120 l 294 
120 l 294 300 l 354 300 l 357.312 300 360 297.312 360 294 c 360 108 l h
24 108 m f
156 324 m 139.012 324 123.699 313.766 117.195 298.074 c 110.695 282.379
 114.289 264.312 126.301 252.301 c 138.312 240.289 156.379 236.695 172.074
 243.195 c 187.766 249.699 198 265.012 198 282 c 197.973 305.184 179.184
 323.973 156 324 c h
185.398 288 m 172.895 288 l 170.363 295.168 163.602 299.969 156 300 c 153.328
 299.988 150.691 299.375 148.289 298.199 c 139.48 307.008 l 147.785 312.523
 158.293 313.543 167.504 309.73 c 176.715 305.918 183.422 297.77 185.398
 288 c h
156 288 m 158.426 288 160.613 286.539 161.543 284.297 c 162.473 282.055
 161.957 279.473 160.242 277.758 c 158.527 276.043 155.945 275.527 153.703
 276.457 c 151.461 277.387 150 279.574 150 282 c 150 285.312 152.688 288
 156 288 c h
156 252 m 144.957 251.98 134.797 258.043 129.57 267.773 c 124.34 277.5 
124.891 289.316 130.996 298.52 c 139.801 289.711 l 138.625 287.309 138.012
 284.672 138 282 c 137.984 273.242 144.285 265.75 152.914 264.27 c 161.547
 262.785 169.988 267.742 172.895 276 c 185.398 276 l 182.531 262.043 170.25
 252.02 156 252 c h
156 252 m f
210 300 60 -12 re f
210 276 60 -12 re f
162 348 60 -12 re f
114 228 60 -12 re f
114 204 60 -12 re f
114 180 60 -12 re f
198 165.516 m 216 183.516 l 228 171.516 l 268.242 211.758 l 259.758 220.242
 l 228 188.484 l 216 200.484 l 198 182.484 l 198 228 l 186 228 l 186 144
 l 270 144 l 270 156 l 198 156 l h
198 165.516 m f
114 156 60 -12 re f
Q Q
showpage
%%Trailer
end restore
%%EOF
