%!PS-Adobe-3.0 EPSF-3.0
%%Creator: cairo 1.14.8 (http://cairographics.org)
%%CreationDate: Wed Feb 20 09:42:43 2019
%%Pages: 1
%%DocumentData: Clean7Bit
%%LanguageLevel: 2
%%BoundingBox: 12 13 371 372
%%EndComments
%%BeginProlog
save
50 dict begin
/q { gsave } bind def
/Q { grestore } bind def
/cm { 6 array astore concat } bind def
/w { setlinewidth } bind def
/J { setlinecap } bind def
/j { setlinejoin } bind def
/M { setmiterlimit } bind def
/d { setdash } bind def
/m { moveto } bind def
/l { lineto } bind def
/c { curveto } bind def
/h { closepath } bind def
/re { exch dup neg 3 1 roll 5 3 roll moveto 0 rlineto
      0 exch rlineto 0 rlineto closepath } bind def
/S { stroke } bind def
/f { fill } bind def
/f* { eofill } bind def
/n { newpath } bind def
/W { clip } bind def
/W* { eoclip } bind def
/BT { } bind def
/ET { } bind def
/pdfmark where { pop globaldict /?pdfmark /exec load put }
    { globaldict begin /?pdfmark /pop load def /pdfmark
    /cleartomark load def end } ifelse
/BDC { mark 3 1 roll /BDC pdfmark } bind def
/EMC { mark /EMC pdfmark } bind def
/cairo_store_point { /cairo_point_y exch def /cairo_point_x exch def } def
/Tj { show currentpoint cairo_store_point } bind def
/TJ {
  {
    dup
    type /stringtype eq
    { show } { -0.001 mul 0 cairo_font_matrix dtransform rmoveto } ifelse
  } forall
  currentpoint cairo_store_point
} bind def
/cairo_selectfont { cairo_font_matrix aload pop pop pop 0 0 6 array astore
    cairo_font exch selectfont cairo_point_x cairo_point_y moveto } bind def
/Tf { pop /cairo_font exch def /cairo_font_matrix where
      { pop cairo_selectfont } if } bind def
/Td { matrix translate cairo_font_matrix matrix concatmatrix dup
      /cairo_font_matrix exch def dup 4 get exch 5 get cairo_store_point
      /cairo_font where { pop cairo_selectfont } if } bind def
/Tm { 2 copy 8 2 roll 6 array astore /cairo_font_matrix exch def
      cairo_store_point /cairo_font where { pop cairo_selectfont } if } bind def
/g { setgray } bind def
/rg { setrgbcolor } bind def
/d1 { setcachedevice } bind def
%%EndProlog
%%BeginSetup
%%EndSetup
%%Page: 1 1
%%BeginPageSetup
%%PageBoundingBox: 12 13 371 372
%%EndPageSetup
q 12 13 359 359 rectclip q
0.901961 g
312 96 m 210 198 l 186 198 l 186 174 l 288 72 l h
312 96 m f
0.960784 0.811765 0.407843 rg
78 366 m 44.863 366 18 357.941 18 348 c 18 240 l 18 230.059 44.863 222 
78 222 c 111.137 222 138 230.059 138 240 c 138 348 l 138 357.941 111.137
 366 78 366 c h
78 366 m f
138 348 m 138 338.059 111.137 330 78 330 c 44.863 330 18 338.059 18 348
 c 18 357.941 44.863 366 78 366 c 111.137 366 138 357.941 138 348 c h
138 348 m f
0.992157 0.713726 0.184314 rg
18 240 m 18 230.059 44.863 222 78 222 c 111.137 222 138 230.059 138 240
 c 138 276 l 138 266.059 111.137 258 78 258 c 44.863 258 18 266.059 18 276
 c h
18 240 m f
138 348 m 138 338.059 111.137 330 78 330 c 44.863 330 18 338.059 18 348
 c 18 312 l 18 302.059 44.863 294 78 294 c 111.137 294 138 302.059 138 312
 c h
138 348 m f
0.00784314 0.6 0.541176 rg
90 306 m 92.059 306 l 113.789 306 134.633 314.633 150 330 c 165.367 314.633
 186.211 306 207.941 306 c 210 306 l 210 301.242 l 210 255.34 187.605 212.324
 150 186 c 112.395 212.324 90 255.34 90 301.242 c h
90 306 m f
0.423529 0.733333 0.780392 rg
210 198 m 186 198 l 186 174 l 258 102 l 282 126 l h
210 198 m f
0.901961 g
288 72 m 312 96 l 330 78 l 354 42 l 342 30 l 306 54 l h
288 72 m f
0 g
78 216 m 88.551 215.965 99.09 216.852 109.488 218.641 c 119.469 203.98 
132.031 191.254 146.562 181.086 c 150 178.688 l 153.438 181.086 l 161.387
 186.668 168.758 193.027 175.445 200.07 c 180 195.516 l 180 171.516 l 279.516
 72 l 271.758 64.242 l 280.242 55.758 l 288 63.516 l 301.758 49.758 l 332.605
 29.09 l 325.758 22.242 l 334.242 13.758 l 370.242 49.758 l 361.758 58.242
 l 354.938 51.422 l 334.992 81.328 l 320.453 95.969 l 328.242 103.758 l 
319.758 112.242 l 312 104.484 l 212.484 204 l 188.484 204 l 183.371 209.113
 l 204.457 235.191 215.969 267.707 216 301.242 c 216 312 l 207.941 312 l
 187.789 311.945 168.453 319.953 154.242 334.242 c 150 338.484 l 145.758
 334.242 l 145.195 333.68 144.559 333.191 144 332.645 c 144 348 l 144 364.488
 109.801 372 78 372 c 46.199 372 12 364.488 12 348 c 12 240 l 12 223.512
 46.199 216 78 216 c h
325.34 74.18 m 346.277 42.762 l 341.238 37.723 l 309.82 58.66 l 296.484
 72 l 312 87.516 l h
288 80.484 m 266.484 102 l 282 117.516 l 303.516 96 l h
192 192 m 207.516 192 l 273.516 126 l 258 110.484 l 192 176.484 l h
78 228 m 42.895 228 24.898 236.762 24 240 c 24 261.402 l 36.773 255 57.875
 252 78 252 c 82.879 252 87.672 252.227 92.398 252.562 c 95.191 244.652 
98.652 236.992 102.75 229.668 c 94.551 228.535 86.277 227.98 78 228 c h
150 321.781 m 164.984 308.578 184.047 300.922 204 300.09 c 203.715 270.133
 193.453 241.125 174.84 217.648 c 154.246 238.242 l 145.766 229.758 l 166.992
 208.531 l 161.766 203.02 156.078 197.957 150 193.402 c 116.348 218.598 
96.379 258.055 96 300.09 c 115.953 300.922 135.016 308.578 150 321.781 c
 h
92.059 312 m 84 312 l 84 301.242 l 84 300.887 84.031 300.535 84.031 300.18
 c 82.02 300.121 80.062 300 78 300 c 42.895 300 24.898 308.762 24 312 c 
24 333.402 l 24.086 333.359 24.188 333.328 24.27 333.289 c 25.715 332.574
 27.262 331.906 28.906 331.277 c 29.348 331.109 29.824 330.961 30.281 330.793
 c 31.555 330.336 32.863 329.898 34.223 329.488 c 34.871 329.297 35.527 
329.117 36.191 328.938 c 37.492 328.578 38.824 328.238 40.195 327.926 c 
40.848 327.77 41.496 327.613 42.16 327.473 c 43.875 327.109 45.621 326.773
 47.406 326.465 c 48.414 326.281 l 50.551 325.934 52.73 325.625 54.953 325.355
 c 56.875 325.152 l 58.5 324.973 60.133 324.809 61.789 324.68 c 62.562 324.613
 63.336 324.551 64.117 324.496 c 65.73 324.391 67.352 324.293 68.977 324.223
 c 71.105 324.125 l 73.41 324.047 75.707 324 78 324 c 80.293 324 82.59 324.047
 84.895 324.125 c 87.023 324.223 l 88.648 324.293 90.27 324.391 91.883 324.496
 c 92.664 324.551 93.438 324.613 94.211 324.68 c 95.867 324.809 97.5 324.973
 99.125 325.152 c 101.047 325.355 l 103.266 325.629 105.445 325.938 107.586
 326.281 c 108.594 326.465 l 110.383 326.773 112.129 327.109 113.84 327.473
 c 114.504 327.613 115.152 327.77 115.805 327.926 c 117.176 328.242 118.508
 328.582 119.809 328.938 c 120.473 329.117 121.129 329.297 121.777 329.488
 c 123.137 329.898 124.445 330.336 125.719 330.793 c 126.176 330.961 126.652
 331.109 127.094 331.277 c 128.734 331.902 130.281 332.57 131.73 333.289
 c 131.812 333.328 131.914 333.359 132 333.402 c 132 323.398 l 120.016 315.938
 106.176 311.988 92.059 312 c h
78 360 m 80.184 360 82.301 359.965 84.359 359.902 c 85.086 359.902 85.758
 359.832 86.473 359.801 c 87.762 359.746 89.062 359.699 90.301 359.621 c
 91.312 359.555 92.262 359.465 93.238 359.387 c 94.109 359.316 95.039 359.258
 95.852 359.18 c 97.051 359.062 98.141 358.926 99.266 358.793 c 99.836 358.723
 100.465 358.668 100.984 358.598 c 102.461 358.402 103.859 358.188 105.227
 357.965 c 105.707 357.898 l 122.363 355.133 131.113 350.352 132 348 c 131.957
 347.895 131.902 347.797 131.844 347.699 c 131.777 347.57 131.703 347.445
 131.617 347.328 c 131.527 347.219 131.395 347.105 131.285 346.992 c 131.18
 346.879 131.004 346.691 130.812 346.531 c 130.621 346.367 130.508 346.301
 130.355 346.188 c 130.207 346.074 129.898 345.84 129.617 345.652 c 129.445
 345.539 129.223 345.422 129.02 345.301 c 128.699 345.109 128.418 344.914
 128.023 344.699 c 127.801 344.578 127.531 344.461 127.297 344.34 c 126.887
 344.129 126.492 343.926 126.031 343.738 c 125.184 343.379 l 124.688 343.172
 124.199 342.953 123.648 342.738 c 123.344 342.617 122.988 342.496 122.664
 342.379 c 122.062 342.16 121.508 341.945 120.863 341.734 c 120.492 341.609
 120.07 341.488 119.664 341.363 c 119.012 341.16 118.375 340.949 117.672
 340.766 c 117.223 340.633 116.723 340.512 116.258 340.387 c 115.547 340.195
 114.852 340.004 114.098 339.785 c 113.562 339.652 112.973 339.535 112.414
 339.406 c 111.664 339.234 110.934 339.059 110.141 338.898 c 109.5 338.766
 108.805 338.652 108.133 338.527 c 107.352 338.383 106.59 338.227 105.773
 338.094 c 104.957 337.961 104.203 337.859 103.414 337.738 c 102.629 337.621
 101.855 337.492 101.016 337.387 c 100.176 337.277 99.215 337.176 98.293
 337.074 c 97.477 336.984 96.691 336.883 95.852 336.797 c 94.828 336.703
 93.742 336.629 92.684 336.547 c 91.883 336.484 91.121 336.406 90.281 336.355
 c 88.945 336.27 87.539 336.215 86.137 336.16 c 85.535 336.16 84.938 336.098
 84.336 336.07 c 82.277 336.012 80.137 335.977 77.977 335.977 c 73.59 335.977
 69.469 336.113 65.617 336.359 c 38.762 338.102 24.895 345.113 24 347.969
 c 25.098 351.328 43.074 360 78 360 c h
24 297.438 m 36.762 291 57.852 288 78 288 c 80.273 288 82.434 288.125 84.648
 288.199 c 85.363 280.141 86.742 272.16 88.77 264.328 c 85.199 264.133 81.637
 264 78 264 c 42.895 264 24.898 272.762 24 276 c h
24 297.438 m f
Q Q
showpage
%%Trailer
end restore
%%EOF
