%!PS-Adobe-3.0 EPSF-3.0
%%Creator: cairo 1.14.8 (http://cairographics.org)
%%CreationDate: Wed Feb 20 09:42:43 2019
%%Pages: 1
%%DocumentData: Clean7Bit
%%LanguageLevel: 2
%%BoundingBox: 12 12 372 372
%%EndComments
%%BeginProlog
save
50 dict begin
/q { gsave } bind def
/Q { grestore } bind def
/cm { 6 array astore concat } bind def
/w { setlinewidth } bind def
/J { setlinecap } bind def
/j { setlinejoin } bind def
/M { setmiterlimit } bind def
/d { setdash } bind def
/m { moveto } bind def
/l { lineto } bind def
/c { curveto } bind def
/h { closepath } bind def
/re { exch dup neg 3 1 roll 5 3 roll moveto 0 rlineto
      0 exch rlineto 0 rlineto closepath } bind def
/S { stroke } bind def
/f { fill } bind def
/f* { eofill } bind def
/n { newpath } bind def
/W { clip } bind def
/W* { eoclip } bind def
/BT { } bind def
/ET { } bind def
/pdfmark where { pop globaldict /?pdfmark /exec load put }
    { globaldict begin /?pdfmark /pop load def /pdfmark
    /cleartomark load def end } ifelse
/BDC { mark 3 1 roll /BDC pdfmark } bind def
/EMC { mark /EMC pdfmark } bind def
/cairo_store_point { /cairo_point_y exch def /cairo_point_x exch def } def
/Tj { show currentpoint cairo_store_point } bind def
/TJ {
  {
    dup
    type /stringtype eq
    { show } { -0.001 mul 0 cairo_font_matrix dtransform rmoveto } ifelse
  } forall
  currentpoint cairo_store_point
} bind def
/cairo_selectfont { cairo_font_matrix aload pop pop pop 0 0 6 array astore
    cairo_font exch selectfont cairo_point_x cairo_point_y moveto } bind def
/Tf { pop /cairo_font exch def /cairo_font_matrix where
      { pop cairo_selectfont } if } bind def
/Td { matrix translate cairo_font_matrix matrix concatmatrix dup
      /cairo_font_matrix exch def dup 4 get exch 5 get cairo_store_point
      /cairo_font where { pop cairo_selectfont } if } bind def
/Tm { 2 copy 8 2 roll 6 array astore /cairo_font_matrix exch def
      cairo_store_point /cairo_font where { pop cairo_selectfont } if } bind def
/g { setgray } bind def
/rg { setrgbcolor } bind def
/d1 { setcachedevice } bind def
%%EndProlog
%%BeginSetup
%%EndSetup
%%Page: 1 1
%%BeginPageSetup
%%PageBoundingBox: 12 12 372 372
%%EndPageSetup
q 12 12 360 360 rectclip q
0.654902 0.839216 0.866667 rg
330 270 m 54 270 l 40.746 270 30 259.254 30 246 c 30 42 l 354 42 l 354 
246 l 354 259.254 343.254 270 330 270 c h
330 270 m f
0.423529 0.733333 0.780392 rg
18 42 m 366 42 l 366 30 l 366 23.371 360.629 18 354 18 c 30 18 l 23.371
 18 18 23.371 18 30 c h
18 42 m f
0.960784 0.811765 0.407843 rg
276 246 m 276.027 273.332 262.758 298.973 240.422 314.727 c 218.086 330.484
 189.48 334.387 163.742 325.191 c 138.004 315.996 118.344 294.852 111.047
 268.512 c 103.75 242.172 109.727 213.926 127.066 192.797 c 145.355 171.312
 155.586 144.129 156 115.922 c 156 114 l 228 114 l 228 117.445 l 228.395
 144.961 238.484 171.453 256.488 192.266 c 269.121 207.316 276.031 226.348
 276 246 c h
276 246 m f
0.00784314 0.6 0.541176 rg
156 114 72 -24 re f
0.513726 0.745098 0.72549 rg
156 90 m 156 76.746 166.746 66 180 66 c 204 66 l 217.254 66 228 76.746 
228 90 c h
156 90 m f
0 g
360 246 m 359.98 262.559 346.559 275.98 330 276 c 276.809 276 l 264.117
 311.957 230.129 336 192 336 c 153.871 336 119.883 311.957 107.191 276 c
 54 276 l 37.441 275.98 24.02 262.559 24 246 c 24 48 l 12 48 l 12 30 l 12
 20.059 20.059 12 30 12 c 354 12 l 363.941 12 372 20.059 372 30 c 372 48
 l 360 48 l h
114.324 253.199 m 117.074 282.988 136.617 308.578 164.629 319.074 c 192.641
 329.57 224.188 323.121 245.832 302.473 c 275.555 274.164 278.203 227.645
 251.887 196.145 c 233.613 174.867 223.09 148.027 222.031 120 c 161.93 120
 l 160.633 148.188 150 175.141 131.699 196.621 c 118.664 212.434 112.414
 232.766 114.324 253.172 c h
222 96 m 162 96 l 162 108 l 222 108 l h
220.973 84 m 218.422 76.812 211.625 72.008 204 72 c 180 72 l 172.375 72.008
 165.578 76.812 163.027 84 c h
36 246 m 36 255.941 44.059 264 54 264 c 103.848 264 l 103.176 260.777 102.684
 257.516 102.371 254.238 c 100.184 230.695 107.395 207.242 122.438 189 c
 139.898 168.621 149.652 142.758 150 115.922 c 150 90 l 150.02 73.441 163.441
 60.02 180 60 c 204 60 l 220.559 60.02 233.98 73.441 234 90 c 234 117.445
 l 234.453 143.535 244.039 168.641 261.086 188.398 c 274.59 204.555 281.992
 224.941 282 246 c 282 252.047 281.398 258.074 280.199 264 c 330 264 l 339.941
 264 348 255.941 348 246 c 348 48 l 36 48 l h
360 30 m 360 26.688 357.312 24 354 24 c 30 24 l 26.688 24 24 26.688 24 
30 c 24 36 l 360 36 l h
360 30 m f
186 372 12 -24 re f
123.805 352.113 m 134.199 358.113 l 146.199 337.332 l 135.805 331.332 l
 h
123.805 352.113 m f
79.879 303.797 m 85.879 314.191 l 106.664 302.191 l 100.664 291.801 l h
79.879 303.797 m f
277.336 189.801 m 283.336 200.195 l 304.121 188.191 l 298.121 177.801 l
 h
277.336 189.801 m f
66 252 24 -12 re f
294 252 24 -12 re f
79.887 188.199 m 100.672 200.199 l 106.672 189.805 l 85.887 177.809 l h
79.887 188.199 m f
277.336 302.199 m 298.121 314.203 l 304.121 303.809 l 283.336 291.809 l
 h
277.336 302.199 m f
237.805 337.336 m 249.805 358.121 l 260.199 352.121 l 248.199 331.336 l
 h
237.805 337.336 m f
Q Q
showpage
%%Trailer
end restore
%%EOF
