%!PS-Adobe-3.0 EPSF-3.0
%%Creator: cairo 1.14.8 (http://cairographics.org)
%%CreationDate: Wed Feb 20 09:42:43 2019
%%Pages: 1
%%DocumentData: Clean7Bit
%%LanguageLevel: 2
%%BoundingBox: 30 12 354 373
%%EndComments
%%BeginProlog
save
50 dict begin
/q { gsave } bind def
/Q { grestore } bind def
/cm { 6 array astore concat } bind def
/w { setlinewidth } bind def
/J { setlinecap } bind def
/j { setlinejoin } bind def
/M { setmiterlimit } bind def
/d { setdash } bind def
/m { moveto } bind def
/l { lineto } bind def
/c { curveto } bind def
/h { closepath } bind def
/re { exch dup neg 3 1 roll 5 3 roll moveto 0 rlineto
      0 exch rlineto 0 rlineto closepath } bind def
/S { stroke } bind def
/f { fill } bind def
/f* { eofill } bind def
/n { newpath } bind def
/W { clip } bind def
/W* { eoclip } bind def
/BT { } bind def
/ET { } bind def
/pdfmark where { pop globaldict /?pdfmark /exec load put }
    { globaldict begin /?pdfmark /pop load def /pdfmark
    /cleartomark load def end } ifelse
/BDC { mark 3 1 roll /BDC pdfmark } bind def
/EMC { mark /EMC pdfmark } bind def
/cairo_store_point { /cairo_point_y exch def /cairo_point_x exch def } def
/Tj { show currentpoint cairo_store_point } bind def
/TJ {
  {
    dup
    type /stringtype eq
    { show } { -0.001 mul 0 cairo_font_matrix dtransform rmoveto } ifelse
  } forall
  currentpoint cairo_store_point
} bind def
/cairo_selectfont { cairo_font_matrix aload pop pop pop 0 0 6 array astore
    cairo_font exch selectfont cairo_point_x cairo_point_y moveto } bind def
/Tf { pop /cairo_font exch def /cairo_font_matrix where
      { pop cairo_selectfont } if } bind def
/Td { matrix translate cairo_font_matrix matrix concatmatrix dup
      /cairo_font_matrix exch def dup 4 get exch 5 get cairo_store_point
      /cairo_font where { pop cairo_selectfont } if } bind def
/Tm { 2 copy 8 2 roll 6 array astore /cairo_font_matrix exch def
      cairo_store_point /cairo_font where { pop cairo_selectfont } if } bind def
/g { setgray } bind def
/rg { setrgbcolor } bind def
/d1 { setcachedevice } bind def
%%EndProlog
%%BeginSetup
%%EndSetup
%%Page: 1 1
%%BeginPageSetup
%%PageBoundingBox: 30 12 354 373
%%EndPageSetup
q 30 12 324 361 rectclip q
1 0.854902 0.666667 rg
144 330 m 144 310.117 127.883 294 108 294 c 88.117 294 72 310.117 72 330
 c 72 349.883 88.117 366 108 366 c 127.883 366 144 349.883 144 330 c h
144 330 m f
0.00784314 0.6 0.541176 rg
155.699 293.707 m 144.387 278.773 126.734 270 108 270 c 89.266 270 71.613
 278.773 60.301 293.707 c 45.281 285.191 36 269.262 36 252 c 36 216 l 36
 209.371 41.371 204 48 204 c 168 204 l 174.629 204 180 209.371 180 216 c
 180 252 l 180 269.262 170.719 285.191 155.699 293.707 c h
155.699 293.707 m f
0.901961 g
222 18 m 312 18 l 331.883 18 348 34.117 348 54 c 348 132 l 186 132 l 186
 54 l 186 34.117 202.117 18 222 18 c h
222 18 m f
0.701961 g
186 132 m 348 132 l 348 144 l 348 163.883 331.883 180 312 180 c 222 180
 l 202.117 180 186 163.883 186 144 c h
186 132 m f
0 g
108 288 m 124.988 288 140.301 298.234 146.805 313.926 c 153.305 329.621
 149.711 347.688 137.699 359.699 c 125.688 371.711 107.621 375.305 91.926
 368.805 c 76.234 362.301 66 346.988 66 330 c 66.027 306.816 84.816 288.027
 108 288 c h
108 360 m 120.133 360 131.074 352.691 135.715 341.48 c 140.359 330.27 137.793
 317.367 129.215 308.785 c 120.633 300.207 107.73 297.641 96.52 302.285 
c 85.309 306.926 78 317.867 78 330 c 78.02 346.559 91.441 359.98 108 360
 c h
108 360 m f
61.883 301.52 m 57.328 298.922 l 40.465 289.312 30.039 271.41 30 252 c 
30 216 l 30 206.059 38.059 198 48 198 c 168 198 l 177.941 198 186 206.059
 186 216 c 186 252 l 185.961 271.41 175.535 289.312 158.672 298.922 c 154.117
 301.52 l 150.93 297.316 l 140.754 283.871 124.863 275.969 108 275.969 c
 91.137 275.969 75.246 283.871 65.07 297.316 c h
108 264 m 126.664 263.945 144.461 271.871 156.91 285.773 c 167.633 277.855
 173.973 265.328 174 252 c 174 216 l 174 212.688 171.312 210 168 210 c 48
 210 l 44.688 210 42 212.688 42 216 c 42 252 l 42.027 265.328 48.367 277.855
 59.09 285.773 c 71.539 271.871 89.336 263.945 108 264 c h
108 264 m f
180 54 m 180.027 30.816 198.816 12.027 222 12 c 312 12 l 335.184 12.027
 353.973 30.816 354 54 c 354 144 l 353.973 167.184 335.184 185.973 312 186
 c 222 186 l 198.816 185.973 180.027 167.184 180 144 c h
342 54 m 341.98 37.441 328.559 24.02 312 24 c 222 24 l 205.441 24.02 192.02
 37.441 192 54 c 192 126 l 342 126 l h
192 144 m 192.02 160.559 205.441 173.98 222 174 c 312 174 l 328.559 173.98
 341.98 160.559 342 144 c 342 138 l 192 138 l h
192 144 m f
220.262 160.262 m 218.539 161.965 215.965 162.469 213.727 161.539 c 211.492
 160.605 210.035 158.422 210.035 156 c 210.035 153.578 211.492 151.395 213.727
 150.461 c 215.965 149.531 218.539 150.035 220.262 151.738 c 220.801 152.312
 221.23 152.984 221.52 153.719 c 222.16 155.172 222.16 156.828 221.52 158.281
 c 221.246 159.023 220.816 159.695 220.262 160.262 c h
220.262 160.262 m f
238.801 161.879 m 238.426 161.816 238.059 161.691 237.719 161.52 c 237.336
 161.387 236.973 161.207 236.633 160.98 c 236.324 160.758 236.023 160.516
 235.738 160.262 c 233.418 157.895 233.418 154.105 235.738 151.738 c 236.633
 151.02 l 236.973 150.793 237.336 150.613 237.719 150.48 c 238.059 150.309
 238.426 150.184 238.801 150.121 c 239.195 150.055 239.598 150.012 240 150
 c 242.438 149.984 244.641 151.449 245.578 153.699 c 246.512 155.949 245.992
 158.543 244.262 160.262 c 242.809 161.648 240.773 162.254 238.801 161.879
 c h
238.801 161.879 m f
261.719 161.52 m 260.984 161.23 260.312 160.801 259.738 160.262 c 257.418
 157.895 257.418 154.105 259.738 151.738 c 260.312 151.199 260.984 150.77
 261.719 150.48 c 262.441 150.172 263.215 150.008 264 150 c 266.438 149.984
 268.641 151.449 269.578 153.699 c 270.512 155.949 269.992 158.543 268.262
 160.262 c 266.535 161.961 263.953 162.461 261.719 161.52 c h
261.719 161.52 m f
272.203 222.781 m 294 204 l 312.781 225.797 l 311.504 243 l 297.602 226.902
 l 286.688 279.875 240.086 317.914 186 318 c 186 306 l 233.164 305.934 274.152
 273.582 285.176 227.723 c 270.926 240 l h
272.203 222.781 m f
75.797 161.219 m 54 180 l 35.219 158.203 l 36.496 141 l 50.398 157.098 
l 61.312 104.125 107.914 66.086 162 66 c 162 78 l 114.836 78.066 73.848 
110.418 62.824 156.277 c 77.074 144 l h
75.797 161.219 m f
Q Q
showpage
%%Trailer
end restore
%%EOF
