%!PS-Adobe-3.0 EPSF-3.0
%%Creator: cairo 1.14.8 (http://cairographics.org)
%%CreationDate: Wed Feb 20 09:42:43 2019
%%Pages: 1
%%DocumentData: Clean7Bit
%%LanguageLevel: 2
%%BoundingBox: 12 12 372 373
%%EndComments
%%BeginProlog
save
50 dict begin
/q { gsave } bind def
/Q { grestore } bind def
/cm { 6 array astore concat } bind def
/w { setlinewidth } bind def
/J { setlinecap } bind def
/j { setlinejoin } bind def
/M { setmiterlimit } bind def
/d { setdash } bind def
/m { moveto } bind def
/l { lineto } bind def
/c { curveto } bind def
/h { closepath } bind def
/re { exch dup neg 3 1 roll 5 3 roll moveto 0 rlineto
      0 exch rlineto 0 rlineto closepath } bind def
/S { stroke } bind def
/f { fill } bind def
/f* { eofill } bind def
/n { newpath } bind def
/W { clip } bind def
/W* { eoclip } bind def
/BT { } bind def
/ET { } bind def
/pdfmark where { pop globaldict /?pdfmark /exec load put }
    { globaldict begin /?pdfmark /pop load def /pdfmark
    /cleartomark load def end } ifelse
/BDC { mark 3 1 roll /BDC pdfmark } bind def
/EMC { mark /EMC pdfmark } bind def
/cairo_store_point { /cairo_point_y exch def /cairo_point_x exch def } def
/Tj { show currentpoint cairo_store_point } bind def
/TJ {
  {
    dup
    type /stringtype eq
    { show } { -0.001 mul 0 cairo_font_matrix dtransform rmoveto } ifelse
  } forall
  currentpoint cairo_store_point
} bind def
/cairo_selectfont { cairo_font_matrix aload pop pop pop 0 0 6 array astore
    cairo_font exch selectfont cairo_point_x cairo_point_y moveto } bind def
/Tf { pop /cairo_font exch def /cairo_font_matrix where
      { pop cairo_selectfont } if } bind def
/Td { matrix translate cairo_font_matrix matrix concatmatrix dup
      /cairo_font_matrix exch def dup 4 get exch 5 get cairo_store_point
      /cairo_font where { pop cairo_selectfont } if } bind def
/Tm { 2 copy 8 2 roll 6 array astore /cairo_font_matrix exch def
      cairo_store_point /cairo_font where { pop cairo_selectfont } if } bind def
/g { setgray } bind def
/rg { setrgbcolor } bind def
/d1 { setcachedevice } bind def
%%EndProlog
%%BeginSetup
%%EndSetup
%%Page: 1 1
%%BeginPageSetup
%%PageBoundingBox: 12 12 372 373
%%EndPageSetup
q 12 12 360 361 rectclip q
1 0.396078 0.211765 rg
174 249.254 36 -52.5 re f
120 249.254 24 -52.5 re f
240 249.254 24 -52.5 re f
0.423529 0.733333 0.780392 rg
312 126 m 294.043 126.012 277.262 117.09 267.227 102.199 c 256.453 108.547
 243.406 109.754 231.648 105.48 c 219.895 101.207 210.664 91.906 206.484
 80.117 c 194.953 86.695 180.453 84.773 171.035 75.422 c 162.832 96.359 
139.547 107.066 118.309 99.672 c 108.453 116.184 90.562 126.211 71.336 125.996
 c 52.109 125.781 34.445 115.359 24.961 98.633 c 15.48 81.906 15.605 61.398
 25.293 44.789 c 34.98 28.184 52.773 17.977 72 18 c 312 18 l 341.824 18 
366 42.176 366 72 c 366 101.824 341.824 126 312 126 c h
312 126 m f
0.992157 0.713726 0.184314 rg
192 168 m 182.059 168 174 159.941 174 150 c 174 134.633 180.102 119.898
 190.969 109.031 c 192 108 l 193.031 109.031 l 203.898 119.898 210 134.633
 210 150 c 210 159.941 201.941 168 192 168 c h
192 168 m f
0.00784314 0.6 0.541176 rg
234 302.305 m 234 216 l 150 216 l 150 302.305 l 150 330.023 166.52 355.078
 192 366 c 217.48 355.078 234 330.023 234 302.305 c h
234 302.305 m f
0.992157 0.713726 0.184314 rg
150 276 m 128.5 268.832 114 248.711 114 226.051 c 114 216 l 150 216 l h
150 276 m f
234 276 m 255.5 268.832 270 248.711 270 226.051 c 270 216 l 234 216 l h
234 276 m f
132 168 m 125.371 168 120 162.629 120 156 c 120 148.316 123.051 140.949
 128.484 135.516 c 132 132 l 135.516 135.516 l 140.949 140.949 144 148.316
 144 156 c 144 162.629 138.629 168 132 168 c h
132 168 m f
252 168 m 245.371 168 240 162.629 240 156 c 240 148.316 243.051 140.949
 248.484 135.516 c 252 132 l 255.516 135.516 l 260.949 140.949 264 148.316
 264 156 c 264 162.629 258.629 168 252 168 c h
252 168 m f
0.513726 0.745098 0.72549 rg
210 300 m 210 290.059 201.941 282 192 282 c 182.059 282 174 290.059 174
 300 c 174 309.941 182.059 318 192 318 c 201.941 318 210 309.941 210 300
 c h
210 300 m f
0 g
312 132 m 293.938 132.008 276.832 123.871 265.441 109.855 c 242.254 120.195
 215.023 110.633 203.398 88.062 c 193.316 91.508 182.219 90.262 173.152 
84.66 c 162.43 102.648 141.25 111.57 120.887 106.676 c 109.727 122.613 91.461
 132.078 72 132 c 38.863 132 12 105.137 12 72 c 12 38.863 38.863 12 72 12
 c 312 12 l 345.137 12 372 38.863 372 72 c 372 105.137 345.137 132 312 132
 c h
312 24 m 72 24 l 54.91 23.98 39.094 33.051 30.484 47.812 c 21.871 62.574
 21.758 80.805 30.188 95.672 c 38.617 110.543 54.316 119.805 71.406 119.996
 c 88.496 120.188 104.402 111.277 113.16 96.602 c 115.656 92.398 l 120.266
 93.988 l 138.469 100.336 158.434 91.152 165.461 73.199 c 168.785 64.801
 l 175.234 71.113 l 182.781 78.559 194.355 80.086 203.574 74.855 c 209.754
 71.426 l 212.152 78.086 l 215.734 88.188 223.645 96.16 233.719 99.82 c 
243.793 103.484 254.977 102.453 264.211 97.008 c 269.07 94.152 l 272.219
 98.824 l 281.641 112.801 297.699 120.812 314.527 119.934 c 331.359 119.055
 346.496 109.414 354.406 94.531 c 362.316 79.652 361.844 61.711 353.16 47.266
 c 344.477 32.824 328.855 23.992 312 24 c h
312 24 m f
168 150 m 167.953 133.035 174.695 116.754 186.727 104.789 c 192 99.516 
l 197.273 104.789 l 209.305 116.754 216.047 133.035 216 150 c 216 163.254
 205.254 174 192 174 c 178.746 174 168 163.254 168 150 c h
204 150 m 204.035 137.863 199.785 126.102 192 116.789 c 184.215 126.102
 179.965 137.863 180 150 c 180 156.629 185.371 162 192 162 c 198.629 162
 204 156.629 204 150 c h
204 150 m f
194.363 371.516 m 192 372.527 l 189.637 371.516 l 161.938 359.664 143.977
 332.434 144 302.305 c 144 280.141 l 122.18 271.035 107.98 249.699 108 226.055
 c 108 210 l 114 210 l 114 186 l 150 186 l 150 210 l 168 210 l 168 186 l
 216 186 l 216 210 l 234 210 l 234 186 l 270 186 l 270 210 l 276 210 l 276
 226.055 l 276.02 249.699 261.82 271.035 240 280.141 c 240 302.305 l 240.023
 332.434 222.062 359.664 194.363 371.516 c h
120 226.055 m 119.98 243.008 129.172 258.633 144 266.855 c 144 222 l 120
 222 l h
138 198 m 126 198 l 126 210 l 138 210 l h
204 198 m 180 198 l 180 210 l 204 210 l h
228 222 m 156 222 l 156 302.305 l 155.988 326.684 169.996 348.902 192 359.398
 c 214.008 348.898 228.02 326.68 228 302.293 c h
258 198 m 246 198 l 246 210 l 258 210 l h
264 226.055 m 264 222 l 240 222 l 240 266.844 l 254.824 258.625 264.012
 243.004 264 226.055 c h
264 226.055 m f
114 156 m 114.027 146.73 117.707 137.848 124.242 131.273 c 132 123.516 
l 139.758 131.273 l 146.293 137.848 149.973 146.73 150 156 c 150 165.941
 141.941 174 132 174 c 122.059 174 114 165.941 114 156 c h
138 156 m 137.984 150.273 135.848 144.758 132 140.52 c 128.152 144.758 
126.016 150.273 126 156 c 126 159.312 128.688 162 132 162 c 135.312 162 
138 159.312 138 156 c h
138 156 m f
234 156 m 234.027 146.73 237.707 137.848 244.242 131.273 c 252 123.516 
l 259.758 131.273 l 266.293 137.848 269.973 146.73 270 156 c 270 165.941
 261.941 174 252 174 c 242.059 174 234 165.941 234 156 c h
258 156 m 257.984 150.273 255.848 144.758 252 140.52 c 248.152 144.758 
246.016 150.273 246 156 c 246 159.312 248.688 162 252 162 c 255.312 162 
258 159.312 258 156 c h
258 156 m f
192 324 m 182.293 324 173.543 318.152 169.828 309.184 c 166.113 300.215
 168.164 289.895 175.031 283.031 c 181.895 276.164 192.215 274.113 201.184
 277.828 c 210.152 281.543 216 290.293 216 300 c 216 313.254 205.254 324
 192 324 c h
192 288 m 187.145 288 182.77 290.922 180.914 295.406 c 179.055 299.891 
180.082 305.055 183.516 308.484 c 186.945 311.918 192.109 312.945 196.594
 311.086 c 201.078 309.23 204 304.855 204 300 c 204 293.371 198.629 288 
192 288 c h
192 288 m f
Q Q
showpage
%%Trailer
end restore
%%EOF
