%!PS-Adobe-3.0 EPSF-3.0
%%Creator: cairo 1.14.8 (http://cairographics.org)
%%CreationDate: Wed Feb 20 09:42:43 2019
%%Pages: 1
%%DocumentData: Clean7Bit
%%LanguageLevel: 2
%%BoundingBox: 12 12 372 372
%%EndComments
%%BeginProlog
save
50 dict begin
/q { gsave } bind def
/Q { grestore } bind def
/cm { 6 array astore concat } bind def
/w { setlinewidth } bind def
/J { setlinecap } bind def
/j { setlinejoin } bind def
/M { setmiterlimit } bind def
/d { setdash } bind def
/m { moveto } bind def
/l { lineto } bind def
/c { curveto } bind def
/h { closepath } bind def
/re { exch dup neg 3 1 roll 5 3 roll moveto 0 rlineto
      0 exch rlineto 0 rlineto closepath } bind def
/S { stroke } bind def
/f { fill } bind def
/f* { eofill } bind def
/n { newpath } bind def
/W { clip } bind def
/W* { eoclip } bind def
/BT { } bind def
/ET { } bind def
/pdfmark where { pop globaldict /?pdfmark /exec load put }
    { globaldict begin /?pdfmark /pop load def /pdfmark
    /cleartomark load def end } ifelse
/BDC { mark 3 1 roll /BDC pdfmark } bind def
/EMC { mark /EMC pdfmark } bind def
/cairo_store_point { /cairo_point_y exch def /cairo_point_x exch def } def
/Tj { show currentpoint cairo_store_point } bind def
/TJ {
  {
    dup
    type /stringtype eq
    { show } { -0.001 mul 0 cairo_font_matrix dtransform rmoveto } ifelse
  } forall
  currentpoint cairo_store_point
} bind def
/cairo_selectfont { cairo_font_matrix aload pop pop pop 0 0 6 array astore
    cairo_font exch selectfont cairo_point_x cairo_point_y moveto } bind def
/Tf { pop /cairo_font exch def /cairo_font_matrix where
      { pop cairo_selectfont } if } bind def
/Td { matrix translate cairo_font_matrix matrix concatmatrix dup
      /cairo_font_matrix exch def dup 4 get exch 5 get cairo_store_point
      /cairo_font where { pop cairo_selectfont } if } bind def
/Tm { 2 copy 8 2 roll 6 array astore /cairo_font_matrix exch def
      cairo_store_point /cairo_font where { pop cairo_selectfont } if } bind def
/g { setgray } bind def
/rg { setrgbcolor } bind def
/d1 { setcachedevice } bind def
%%EndProlog
%%BeginSetup
%%EndSetup
%%Page: 1 1
%%BeginPageSetup
%%PageBoundingBox: 12 12 372 372
%%EndPageSetup
q 12 12 360 360 rectclip q
0.901961 g
30 18 m 354 18 l 360.629 18 366 23.371 366 30 c 366 330 l 18 330 l 18 30
 l 18 23.371 23.371 18 30 18 c h
30 18 m f
0.701961 g
18 318 m 366 318 l 366 354 l 366 360.629 360.629 366 354 366 c 30 366 l
 23.371 366 18 360.629 18 354 c h
18 318 m f
0.654902 0.839216 0.866667 rg
42 294 300 -72 re f
0.423529 0.733333 0.780392 rg
42 198 96 -156 re f
0.960784 0.811765 0.407843 rg
162 198 180 -66 re f
1 0.396078 0.211765 rg
162 108 180 -66 re f
0 g
354 372 m 30 372 l 20.059 372 12 363.941 12 354 c 12 30 l 12 20.059 20.059
 12 30 12 c 354 12 l 363.941 12 372 20.059 372 30 c 372 354 l 372 363.941
 363.941 372 354 372 c h
360 30 m 360 26.688 357.312 24 354 24 c 30 24 l 26.688 24 24 26.688 24 
30 c 24 312 l 360 312 l h
24 324 m 24 354 l 24 357.312 26.688 360 30 360 c 354 360 l 357.312 360 
360 357.312 360 354 c 360 324 l h
24 324 m f
37.738 346.262 m 36.637 345.117 36.012 343.59 36 342 c 36.008 341.215 36.172
 340.441 36.48 339.719 c 36.754 338.977 37.184 338.305 37.738 337.738 c 
40.094 335.387 43.906 335.387 46.262 337.738 c 48.613 340.094 48.613 343.906
 46.262 346.262 c 43.855 348.48 40.145 348.48 37.738 346.262 c h
37.738 346.262 m f
61.738 346.262 m 60.645 345.109 60.023 343.59 60 342 c 60.012 341.598 60.051
 341.195 60.121 340.801 c 60.184 340.426 60.309 340.059 60.48 339.719 c 
60.609 339.336 60.793 338.973 61.02 338.641 c 61.242 338.324 61.48 338.023
 61.738 337.738 c 64.105 335.418 67.895 335.418 70.262 337.738 c 70.98 338.641
 l 71.207 338.973 71.391 339.336 71.52 339.719 c 71.691 340.059 71.816 340.426
 71.879 340.801 c 71.949 341.195 71.988 341.598 72 342 c 72.016 344.438 
70.551 346.641 68.301 347.578 c 66.051 348.512 63.457 347.992 61.738 346.262
 c h
61.738 346.262 m f
85.738 346.262 m 83.418 343.895 83.418 340.105 85.738 337.738 c 88.094 
335.387 91.906 335.387 94.262 337.738 c 96.613 340.094 96.613 343.906 94.262
 346.262 c 91.855 348.48 88.145 348.48 85.738 346.262 c h
85.738 346.262 m f
348 300 m 36 300 l 36 216 l 348 216 l h
336 228 m 48 228 l 48 288 l 336 288 l h
336 228 m f
144 204 m 36 204 l 36 36 l 144 36 l h
132 48 m 48 48 l 48 192 l 132 192 l h
132 48 m f
156 126 m 348 126 l 348 204 l 156 204 l h
168 192 m 336 192 l 336 138 l 168 138 l h
168 192 m f
156 36 m 348 36 l 348 114 l 156 114 l h
168 102 m 336 102 l 336 48 l 168 48 l h
168 102 m f
Q Q
showpage
%%Trailer
end restore
%%EOF
