%!PS-Adobe-3.0 EPSF-3.0
%%Creator: cairo 1.14.8 (http://cairographics.org)
%%CreationDate: Wed Feb 20 09:42:43 2019
%%Pages: 1
%%DocumentData: Clean7Bit
%%LanguageLevel: 2
%%BoundingBox: 12 12 372 372
%%EndComments
%%BeginProlog
save
50 dict begin
/q { gsave } bind def
/Q { grestore } bind def
/cm { 6 array astore concat } bind def
/w { setlinewidth } bind def
/J { setlinecap } bind def
/j { setlinejoin } bind def
/M { setmiterlimit } bind def
/d { setdash } bind def
/m { moveto } bind def
/l { lineto } bind def
/c { curveto } bind def
/h { closepath } bind def
/re { exch dup neg 3 1 roll 5 3 roll moveto 0 rlineto
      0 exch rlineto 0 rlineto closepath } bind def
/S { stroke } bind def
/f { fill } bind def
/f* { eofill } bind def
/n { newpath } bind def
/W { clip } bind def
/W* { eoclip } bind def
/BT { } bind def
/ET { } bind def
/pdfmark where { pop globaldict /?pdfmark /exec load put }
    { globaldict begin /?pdfmark /pop load def /pdfmark
    /cleartomark load def end } ifelse
/BDC { mark 3 1 roll /BDC pdfmark } bind def
/EMC { mark /EMC pdfmark } bind def
/cairo_store_point { /cairo_point_y exch def /cairo_point_x exch def } def
/Tj { show currentpoint cairo_store_point } bind def
/TJ {
  {
    dup
    type /stringtype eq
    { show } { -0.001 mul 0 cairo_font_matrix dtransform rmoveto } ifelse
  } forall
  currentpoint cairo_store_point
} bind def
/cairo_selectfont { cairo_font_matrix aload pop pop pop 0 0 6 array astore
    cairo_font exch selectfont cairo_point_x cairo_point_y moveto } bind def
/Tf { pop /cairo_font exch def /cairo_font_matrix where
      { pop cairo_selectfont } if } bind def
/Td { matrix translate cairo_font_matrix matrix concatmatrix dup
      /cairo_font_matrix exch def dup 4 get exch 5 get cairo_store_point
      /cairo_font where { pop cairo_selectfont } if } bind def
/Tm { 2 copy 8 2 roll 6 array astore /cairo_font_matrix exch def
      cairo_store_point /cairo_font where { pop cairo_selectfont } if } bind def
/g { setgray } bind def
/rg { setrgbcolor } bind def
/d1 { setcachedevice } bind def
%%EndProlog
%%BeginSetup
%%EndSetup
%%Page: 1 1
%%BeginPageSetup
%%PageBoundingBox: 12 12 372 372
%%EndPageSetup
q 12 12 360 360 rectclip q
0.960784 0.811765 0.407843 rg
186 336 m 186 319.43 148.391 306 102 306 c 55.609 306 18 319.43 18 336 
c 18 352.57 55.609 366 102 366 c 148.391 366 186 352.57 186 336 c h
186 336 m f
0.992157 0.713726 0.184314 rg
186 336 m 186 288 l 186 271.434 148.391 258 102 258 c 55.609 258 18 271.434
 18 288 c 18 336 l 18 319.434 55.609 306 102 306 c 148.391 306 186 319.434
 186 336 c h
186 336 m f
0.960784 0.811765 0.407843 rg
186 288 m 186 240 l 186 223.434 148.391 210 102 210 c 55.609 210 18 223.434
 18 240 c 18 288 l 18 271.434 55.609 258 102 258 c 148.391 258 186 271.434
 186 288 c h
186 288 m f
0.992157 0.713726 0.184314 rg
186 240 m 186 192 l 186 175.434 148.391 162 102 162 c 55.609 162 18 175.434
 18 192 c 18 240 l 18 223.434 55.609 210 102 210 c 148.391 210 186 223.434
 186 240 c h
186 240 m f
0.901961 g
150 252 m 246 252 l 246 276 l 174 276 l 160.746 276 150 265.254 150 252
 c h
150 252 m f
0.701961 g
246 252 m 252 228 l 288 228 l 294 252 l 294 276 l 246 276 l h
246 252 m f
0.901961 g
258 300 24 -24 re f
0.470588 0.290196 0.258824 rg
258 228 m 258 30 l 258 23.371 263.371 18 270 18 c 276.629 18 282 23.371
 282 30 c 282 228 l h
258 228 m f
0.901961 g
294 276 m 366 276 l 366 246 l 294 252 l h
294 276 m f
0.992157 0.713726 0.184314 rg
258 228 24 -48 re f
0 g
288 282 m 288 306 l 252 306 l 252 282 l 192 282 l 192 336 l 192 359.398
 145.625 372 102 372 c 58.375 372 12 359.398 12 336 c 12 192 l 12 168.602
 58.375 156 102 156 c 145.625 156 192 168.602 192 192 c 192 246 l 241.465
 246 l 247.312 222 l 252 222 l 252 30 l 252 20.059 260.059 12 270 12 c 279.941
 12 288 20.059 288 30 c 288 222 l 292.688 222 l 298.586 245.598 l 372 239.477
 l 372 282 l h
264 294 m 276 294 l 276 282 l 264 282 l h
252 270 m 288 270 l 288 252.738 l 283.312 234 l 256.688 234 l 252 252.738
 l h
240 270 m 240 258 l 157.027 258 l 159.578 265.188 166.375 269.992 174 270
 c h
102 360 m 149.617 360 180 345.785 180 336 c 180 326.215 149.617 312 102
 312 c 54.383 312 24 326.215 24 336 c 24 345.785 54.383 360 102 360 c h
24 317.352 m 24.035 317.352 l 24.145 317.281 24.266 317.215 24.367 317.141
 c 25.625 316.297 26.98 315.492 28.391 314.707 c 29.688 314.012 l 31.078
 313.277 32.531 312.57 34.062 311.891 c 34.66 311.617 l 36.383 310.871 38.195
 310.172 40.062 309.492 c 41.586 308.957 l 43.184 308.406 44.82 307.871 
46.5 307.367 c 47.617 307.031 l 49.637 306.445 51.715 305.895 53.852 305.387
 c 54.367 305.262 54.887 305.148 55.41 305.027 c 57.184 304.629 58.98 304.242
 60.809 303.875 c 62.359 303.57 l 64.59 303.172 66.855 302.789 69.156 302.43
 c 69.629 302.359 70.105 302.297 70.578 302.23 c 72.52 301.957 74.473 301.707
 76.445 301.48 c 77.047 301.41 77.645 301.34 78.246 301.277 c 80.645 301.027
 83.012 300.805 85.41 300.629 c 86.371 300.57 l 88.492 300.426 90.629 300.312
 92.766 300.227 c 94.723 300.156 l 97.156 300.078 99.59 300.023 102.012 
300.023 c 104.438 300.023 106.867 300.078 109.301 300.156 c 111.258 300.227
 l 113.395 300.312 115.531 300.426 117.652 300.57 c 118.613 300.629 l 121.016
 300.805 123.414 301.027 125.777 301.277 c 126.379 301.34 126.977 301.41
 127.578 301.48 c 129.551 301.703 131.504 301.949 133.441 302.227 c 134.867
 302.43 l 137.168 302.77 139.434 303.148 141.664 303.57 c 143.215 303.875
 l 145.043 304.234 146.844 304.621 148.613 305.027 c 149.137 305.148 149.656
 305.262 150.176 305.387 c 152.305 305.895 154.383 306.445 156.406 307.031
 c 157.523 307.367 l 159.203 307.871 160.844 308.406 162.445 308.957 c 162.949
 309.133 163.457 309.305 163.957 309.492 c 165.82 310.172 167.633 310.871
 169.355 311.617 c 169.957 311.891 l 171.484 312.57 172.957 313.277 174.328
 314.012 c 175.625 314.707 l 177.035 315.492 178.391 316.297 179.652 317.141
 c 179.754 317.215 179.875 317.281 179.98 317.352 c 180.02 317.352 l 180.02
 288 l 179.734 285.652 178.559 283.504 176.73 282 c 174 282 l 164.41 281.98
 155.414 277.359 149.809 269.578 c 134.168 265.734 118.105 263.859 102 264
 c 54.383 264 24 278.215 24 288 c h
180 192 m 180 182.215 149.617 168 102 168 c 54.383 168 24 182.215 24 192
 c 24 221.352 l 24.035 221.352 l 24.145 221.281 24.266 221.215 24.367 221.141
 c 25.625 220.297 26.98 219.492 28.391 218.707 c 29.688 218.012 l 31.078
 217.277 32.531 216.57 34.062 215.891 c 34.66 215.617 l 36.383 214.871 38.195
 214.172 40.062 213.492 c 41.586 212.957 l 43.184 212.406 44.82 211.871 
46.5 211.367 c 47.617 211.031 l 49.637 210.445 51.715 209.895 53.852 209.387
 c 54.367 209.262 54.887 209.148 55.41 209.027 c 57.184 208.629 58.98 208.242
 60.809 207.875 c 62.359 207.57 l 64.59 207.172 66.855 206.789 69.156 206.43
 c 69.629 206.359 70.105 206.297 70.578 206.23 c 72.52 205.957 74.473 205.707
 76.445 205.48 c 77.047 205.41 77.645 205.34 78.246 205.277 c 80.645 205.027
 83.012 204.805 85.41 204.629 c 86.371 204.57 l 88.492 204.426 90.629 204.312
 92.766 204.227 c 94.723 204.156 l 97.156 204.078 99.59 204.023 102.012 
204.023 c 104.438 204.023 106.867 204.078 109.301 204.156 c 111.258 204.227
 l 113.395 204.312 115.531 204.426 117.652 204.57 c 118.613 204.629 l 121.016
 204.805 123.414 205.027 125.777 205.277 c 126.379 205.34 126.977 205.41
 127.578 205.48 c 129.551 205.703 131.504 205.949 133.441 206.227 c 134.867
 206.43 l 137.168 206.77 139.434 207.148 141.664 207.57 c 143.215 207.875
 l 145.043 208.234 146.844 208.621 148.613 209.027 c 149.137 209.148 149.656
 209.262 150.176 209.387 c 152.305 209.898 154.383 210.449 156.406 211.031
 c 157.523 211.367 l 159.203 211.871 160.844 212.406 162.445 212.957 c 162.949
 213.133 163.457 213.305 163.957 213.492 c 165.82 214.172 167.633 214.871
 169.355 215.617 c 169.957 215.891 l 171.484 216.57 172.957 217.277 174.328
 218.012 c 175.625 218.707 l 177.035 219.492 178.391 220.297 179.652 221.141
 c 179.754 221.215 179.875 221.281 179.98 221.352 c 180.02 221.352 l h
180 240 m 180 230.215 149.617 216 102 216 c 54.383 216 24 230.215 24 240
 c 24 269.352 l 24.035 269.352 l 24.145 269.281 24.266 269.215 24.367 269.141
 c 25.625 268.297 26.98 267.492 28.391 266.707 c 29.688 266.012 l 31.078
 265.277 32.531 264.57 34.062 263.891 c 34.66 263.617 l 36.383 262.871 38.195
 262.172 40.062 261.492 c 41.586 260.957 l 43.184 260.406 44.82 259.871 
46.5 259.367 c 47.617 259.031 l 49.637 258.445 51.715 257.895 53.852 257.387
 c 54.367 257.262 54.887 257.148 55.41 257.027 c 57.184 256.629 58.98 256.242
 60.809 255.875 c 62.359 255.57 l 64.59 255.172 66.855 254.789 69.156 254.43
 c 69.629 254.359 70.105 254.297 70.578 254.23 c 72.52 253.957 74.473 253.707
 76.445 253.48 c 77.047 253.41 77.645 253.34 78.246 253.277 c 80.645 253.027
 83.012 252.805 85.41 252.629 c 86.371 252.57 l 88.492 252.426 90.629 252.312
 92.766 252.227 c 94.723 252.156 l 97.156 252.078 99.59 252.023 102.012 
252.023 c 116.246 251.965 130.453 253.312 144.422 256.051 c 144.188 254.711
 144.047 253.359 144 252 c 144 246 l 180 246 l h
276 30 m 276 26.688 273.312 24 270 24 c 266.688 24 264 26.688 264 30 c 
264 174 l 276 174 l h
276 186 m 264 186 l 264 222 l 276 222 l h
360 270 m 360 252.523 l 300 257.52 l 300 270 l h
360 270 m f
Q Q
showpage
%%Trailer
end restore
%%EOF
