%!PS-Adobe-3.0 EPSF-3.0
%%Creator: cairo 1.14.8 (http://cairographics.org)
%%CreationDate: Wed Feb 20 09:42:43 2019
%%Pages: 1
%%DocumentData: Clean7Bit
%%LanguageLevel: 2
%%BoundingBox: 12 10 372 372
%%EndComments
%%BeginProlog
save
50 dict begin
/q { gsave } bind def
/Q { grestore } bind def
/cm { 6 array astore concat } bind def
/w { setlinewidth } bind def
/J { setlinecap } bind def
/j { setlinejoin } bind def
/M { setmiterlimit } bind def
/d { setdash } bind def
/m { moveto } bind def
/l { lineto } bind def
/c { curveto } bind def
/h { closepath } bind def
/re { exch dup neg 3 1 roll 5 3 roll moveto 0 rlineto
      0 exch rlineto 0 rlineto closepath } bind def
/S { stroke } bind def
/f { fill } bind def
/f* { eofill } bind def
/n { newpath } bind def
/W { clip } bind def
/W* { eoclip } bind def
/BT { } bind def
/ET { } bind def
/pdfmark where { pop globaldict /?pdfmark /exec load put }
    { globaldict begin /?pdfmark /pop load def /pdfmark
    /cleartomark load def end } ifelse
/BDC { mark 3 1 roll /BDC pdfmark } bind def
/EMC { mark /EMC pdfmark } bind def
/cairo_store_point { /cairo_point_y exch def /cairo_point_x exch def } def
/Tj { show currentpoint cairo_store_point } bind def
/TJ {
  {
    dup
    type /stringtype eq
    { show } { -0.001 mul 0 cairo_font_matrix dtransform rmoveto } ifelse
  } forall
  currentpoint cairo_store_point
} bind def
/cairo_selectfont { cairo_font_matrix aload pop pop pop 0 0 6 array astore
    cairo_font exch selectfont cairo_point_x cairo_point_y moveto } bind def
/Tf { pop /cairo_font exch def /cairo_font_matrix where
      { pop cairo_selectfont } if } bind def
/Td { matrix translate cairo_font_matrix matrix concatmatrix dup
      /cairo_font_matrix exch def dup 4 get exch 5 get cairo_store_point
      /cairo_font where { pop cairo_selectfont } if } bind def
/Tm { 2 copy 8 2 roll 6 array astore /cairo_font_matrix exch def
      cairo_store_point /cairo_font where { pop cairo_selectfont } if } bind def
/g { setgray } bind def
/rg { setrgbcolor } bind def
/d1 { setcachedevice } bind def
%%EndProlog
%%BeginSetup
%%EndSetup
%%Page: 1 1
%%BeginPageSetup
%%PageBoundingBox: 12 10 372 372
%%EndPageSetup
q 12 10 360 362 rectclip q
0.901961 g
150 366 84 -54 re f
0.701961 g
180 312 24 -24 re f
0.00784314 0.6 0.541176 rg
108 180 m 138.734 180 168.211 192.211 189.941 213.941 c 192 216 l 194.059
 213.941 l 215.789 192.211 245.266 180 276 180 c 276 171.859 l 276 109.621
 244.352 51.656 192 18 c 139.648 51.656 108 109.621 108 171.859 c h
108 180 m f
0.901961 g
282 366 84 -54 re f
0.701961 g
312 312 24 -24 re f
0.901961 g
18 366 84 -54 re f
0.701961 g
48 312 24 -24 re f
0.992157 0.713726 0.184314 rg
156 138 72 -54 re f
0.960784 0.811765 0.407843 rg
222 138 m 210 138 l 210 156 l 210 165.941 201.941 174 192 174 c 182.059
 174 174 165.941 174 156 c 174 138 l 162 138 l 162 156 l 162 172.57 175.43
 186 192 186 c 208.57 186 222 172.57 222 156 c h
222 138 m f
192 102 m 188.688 102 186 104.688 186 108 c 186 114 l 186 117.312 188.688
 120 192 120 c 195.312 120 198 117.312 198 114 c 198 108 l 198 104.688 195.312
 102 192 102 c h
192 102 m f
0 g
240 306 m 240 372 l 144 372 l 144 306 l 174 306 l 174 294 l 162 294 l 162
 282 l 222 282 l 222 294 l 210 294 l 210 306 l h
156 318 m 156 360 l 228 360 l 228 318 l h
198 294 m 186 294 l 186 306 l 198 306 l h
198 294 m f
192 224.477 m 185.699 218.184 l 165.137 197.512 137.156 185.926 108 186
 c 102 186 l 102 171.863 l 101.852 107.547 134.574 47.613 188.754 12.953
 c 192 10.871 l 195.246 12.953 l 249.426 47.613 282.148 107.547 282 171.863
 c 282 186 l 276 186 l 246.84 185.922 218.859 197.512 198.301 218.191 c 
h
270 171.863 m 270.133 113.016 240.867 57.988 192 25.199 c 143.133 57.988
 113.867 113.016 114 171.863 c 114 174.145 l 143.184 175.5 170.891 187.371
 192 207.57 c 213.109 187.371 240.816 175.5 270 174.145 c h
270 171.863 m f
276 306 m 306 306 l 306 294 l 294 294 l 294 282 l 354 282 l 354 294 l 342
 294 l 342 306 l 372 306 l 372 372 l 276 372 l h
330 294 m 318 294 l 318 306 l 330 306 l h
288 360 m 360 360 l 360 318 l 288 318 l h
288 360 m f
42 294 m 30 294 l 30 282 l 90 282 l 90 294 l 78 294 l 78 306 l 108 306 
l 108 372 l 12 372 l 12 306 l 42 306 l h
66 294 m 54 294 l 54 306 l 66 306 l h
24 318 m 24 360 l 96 360 l 96 318 l h
24 318 m f
66 270 m 54 270 l 54 246 l 186 246 l 186 234 l 198 234 l 198 246 l 330 
246 l 330 270 l 318 270 l 318 258 l 198 258 l 198 270 l 186 270 l 186 258
 l 66 258 l h
66 270 m f
162 156 m 162 144 l 150 144 l 150 78 l 234 78 l 234 144 l 222 144 l 222
 156 l 222 172.57 208.57 186 192 186 c 175.43 186 162 172.57 162 156 c h
222 90 m 162 90 l 162 132 l 222 132 l h
210 156 m 210 144 l 174 144 l 174 156 l 174 165.941 182.059 174 192 174
 c 201.941 174 210 165.941 210 156 c h
210 156 m f
192 102 m 195.312 102 198 104.688 198 108 c 198 114 l 198 117.312 195.312
 120 192 120 c 188.688 120 186 117.312 186 114 c 186 108 l 186 104.688 188.688
 102 192 102 c h
192 102 m f
Q Q
showpage
%%Trailer
end restore
%%EOF
