%!PS-Adobe-3.0 EPSF-3.0
%%Creator: cairo 1.14.8 (http://cairographics.org)
%%CreationDate: Wed Feb 20 09:42:43 2019
%%Pages: 1
%%DocumentData: Clean7Bit
%%LanguageLevel: 2
%%BoundingBox: 12 12 372 372
%%EndComments
%%BeginProlog
save
50 dict begin
/q { gsave } bind def
/Q { grestore } bind def
/cm { 6 array astore concat } bind def
/w { setlinewidth } bind def
/J { setlinecap } bind def
/j { setlinejoin } bind def
/M { setmiterlimit } bind def
/d { setdash } bind def
/m { moveto } bind def
/l { lineto } bind def
/c { curveto } bind def
/h { closepath } bind def
/re { exch dup neg 3 1 roll 5 3 roll moveto 0 rlineto
      0 exch rlineto 0 rlineto closepath } bind def
/S { stroke } bind def
/f { fill } bind def
/f* { eofill } bind def
/n { newpath } bind def
/W { clip } bind def
/W* { eoclip } bind def
/BT { } bind def
/ET { } bind def
/pdfmark where { pop globaldict /?pdfmark /exec load put }
    { globaldict begin /?pdfmark /pop load def /pdfmark
    /cleartomark load def end } ifelse
/BDC { mark 3 1 roll /BDC pdfmark } bind def
/EMC { mark /EMC pdfmark } bind def
/cairo_store_point { /cairo_point_y exch def /cairo_point_x exch def } def
/Tj { show currentpoint cairo_store_point } bind def
/TJ {
  {
    dup
    type /stringtype eq
    { show } { -0.001 mul 0 cairo_font_matrix dtransform rmoveto } ifelse
  } forall
  currentpoint cairo_store_point
} bind def
/cairo_selectfont { cairo_font_matrix aload pop pop pop 0 0 6 array astore
    cairo_font exch selectfont cairo_point_x cairo_point_y moveto } bind def
/Tf { pop /cairo_font exch def /cairo_font_matrix where
      { pop cairo_selectfont } if } bind def
/Td { matrix translate cairo_font_matrix matrix concatmatrix dup
      /cairo_font_matrix exch def dup 4 get exch 5 get cairo_store_point
      /cairo_font where { pop cairo_selectfont } if } bind def
/Tm { 2 copy 8 2 roll 6 array astore /cairo_font_matrix exch def
      cairo_store_point /cairo_font where { pop cairo_selectfont } if } bind def
/g { setgray } bind def
/rg { setrgbcolor } bind def
/d1 { setcachedevice } bind def
%%EndProlog
%%BeginSetup
%%EndSetup
%%Page: 1 1
%%BeginPageSetup
%%PageBoundingBox: 12 12 372 372
%%EndPageSetup
q 12 12 360 360 rectclip q
0.654902 0.839216 0.866667 rg
30 18 m 354 18 l 360.629 18 366 23.371 366 30 c 366 318 l 18 318 l 18 30
 l 18 23.371 23.371 18 30 18 c h
30 18 m f
0.701961 g
18 318 m 366 318 l 366 354 l 366 360.629 360.629 366 354 366 c 30 366 l
 23.371 366 18 360.629 18 354 c h
18 318 m f
0.6 g
150 294 m 330 294 l 336.629 294 342 288.629 342 282 c 342 54 l 342 47.371
 336.629 42 330 42 c 138 42 l 138 282 l 138 288.629 143.371 294 150 294 
c h
150 294 m f
0.8 g
252 60 m 252 53.371 246.629 48 240 48 c 233.371 48 228 53.371 228 60 c 
228 66.629 233.371 72 240 72 c 246.629 72 252 66.629 252 60 c h
252 60 m f
138 258 204 -180 re f
0.701961 g
54 210 m 138 210 l 144.648 210 150 204.648 150 198 c 150 54 l 150 47.352
 144.648 42 138 42 c 54 42 l 47.352 42 42 47.352 42 54 c 42 198 l 42 204.648
 47.352 210 54 210 c h
54 210 m f
0.901961 g
42 186 108 -120 re f
0 g
354 372 m 30 372 l 20.059 372 12 363.941 12 354 c 12 30 l 12 20.059 20.059
 12 30 12 c 354 12 l 363.941 12 372 20.059 372 30 c 372 354 l 372 363.941
 363.941 372 354 372 c h
360 30 m 360 26.688 357.312 24 354 24 c 30 24 l 26.688 24 24 26.688 24 
30 c 24 312 l 360 312 l h
24 324 m 24 354 l 24 357.312 26.688 360 30 360 c 354 360 l 357.312 360 
360 357.312 360 354 c 360 324 l h
24 324 m f
39.719 347.52 m 38.211 346.973 37.027 345.789 36.48 344.281 c 35.84 342.828
 35.84 341.172 36.48 339.719 c 36.77 338.984 37.199 338.312 37.738 337.738
 c 38.324 337.211 38.992 336.785 39.719 336.48 c 40.441 336.172 41.215 336.008
 42 336 c 42.383 336.012 42.766 336.051 43.141 336.121 c 43.539 336.176 
43.922 336.297 44.281 336.48 c 44.664 336.609 45.027 336.793 45.359 337.02
 c 45.676 337.242 45.977 337.48 46.262 337.738 c 48.582 340.105 48.582 343.895
 46.262 346.262 c 44.523 347.938 41.957 348.434 39.719 347.52 c h
39.719 347.52 m f
68.281 347.52 m 66.832 348.18 65.168 348.18 63.719 347.52 c 62.211 346.973
 61.027 345.789 60.48 344.281 c 59.84 342.828 59.84 341.172 60.48 339.719
 c 60.77 338.984 61.199 338.312 61.738 337.738 c 62.324 337.211 62.992 336.785
 63.719 336.48 c 65.172 335.84 66.828 335.84 68.281 336.48 c 69.016 336.77
 69.688 337.199 70.262 337.738 c 72.582 340.105 72.582 343.895 70.262 346.262
 c 69.688 346.801 69.016 347.23 68.281 347.52 c h
68.281 347.52 m f
94.262 346.262 m 92.535 347.961 89.953 348.461 87.719 347.52 c 86.992 347.215
 86.324 346.789 85.738 346.262 c 85.199 345.688 84.77 345.016 84.48 344.281
 c 83.84 342.828 83.84 341.172 84.48 339.719 c 84.77 338.984 85.199 338.312
 85.738 337.738 c 86.324 337.211 86.992 336.785 87.719 336.48 c 88.441 336.172
 89.215 336.008 90 336 c 91.59 336.023 93.109 336.645 94.262 337.738 c 94.801
 338.312 95.23 338.984 95.52 339.719 c 96.16 341.172 96.16 342.828 95.52
 344.281 c 95.23 345.016 94.801 345.688 94.262 346.262 c h
94.262 346.262 m f
54 36 m 330 36 l 339.941 36 348 44.059 348 54 c 348 282 l 348 291.941 339.941
 300 330 300 c 150 300 l 140.059 300 132 291.941 132 282 c 132 216 l 54 
216 l 44.059 216 36 207.941 36 198 c 36 54 l 36 44.059 44.059 36 54 36 c
 h
48 54 m 48 60 l 144 60 l 144 54 l 144 50.688 141.312 48 138 48 c 54 48 
l 50.688 48 48 50.688 48 54 c h
48 180 m 144 180 l 144 72 l 48 72 l h
336 84 m 156 84 l 156 198 l 155.969 205.602 151.168 212.363 144 214.895
 c 144 252 l 336 252 l h
240 54 m 237.574 54 235.387 55.461 234.457 57.703 c 233.527 59.945 234.043
 62.527 235.758 64.242 c 237.473 65.957 240.055 66.473 242.297 65.543 c 
244.539 64.613 246 62.426 246 60 c 246 56.688 243.312 54 240 54 c h
226.68 48 m 154.895 48 l 155.605 49.922 155.98 51.953 156 54 c 156 72 l
 226.68 72 l 220.441 65.219 220.441 54.781 226.68 48 c h
330 48 m 253.32 48 l 259.559 54.781 259.559 65.219 253.32 72 c 336 72 l
 336 54 l 336 50.688 333.312 48 330 48 c h
150 288 m 330 288 l 333.312 288 336 285.312 336 282 c 336 264 l 144 264
 l 144 282 l 144 285.312 146.688 288 150 288 c h
54 204 m 138 204 l 141.312 204 144 201.312 144 198 c 144 192 l 48 192 l
 48 198 l 48 201.312 50.688 204 54 204 c h
54 204 m f
240 270 m 241.59 270.023 243.109 270.645 244.262 271.738 c 245.363 272.883
 245.988 274.41 246 276 c 245.992 276.785 245.828 277.559 245.52 278.281
 c 245.246 279.023 244.816 279.695 244.262 280.262 c 241.855 282.48 238.145
 282.48 235.738 280.262 c 235.184 279.695 234.754 279.023 234.48 278.281
 c 234.172 277.559 234.008 276.785 234 276 c 234.012 274.41 234.637 272.883
 235.738 271.738 c 236.891 270.645 238.41 270.023 240 270 c h
240 270 m f
Q Q
showpage
%%Trailer
end restore
%%EOF
