%!PS-Adobe-3.0 EPSF-3.0
%%Creator: cairo 1.14.8 (http://cairographics.org)
%%CreationDate: Wed Feb 20 09:42:43 2019
%%Pages: 1
%%DocumentData: Clean7Bit
%%LanguageLevel: 2
%%BoundingBox: 12 48 372 336
%%EndComments
%%BeginProlog
save
50 dict begin
/q { gsave } bind def
/Q { grestore } bind def
/cm { 6 array astore concat } bind def
/w { setlinewidth } bind def
/J { setlinecap } bind def
/j { setlinejoin } bind def
/M { setmiterlimit } bind def
/d { setdash } bind def
/m { moveto } bind def
/l { lineto } bind def
/c { curveto } bind def
/h { closepath } bind def
/re { exch dup neg 3 1 roll 5 3 roll moveto 0 rlineto
      0 exch rlineto 0 rlineto closepath } bind def
/S { stroke } bind def
/f { fill } bind def
/f* { eofill } bind def
/n { newpath } bind def
/W { clip } bind def
/W* { eoclip } bind def
/BT { } bind def
/ET { } bind def
/pdfmark where { pop globaldict /?pdfmark /exec load put }
    { globaldict begin /?pdfmark /pop load def /pdfmark
    /cleartomark load def end } ifelse
/BDC { mark 3 1 roll /BDC pdfmark } bind def
/EMC { mark /EMC pdfmark } bind def
/cairo_store_point { /cairo_point_y exch def /cairo_point_x exch def } def
/Tj { show currentpoint cairo_store_point } bind def
/TJ {
  {
    dup
    type /stringtype eq
    { show } { -0.001 mul 0 cairo_font_matrix dtransform rmoveto } ifelse
  } forall
  currentpoint cairo_store_point
} bind def
/cairo_selectfont { cairo_font_matrix aload pop pop pop 0 0 6 array astore
    cairo_font exch selectfont cairo_point_x cairo_point_y moveto } bind def
/Tf { pop /cairo_font exch def /cairo_font_matrix where
      { pop cairo_selectfont } if } bind def
/Td { matrix translate cairo_font_matrix matrix concatmatrix dup
      /cairo_font_matrix exch def dup 4 get exch 5 get cairo_store_point
      /cairo_font where { pop cairo_selectfont } if } bind def
/Tm { 2 copy 8 2 roll 6 array astore /cairo_font_matrix exch def
      cairo_store_point /cairo_font where { pop cairo_selectfont } if } bind def
/g { setgray } bind def
/rg { setrgbcolor } bind def
/d1 { setcachedevice } bind def
%%EndProlog
%%BeginSetup
%%EndSetup
%%Page: 1 1
%%BeginPageSetup
%%PageBoundingBox: 12 48 372 336
%%EndPageSetup
q 12 48 360 288 rectclip q
0.654902 0.839216 0.866667 rg
54 330 m 330 330 l 343.254 330 354 319.254 354 306 c 354 78 l 30 78 l 30
 306 l 30 319.254 40.746 330 54 330 c h
54 330 m f
0.423529 0.733333 0.780392 rg
18 78 m 366 78 l 366 64.746 355.254 54 342 54 c 42 54 l 28.746 54 18 64.746
 18 78 c h
18 78 m f
0.901961 g
54 294 276 -192 re f
0 g
360 306 m 359.98 322.559 346.559 335.98 330 336 c 54 336 l 37.441 335.98
 24.02 322.559 24 306 c 24 84 l 12 84 l 12 78 l 12.02 61.441 25.441 48.02
 42 48 c 342 48 l 358.559 48.02 371.98 61.441 372 78 c 372 84 l 360 84 l
 h
36 306 m 36 315.941 44.059 324 54 324 c 330 324 l 339.941 324 348 315.941
 348 306 c 348 84 l 36 84 l h
342 60 m 42 60 l 34.375 60.008 27.578 64.812 25.027 72 c 358.973 72 l 356.422
 64.812 349.625 60.008 342 60 c h
342 60 m f
48 96 m 336 96 l 336 300 l 48 300 l h
60 288 m 324 288 l 324 108 l 60 108 l h
60 288 m f
192 306 m 193.598 305.984 195.133 306.609 196.262 307.738 c 197.391 308.867
 198.016 310.402 198 312 c 197.992 312.785 197.828 313.559 197.52 314.281
 c 197.23 315.016 196.801 315.688 196.262 316.262 c 193.855 318.48 190.145
 318.48 187.738 316.262 c 187.199 315.688 186.77 315.016 186.48 314.281 
c 186.172 313.559 186.008 312.785 186 312 c 186.02 310.41 186.641 308.891
 187.738 307.738 c 188.883 306.633 190.41 306.008 192 306 c h
192 306 m f
97.758 274.242 m 75.516 252 l 97.758 229.758 l 106.242 238.242 l 92.484
 252 l 106.242 265.758 l h
97.758 274.242 m f
154.242 229.758 m 176.484 252 l 154.242 274.242 l 145.758 265.758 l 159.516
 252 l 145.758 238.242 l h
154.242 229.758 m f
97.758 166.242 m 75.516 144 l 97.758 121.758 l 106.242 130.242 l 92.484
 144 l 106.242 157.758 l h
97.758 166.242 m f
145.758 157.758 m 159.516 144 l 145.758 130.242 l 154.242 121.758 l 176.484
 144 l 154.242 166.242 l h
145.758 157.758 m f
114 258 24 -12 re f
114.305 127.902 m 126.316 163.902 l 137.695 160.105 l 125.684 124.105 l
 h
114.305 127.902 m f
126 216 24 -12 re f
162 216 138 -12 re f
126 192 24 -12 re f
162 192 138 -12 re f
Q Q
showpage
%%Trailer
end restore
%%EOF
