%!PS-Adobe-3.0 EPSF-3.0
%%Creator: cairo 1.14.8 (http://cairographics.org)
%%CreationDate: Wed Feb 20 09:42:43 2019
%%Pages: 1
%%DocumentData: Clean7Bit
%%LanguageLevel: 2
%%BoundingBox: 12 12 372 372
%%EndComments
%%BeginProlog
save
50 dict begin
/q { gsave } bind def
/Q { grestore } bind def
/cm { 6 array astore concat } bind def
/w { setlinewidth } bind def
/J { setlinecap } bind def
/j { setlinejoin } bind def
/M { setmiterlimit } bind def
/d { setdash } bind def
/m { moveto } bind def
/l { lineto } bind def
/c { curveto } bind def
/h { closepath } bind def
/re { exch dup neg 3 1 roll 5 3 roll moveto 0 rlineto
      0 exch rlineto 0 rlineto closepath } bind def
/S { stroke } bind def
/f { fill } bind def
/f* { eofill } bind def
/n { newpath } bind def
/W { clip } bind def
/W* { eoclip } bind def
/BT { } bind def
/ET { } bind def
/pdfmark where { pop globaldict /?pdfmark /exec load put }
    { globaldict begin /?pdfmark /pop load def /pdfmark
    /cleartomark load def end } ifelse
/BDC { mark 3 1 roll /BDC pdfmark } bind def
/EMC { mark /EMC pdfmark } bind def
/cairo_store_point { /cairo_point_y exch def /cairo_point_x exch def } def
/Tj { show currentpoint cairo_store_point } bind def
/TJ {
  {
    dup
    type /stringtype eq
    { show } { -0.001 mul 0 cairo_font_matrix dtransform rmoveto } ifelse
  } forall
  currentpoint cairo_store_point
} bind def
/cairo_selectfont { cairo_font_matrix aload pop pop pop 0 0 6 array astore
    cairo_font exch selectfont cairo_point_x cairo_point_y moveto } bind def
/Tf { pop /cairo_font exch def /cairo_font_matrix where
      { pop cairo_selectfont } if } bind def
/Td { matrix translate cairo_font_matrix matrix concatmatrix dup
      /cairo_font_matrix exch def dup 4 get exch 5 get cairo_store_point
      /cairo_font where { pop cairo_selectfont } if } bind def
/Tm { 2 copy 8 2 roll 6 array astore /cairo_font_matrix exch def
      cairo_store_point /cairo_font where { pop cairo_selectfont } if } bind def
/g { setgray } bind def
/rg { setrgbcolor } bind def
/d1 { setcachedevice } bind def
%%EndProlog
%%BeginSetup
%%EndSetup
%%Page: 1 1
%%BeginPageSetup
%%PageBoundingBox: 12 12 372 372
%%EndPageSetup
q 12 12 360 360 rectclip q
0.654902 0.839216 0.866667 rg
18 366 m 222 366 l 282 306 l 282 30 l 18 30 l h
18 366 m f
0.901961 g
234 18 m 234 114 l 234 140.508 255.492 162 282 162 c 318 162 l 344.508 
162 366 140.508 366 114 c 366 18 l h
234 18 m f
0.423529 0.733333 0.780392 rg
282 306 m 222 366 l 222 306 l h
282 306 m f
0.992157 0.713726 0.184314 rg
282 60 m 300 42 l 318 60 l 306 138 l 318 162 l 282 162 l 294 138 l h
282 60 m f
1 0.854902 0.666667 rg
300 252 m 264 252 l 264 216 l 264 196.117 280.117 180 300 180 c 319.883
 180 336 196.117 336 216 c 336 235.883 319.883 252 300 252 c h
300 252 m f
0.470588 0.290196 0.258824 rg
300 252 m 264 252 l 264 228 l 288 228 l 306.055 227.98 323.137 219.828 
334.508 205.801 c 337.723 216.684 335.617 228.449 328.824 237.543 c 322.031
 246.637 311.352 251.992 300 252 c h
300 252 m f
0 g
60 302.484 m 52.242 310.242 l 43.758 301.758 l 60 285.516 l 88.242 313.758
 l 79.758 322.242 l h
60 302.484 m f
108 324 90 -12 re f
108 300 90 -12 re f
108 180 108 -12 re f
108 156 108 -12 re f
79.758 184.242 m 66 170.484 l 52.242 184.242 l 43.758 175.758 l 57.516 
162 l 43.758 148.242 l 52.242 139.758 l 66 153.516 l 79.758 139.758 l 88.242
 148.242 l 74.484 162 l 88.242 175.758 l h
79.758 184.242 m f
108 108 102 -12 re f
108 84 102 -12 re f
79.758 112.242 m 66 98.484 l 52.242 112.242 l 43.758 103.758 l 57.516 90
 l 43.758 76.242 l 52.242 67.758 l 66 81.516 l 79.758 67.758 l 88.242 76.242
 l 74.484 90 l 88.242 103.758 l h
79.758 112.242 m f
60 230.484 m 52.242 238.242 l 43.758 229.758 l 60 213.516 l 88.242 241.758
 l 79.758 250.242 l h
60 230.484 m f
108 252 132 -12 re f
108 228 132 -12 re f
318 168 m 288 168 l 288 175.801 l 299.703 172.258 312.367 173.992 322.688
 180.551 c 333.008 187.105 339.957 197.836 341.723 209.934 c 343.488 222.031
 339.895 234.297 331.879 243.531 c 323.867 252.766 312.227 258.047 300 258
 c 288 258 l 288 308.484 l 224.484 372 l 12 372 l 12 24 l 228 24 l 228 12
 l 372 12 l 372 114 l 371.969 143.809 347.809 167.969 318 168 c h
300 139.414 m 291.707 156 l 308.293 156 l h
311.609 62.094 m 300 50.484 l 288.391 62.094 l 300 137.539 l h
300 186 m 283.441 186.02 270.02 199.441 270 216 c 270 222 l 288 222 l 303.086
 221.949 317.469 215.621 327.703 204.535 c 323.059 193.328 312.129 186.02
 300 186 c h
329.688 219.098 m 317.91 228.695 303.191 233.953 288 234 c 270 234 l 270
 246 l 300 246 l 315.324 245.953 328.137 234.34 329.688 219.098 c h
228 351.516 m 267.516 312 l 228 312 l h
24 36 m 24 360 l 216 360 l 216 300 l 276 300 l 276 258 l 258 258 l 258 
216 l 258.008 202.273 264.73 189.422 276 181.586 c 276 167.645 l 248.691
 164.566 228.039 141.484 228 114 c 228 36 l h
360 24 m 240 24 l 240 114 l 240.035 135.781 256.699 153.93 278.398 155.812
 c 287.797 137.023 l 275.609 57.906 l 300 33.516 l 324.391 57.906 l 312.223
 137.023 l 321.602 155.812 l 343.301 153.93 359.965 135.781 360 114 c h
360 24 m f
Q Q
showpage
%%Trailer
end restore
%%EOF
