%!PS-Adobe-3.0 EPSF-3.0
%%Creator: cairo 1.14.8 (http://cairographics.org)
%%CreationDate: Wed Feb 20 09:42:43 2019
%%Pages: 1
%%DocumentData: Clean7Bit
%%LanguageLevel: 2
%%BoundingBox: 12 12 372 372
%%EndComments
%%BeginProlog
save
50 dict begin
/q { gsave } bind def
/Q { grestore } bind def
/cm { 6 array astore concat } bind def
/w { setlinewidth } bind def
/J { setlinecap } bind def
/j { setlinejoin } bind def
/M { setmiterlimit } bind def
/d { setdash } bind def
/m { moveto } bind def
/l { lineto } bind def
/c { curveto } bind def
/h { closepath } bind def
/re { exch dup neg 3 1 roll 5 3 roll moveto 0 rlineto
      0 exch rlineto 0 rlineto closepath } bind def
/S { stroke } bind def
/f { fill } bind def
/f* { eofill } bind def
/n { newpath } bind def
/W { clip } bind def
/W* { eoclip } bind def
/BT { } bind def
/ET { } bind def
/pdfmark where { pop globaldict /?pdfmark /exec load put }
    { globaldict begin /?pdfmark /pop load def /pdfmark
    /cleartomark load def end } ifelse
/BDC { mark 3 1 roll /BDC pdfmark } bind def
/EMC { mark /EMC pdfmark } bind def
/cairo_store_point { /cairo_point_y exch def /cairo_point_x exch def } def
/Tj { show currentpoint cairo_store_point } bind def
/TJ {
  {
    dup
    type /stringtype eq
    { show } { -0.001 mul 0 cairo_font_matrix dtransform rmoveto } ifelse
  } forall
  currentpoint cairo_store_point
} bind def
/cairo_selectfont { cairo_font_matrix aload pop pop pop 0 0 6 array astore
    cairo_font exch selectfont cairo_point_x cairo_point_y moveto } bind def
/Tf { pop /cairo_font exch def /cairo_font_matrix where
      { pop cairo_selectfont } if } bind def
/Td { matrix translate cairo_font_matrix matrix concatmatrix dup
      /cairo_font_matrix exch def dup 4 get exch 5 get cairo_store_point
      /cairo_font where { pop cairo_selectfont } if } bind def
/Tm { 2 copy 8 2 roll 6 array astore /cairo_font_matrix exch def
      cairo_store_point /cairo_font where { pop cairo_selectfont } if } bind def
/g { setgray } bind def
/rg { setrgbcolor } bind def
/d1 { setcachedevice } bind def
%%EndProlog
%%BeginSetup
%%EndSetup
%%Page: 1 1
%%BeginPageSetup
%%PageBoundingBox: 12 12 372 372
%%EndPageSetup
q 12 12 360 360 rectclip q
0.901961 g
18 366 348 -348 re f
0.701961 g
18 366 348 -36 re f
0.00784314 0.6 0.541176 rg
114 306 m 114 279.492 92.508 258 66 258 c 66.805 248.371 l 73.855 163.75
 120.207 87.344 192 42 c 263.793 87.344 310.145 163.75 317.195 248.371 c
 318 258 l 312 258 l 285.492 258 264 279.492 264 306 c h
114 306 m f
0.992157 0.713726 0.184314 rg
112.961 169.039 m 151.031 130.969 l 160.402 121.598 175.598 121.598 184.969
 130.969 c 271.031 217.031 l 274.215 220.215 276 224.531 276 229.031 c 276
 238.402 268.402 246 259.031 246 c 254.531 246 250.215 244.215 247.031 241.031
 c 176.484 170.484 l 171.797 165.801 164.203 165.801 159.516 170.484 c 136.715
 193.285 l 133.684 196.301 129.582 197.996 125.305 198 c 124.656 198 l 120.238
 198.004 116 196.25 112.875 193.125 c 109.75 190 107.996 185.762 108 181.344
 c 108 181.008 l 108.004 176.52 109.785 172.211 112.961 169.039 c h
112.961 169.039 m f
0 g
12 12 m 372 12 l 372 372 l 12 372 l h
360 24 m 24 24 l 24 324 l 360 324 l h
24 360 m 360 360 l 360 336 l 24 336 l h
24 360 m f
31.738 352.262 m 30.641 351.113 30.02 349.59 30 348 c 29.98 347.215 30.145
 346.434 30.48 345.719 c 30.785 344.992 31.211 344.324 31.738 343.738 c 
33.457 342.023 36.047 341.523 38.281 342.48 c 39.008 342.785 39.676 343.211
 40.262 343.738 c 40.789 344.324 41.215 344.992 41.52 345.719 c 41.828 346.441
 41.992 347.215 42 348 c 42.016 350.438 40.551 352.641 38.301 353.578 c 
36.051 354.512 33.457 353.992 31.738 352.262 c h
31.738 352.262 m f
58.262 352.262 m 55.855 354.48 52.145 354.48 49.738 352.262 c 49.211 351.676
 48.785 351.008 48.48 350.281 c 47.84 348.828 47.84 347.172 48.48 345.719
 c 48.785 344.992 49.211 344.324 49.738 343.738 c 51.457 342.023 54.047 
341.523 56.281 342.48 c 57.008 342.785 57.676 343.211 58.262 343.738 c 58.789
 344.324 59.215 344.992 59.52 345.719 c 60.16 347.172 60.16 348.828 59.52
 350.281 c 59.215 351.008 58.789 351.676 58.262 352.262 c h
58.262 352.262 m f
76.262 352.262 m 75.676 352.789 75.008 353.215 74.281 353.52 c 73.188 354.004
 71.969 354.129 70.801 353.879 c 70.426 353.816 70.059 353.691 69.719 353.52
 c 69.336 353.387 68.973 353.207 68.633 352.98 c 68.324 352.758 68.023 352.516
 67.738 352.262 c 67.199 351.688 66.77 351.016 66.48 350.281 c 65.391 347.637
 66.316 344.594 68.691 343.004 c 71.066 341.414 74.234 341.723 76.262 343.738
 c 76.789 344.324 77.215 344.992 77.52 345.719 c 78.16 347.172 78.16 348.828
 77.52 350.281 c 77.215 351.008 76.789 351.676 76.262 352.262 c h
76.262 352.262 m f
60.828 247.871 m 68.246 161.445 115.57 83.43 188.797 36.926 c 192 34.902
 l 195.203 36.926 l 268.43 83.43 315.754 161.445 323.172 247.871 c 324.523
 264 l 312 264 l 288.816 264.031 270.031 282.816 270 306 c 270 312 l 108
 312 l 108 306 l 107.969 282.816 89.184 264.031 66 264 c 59.477 264 l h
119.664 300 m 258.336 300 l 261.402 272.883 284.191 252.301 311.477 252
 c 311.219 248.867 l 304.23 167.523 260.281 93.891 192 49.129 c 123.719 
93.891 79.77 167.523 72.781 248.867 c 72.484 252.383 l 97.332 255.43 116.848
 275.125 119.664 300 c h
119.664 300 m f
146.789 126.727 m 158.504 115.016 177.496 115.016 189.211 126.727 c 275.273
 212.789 l 284.246 221.762 284.246 236.305 275.273 245.273 c 266.305 254.246
 251.762 254.246 242.789 245.273 c 172.242 174.727 l 169.898 172.383 166.102
 172.383 163.758 174.727 c 140.957 197.527 l 136.812 201.684 131.176 204.016
 125.305 204 c 124.637 204 l 118.57 204 112.762 201.566 108.504 197.246 
c 104.25 192.922 101.906 187.074 102 181.008 c 102.02 174.934 104.43 169.113
 108.715 164.809 c h
117.121 188.879 m 119.109 190.883 121.82 192.008 124.645 192 c 125.305 
192 l 128.008 192.004 130.602 190.922 132.504 189 c 155.305 166.199 l 162.332
 159.172 173.727 159.172 180.758 166.199 c 251.273 236.789 l 255.586 240.918
 262.406 240.848 266.625 236.625 c 270.848 232.406 270.918 225.586 266.789
 221.273 c 180.727 135.211 l 173.605 128.414 162.395 128.414 155.273 135.211
 c 117.199 173.285 l 115.094 175.434 113.941 178.34 114 181.352 c 113.992
 184.176 115.117 186.887 117.121 188.879 c h
117.121 188.879 m f
Q Q
showpage
%%Trailer
end restore
%%EOF
