%!PS-Adobe-3.0 EPSF-3.0
%%Creator: cairo 1.14.8 (http://cairographics.org)
%%CreationDate: Wed Feb 20 09:42:43 2019
%%Pages: 1
%%DocumentData: Clean7Bit
%%LanguageLevel: 2
%%BoundingBox: 11 12 373 373
%%EndComments
%%BeginProlog
save
50 dict begin
/q { gsave } bind def
/Q { grestore } bind def
/cm { 6 array astore concat } bind def
/w { setlinewidth } bind def
/J { setlinecap } bind def
/j { setlinejoin } bind def
/M { setmiterlimit } bind def
/d { setdash } bind def
/m { moveto } bind def
/l { lineto } bind def
/c { curveto } bind def
/h { closepath } bind def
/re { exch dup neg 3 1 roll 5 3 roll moveto 0 rlineto
      0 exch rlineto 0 rlineto closepath } bind def
/S { stroke } bind def
/f { fill } bind def
/f* { eofill } bind def
/n { newpath } bind def
/W { clip } bind def
/W* { eoclip } bind def
/BT { } bind def
/ET { } bind def
/pdfmark where { pop globaldict /?pdfmark /exec load put }
    { globaldict begin /?pdfmark /pop load def /pdfmark
    /cleartomark load def end } ifelse
/BDC { mark 3 1 roll /BDC pdfmark } bind def
/EMC { mark /EMC pdfmark } bind def
/cairo_store_point { /cairo_point_y exch def /cairo_point_x exch def } def
/Tj { show currentpoint cairo_store_point } bind def
/TJ {
  {
    dup
    type /stringtype eq
    { show } { -0.001 mul 0 cairo_font_matrix dtransform rmoveto } ifelse
  } forall
  currentpoint cairo_store_point
} bind def
/cairo_selectfont { cairo_font_matrix aload pop pop pop 0 0 6 array astore
    cairo_font exch selectfont cairo_point_x cairo_point_y moveto } bind def
/Tf { pop /cairo_font exch def /cairo_font_matrix where
      { pop cairo_selectfont } if } bind def
/Td { matrix translate cairo_font_matrix matrix concatmatrix dup
      /cairo_font_matrix exch def dup 4 get exch 5 get cairo_store_point
      /cairo_font where { pop cairo_selectfont } if } bind def
/Tm { 2 copy 8 2 roll 6 array astore /cairo_font_matrix exch def
      cairo_store_point /cairo_font where { pop cairo_selectfont } if } bind def
/g { setgray } bind def
/rg { setrgbcolor } bind def
/d1 { setcachedevice } bind def
%%EndProlog
%%BeginSetup
%%EndSetup
%%Page: 1 1
%%BeginPageSetup
%%PageBoundingBox: 11 12 373 373
%%EndPageSetup
q 11 12 362 361 rectclip q
0.701961 g
215.996 132 m 251.996 168 l 281.996 138 l 245.996 102 l h
215.996 132 m f
0.901961 g
282 234 m 282 161.098 222.902 102 150 102 c 77.098 102 18 161.098 18 234
 c 18 306.902 77.098 366 150 366 c 222.902 366 282 306.902 282 234 c h
282 234 m f
0.423529 0.733333 0.780392 rg
366 34.969 m 366 30.469 364.211 26.152 361.031 22.969 c 357.848 19.789 
353.531 18 349.031 18 c 344.531 18 340.215 19.785 337.031 22.969 c 252 108
 l 276 132 l 361.031 46.969 l 364.215 43.785 366 39.469 366 34.969 c h
366 34.969 m f
0.00784314 0.6 0.541176 rg
186 162 m 114 162 l 114 274.734 l 114 301.766 127.512 327.004 150 342 c
 172.488 327.004 186 301.766 186 274.734 c h
186 162 m f
0.654902 0.839216 0.866667 rg
138 288 m 138 276 l 162 276 l 162 288 l 162 294.629 156.629 300 150 300
 c 143.371 300 138 294.629 138 288 c h
138 288 m f
0.992157 0.713726 0.184314 rg
114 252 m 105.898 231.75 l 103.316 225.289 99.73 219.277 95.281 213.93 
c 87.367 204.438 l 77.438 192.523 72 177.508 72 162 c 114 162 l h
114 252 m f
1 0.396078 0.211765 rg
114 162 24 -24 re f
162 162 24 -24 re f
0.992157 0.713726 0.184314 rg
186 252 m 194.102 231.75 l 196.684 225.289 200.27 219.277 204.719 213.93
 c 212.633 204.438 l 222.562 192.523 228 177.508 228 162 c 186 162 l h
186 252 m f
0 g
284.484 132 m 290.484 138 l 267.211 161.273 l 304.234 220.895 290.68 298.797
 235.695 342.41 c 180.711 386.02 101.766 381.48 52.145 331.855 c 2.52 282.234
 -2.02 203.289 41.59 148.305 c 85.203 93.32 163.105 79.766 222.727 116.789
 c 246 93.516 l 252 99.516 l 332.789 18.73 l 341.762 9.762 356.305 9.762
 365.273 18.73 c 374.246 27.703 374.246 42.246 365.273 51.215 c h
24 234 m 24 284.961 54.699 330.906 101.781 350.41 c 148.863 369.91 203.059
 359.133 239.094 323.094 c 275.133 287.059 285.91 232.863 266.41 185.781
 c 246.906 138.699 200.961 108 150 108 c 80.445 108.078 24.078 164.445 24
 234 c h
260.32 151.199 m 273.523 138 l 246 110.484 l 232.801 123.684 l 243.215 
131.523 252.48 140.785 260.32 151.199 c h
349.031 24 m 346.125 24.008 343.336 25.164 341.273 27.215 c 260.484 108
 l 276 123.516 l 356.789 42.73 l 359.926 39.594 360.863 34.875 359.168 30.773
 c 357.469 26.676 353.469 24 349.031 24 c h
349.031 24 m f
150 306 m 140.059 306 132 297.941 132 288 c 132 270 l 168 270 l 168 288
 l 168 297.941 159.941 306 150 306 c h
156 282 m 144 282 l 144 288 l 144 291.312 146.688 294 150 294 c 153.312
 294 156 291.312 156 288 c h
156 282 m f
209.336 217.77 m 205.277 222.637 202.016 228.117 199.668 234 c 192 253.156
 l 192 274.758 l 192.023 303.793 177.504 330.91 153.328 346.992 c 150 349.199
 l 146.672 346.98 l 122.492 330.898 107.973 303.773 108 274.734 c 108 253.133
 l 100.332 234 l 97.98 228.125 94.719 222.66 90.664 217.801 c 82.754 208.309
 l 71.93 195.305 66.004 178.918 66 162 c 66 156 l 108 156 l 108 132 l 144
 132 l 144 156 l 156 156 l 156 132 l 192 132 l 192 156 l 234 156 l 234 162
 l 233.988 178.91 228.062 195.281 217.246 208.277 c h
78.301 168 m 79.508 179.984 84.27 191.336 91.973 200.598 c 99.887 210.09
 l 102.984 213.809 105.703 217.828 108 222.09 c 108 168 l h
132 144 m 120 144 l 120 156 l 132 156 l h
120 168 m 120 274.734 l 119.973 298.324 131.098 320.543 150 334.656 c 168.902
 320.543 180.027 298.324 180 274.734 c 180 168 l h
180 144 m 168 144 l 168 156 l 180 156 l h
192 168 m 192 222.09 l 194.297 217.828 197.016 213.809 200.113 210.09 c
 208.027 200.598 l 215.73 191.336 220.492 179.984 221.699 168 c h
192 168 m f
Q Q
showpage
%%Trailer
end restore
%%EOF
