%!PS-Adobe-3.0 EPSF-3.0
%%Creator: cairo 1.14.8 (http://cairographics.org)
%%CreationDate: Wed Feb 20 09:42:43 2019
%%Pages: 1
%%DocumentData: Clean7Bit
%%LanguageLevel: 2
%%BoundingBox: 12 12 372 372
%%EndComments
%%BeginProlog
save
50 dict begin
/q { gsave } bind def
/Q { grestore } bind def
/cm { 6 array astore concat } bind def
/w { setlinewidth } bind def
/J { setlinecap } bind def
/j { setlinejoin } bind def
/M { setmiterlimit } bind def
/d { setdash } bind def
/m { moveto } bind def
/l { lineto } bind def
/c { curveto } bind def
/h { closepath } bind def
/re { exch dup neg 3 1 roll 5 3 roll moveto 0 rlineto
      0 exch rlineto 0 rlineto closepath } bind def
/S { stroke } bind def
/f { fill } bind def
/f* { eofill } bind def
/n { newpath } bind def
/W { clip } bind def
/W* { eoclip } bind def
/BT { } bind def
/ET { } bind def
/pdfmark where { pop globaldict /?pdfmark /exec load put }
    { globaldict begin /?pdfmark /pop load def /pdfmark
    /cleartomark load def end } ifelse
/BDC { mark 3 1 roll /BDC pdfmark } bind def
/EMC { mark /EMC pdfmark } bind def
/cairo_store_point { /cairo_point_y exch def /cairo_point_x exch def } def
/Tj { show currentpoint cairo_store_point } bind def
/TJ {
  {
    dup
    type /stringtype eq
    { show } { -0.001 mul 0 cairo_font_matrix dtransform rmoveto } ifelse
  } forall
  currentpoint cairo_store_point
} bind def
/cairo_selectfont { cairo_font_matrix aload pop pop pop 0 0 6 array astore
    cairo_font exch selectfont cairo_point_x cairo_point_y moveto } bind def
/Tf { pop /cairo_font exch def /cairo_font_matrix where
      { pop cairo_selectfont } if } bind def
/Td { matrix translate cairo_font_matrix matrix concatmatrix dup
      /cairo_font_matrix exch def dup 4 get exch 5 get cairo_store_point
      /cairo_font where { pop cairo_selectfont } if } bind def
/Tm { 2 copy 8 2 roll 6 array astore /cairo_font_matrix exch def
      cairo_store_point /cairo_font where { pop cairo_selectfont } if } bind def
/g { setgray } bind def
/rg { setrgbcolor } bind def
/d1 { setcachedevice } bind def
%%EndProlog
%%BeginSetup
%%EndSetup
%%Page: 1 1
%%BeginPageSetup
%%PageBoundingBox: 12 12 372 372
%%EndPageSetup
q 12 12 360 360 rectclip q
0.901961 g
246 366 120 -168 re f
0.701961 g
246 246 120 -48 re f
0.901961 g
48 138 120 -84 re f
0.701961 g
96 54 24 -24 re f
1 0.913725 0.8 rg
66 84 m 66 74.059 57.941 66 48 66 c 38.059 66 30 74.059 30 84 c 30 93.941
 38.059 102 48 102 c 57.941 102 66 93.941 66 84 c h
66 84 m f
0.513726 0.745098 0.72549 rg
18 18 m 18 36 l 18 52.57 31.43 66 48 66 c 64.57 66 78 52.57 78 36 c 78 
18 l h
18 18 m f
0 g
84 24 m 138 24 l 138 36 l 126 36 l 126 48 l 174 48 l 174 144 l 42 144 l
 42 107.148 l 33.777 105.062 27.285 98.766 24.945 90.609 c 22.605 82.457
 24.777 73.676 30.641 67.547 c 19.141 61.219 11.996 49.129 12 36 c 12 12
 l 84 12 l h
84 36 m 83.988 40.09 83.281 44.148 81.898 48 c 90 48 l 90 36 l h
114 36 m 102 36 l 102 48 l 114 48 l h
162 132 m 162 60 l 74.762 60 l 72.066 63.012 68.891 65.555 65.359 67.52
 c 71.238 73.645 73.418 82.438 71.078 90.602 c 68.738 98.766 62.234 105.066
 54 107.148 c 54 132 l h
36 84 m 36 88.855 38.922 93.23 43.406 95.086 c 47.891 96.945 53.055 95.918
 56.484 92.484 c 59.918 89.055 60.945 83.891 59.086 79.406 c 57.23 74.922
 52.855 72 48 72 c 41.371 72 36 77.371 36 84 c h
72 24 m 24 24 l 24 36 l 24 49.254 34.746 60 48 60 c 61.254 60 72 49.254
 72 36 c h
72 24 m f
240 192 m 372 192 l 372 372 l 240 372 l h
360 204 m 252 204 l 252 240 l 360 240 l h
360 360 m 360 252 l 252 252 l 252 360 l h
360 360 m f
337.738 337.738 m 338.324 337.211 338.992 336.785 339.719 336.48 c 341.172
 335.84 342.828 335.84 344.281 336.48 c 345.008 336.785 345.676 337.211 
346.262 337.738 c 346.789 338.324 347.215 338.992 347.52 339.719 c 348.16
 341.172 348.16 342.828 347.52 344.281 c 347.23 345.016 346.801 345.688 
346.262 346.262 c 343.855 348.48 340.145 348.48 337.738 346.262 c 337.199
 345.688 336.77 345.016 336.48 344.281 c 335.84 342.828 335.84 341.172 336.48
 339.719 c 336.785 338.992 337.211 338.324 337.738 337.738 c h
337.738 337.738 m f
264 348 24 -12 re f
339.719 312.48 m 341.566 311.688 343.684 311.883 345.355 312.996 c 347.027
 314.109 348.02 315.992 348 318 c 347.977 319.59 347.355 321.109 346.262
 322.262 c 344.535 323.961 341.953 324.461 339.719 323.52 c 338.211 322.973
 337.027 321.789 336.48 320.281 c 335.523 318.047 336.023 315.457 337.738
 313.738 c 338.324 313.211 338.992 312.785 339.719 312.48 c h
339.719 312.48 m f
264 324 24 -12 re f
339.719 288.422 m 341.188 287.859 342.812 287.859 344.281 288.422 c 344.996
 288.77 345.664 289.211 346.262 289.738 c 346.789 290.324 347.215 290.992
 347.52 291.719 c 347.855 292.434 348.02 293.215 348 294 c 347.977 295.59
 347.355 297.109 346.262 298.262 c 344.535 299.961 341.953 300.461 339.719
 299.52 c 338.211 298.973 337.027 297.789 336.48 296.281 c 335.523 294.047
 336.023 291.457 337.738 289.738 c 338.336 289.211 339.004 288.77 339.719
 288.422 c h
339.719 288.422 m f
264 300 24 -12 re f
270 216 m 271.598 215.984 273.133 216.609 274.262 217.738 c 275.391 218.867
 276.016 220.402 276 222 c 276.016 224.438 274.551 226.641 272.301 227.578
 c 270.051 228.512 267.457 227.992 265.738 226.262 c 265.199 225.688 264.77
 225.016 264.48 224.281 c 263.688 222.434 263.883 220.316 264.996 218.645
 c 266.109 216.973 267.992 215.98 270 216 c h
270 216 m f
288 228 60 -12 re f
300 348 24 -12 re f
300 324 24 -12 re f
300 300 24 -12 re f
300 180 12 -24 re f
300 144 12 -24 re f
300 102 m 294 102 l 294 90 l 312 90 l 312 108 l 300 108 l h
300 102 m f
258 102 24 -12 re f
222 102 24 -12 re f
186 102 24 -12 re f
102 252 12 -24 re f
102 216 12 -24 re f
102 180 12 -24 re f
114 306 m 120 306 l 120 318 l 102 318 l 102 300 l 114 300 l h
114 306 m f
102 288 12 -24 re f
132 318 24 -12 re f
168 318 24 -12 re f
204 318 24 -12 re f
339.719 264.422 m 341.188 263.859 342.812 263.859 344.281 264.422 c 344.996
 264.77 345.664 265.211 346.262 265.738 c 347.391 266.867 348.016 268.402
 348 270 c 347.977 271.59 347.355 273.109 346.262 274.262 c 343.867 276.52
 340.133 276.52 337.738 274.262 c 336.645 273.109 336.023 271.59 336 270
 c 335.984 268.402 336.609 266.867 337.738 265.738 c 338.336 265.211 339.004
 264.77 339.719 264.422 c h
339.719 264.422 m f
264 276 24 -12 re f
300 276 24 -12 re f
Q Q
showpage
%%Trailer
end restore
%%EOF
