%!PS-Adobe-3.0 EPSF-3.0
%%Creator: cairo 1.14.8 (http://cairographics.org)
%%CreationDate: Wed Feb 20 09:42:43 2019
%%Pages: 1
%%DocumentData: Clean7Bit
%%LanguageLevel: 2
%%BoundingBox: 12 12 372 372
%%EndComments
%%BeginProlog
save
50 dict begin
/q { gsave } bind def
/Q { grestore } bind def
/cm { 6 array astore concat } bind def
/w { setlinewidth } bind def
/J { setlinecap } bind def
/j { setlinejoin } bind def
/M { setmiterlimit } bind def
/d { setdash } bind def
/m { moveto } bind def
/l { lineto } bind def
/c { curveto } bind def
/h { closepath } bind def
/re { exch dup neg 3 1 roll 5 3 roll moveto 0 rlineto
      0 exch rlineto 0 rlineto closepath } bind def
/S { stroke } bind def
/f { fill } bind def
/f* { eofill } bind def
/n { newpath } bind def
/W { clip } bind def
/W* { eoclip } bind def
/BT { } bind def
/ET { } bind def
/pdfmark where { pop globaldict /?pdfmark /exec load put }
    { globaldict begin /?pdfmark /pop load def /pdfmark
    /cleartomark load def end } ifelse
/BDC { mark 3 1 roll /BDC pdfmark } bind def
/EMC { mark /EMC pdfmark } bind def
/cairo_store_point { /cairo_point_y exch def /cairo_point_x exch def } def
/Tj { show currentpoint cairo_store_point } bind def
/TJ {
  {
    dup
    type /stringtype eq
    { show } { -0.001 mul 0 cairo_font_matrix dtransform rmoveto } ifelse
  } forall
  currentpoint cairo_store_point
} bind def
/cairo_selectfont { cairo_font_matrix aload pop pop pop 0 0 6 array astore
    cairo_font exch selectfont cairo_point_x cairo_point_y moveto } bind def
/Tf { pop /cairo_font exch def /cairo_font_matrix where
      { pop cairo_selectfont } if } bind def
/Td { matrix translate cairo_font_matrix matrix concatmatrix dup
      /cairo_font_matrix exch def dup 4 get exch 5 get cairo_store_point
      /cairo_font where { pop cairo_selectfont } if } bind def
/Tm { 2 copy 8 2 roll 6 array astore /cairo_font_matrix exch def
      cairo_store_point /cairo_font where { pop cairo_selectfont } if } bind def
/g { setgray } bind def
/rg { setrgbcolor } bind def
/d1 { setcachedevice } bind def
%%EndProlog
%%BeginSetup
%%EndSetup
%%Page: 1 1
%%BeginPageSetup
%%PageBoundingBox: 12 12 372 372
%%EndPageSetup
q 12 12 360 360 rectclip q
0.992157 0.713726 0.184314 rg
314.273 104.91 m 312.938 110.254 308.137 114 302.629 114 c 273.371 114 
l 267.863 114 263.062 110.254 261.727 104.91 c 258 90 l 258 78 l 318 78 
l 318 90 l h
314.273 104.91 m f
0.654902 0.839216 0.866667 rg
18 114 m 18 18 l 90 18 l 90 78 l 54 114 l h
18 114 m f
0.423529 0.733333 0.780392 rg
90 78 m 54 114 l 54 78 l h
90 78 m f
0.960784 0.811765 0.407843 rg
354 90 m 258 90 l 258 18 l 366 18 l 366 78 l 366 84.629 360.629 90 354 
90 c h
354 90 m f
0.513726 0.745098 0.72549 rg
78 366 60 -138 re f
162 366 60 -138 re f
246 366 60 -138 re f
0 g
354 96 m 336 96 l 336 180 l 292.895 180 l 291.082 185.082 287.082 189.082
 282 190.895 c 282 222 l 312 222 l 312 372 l 240 372 l 240 222 l 270 222
 l 270 190.895 l 264.918 189.082 260.918 185.082 259.105 180 c 208.895 180
 l 207.082 185.082 203.082 189.082 198 190.895 c 198 222 l 228 222 l 228
 372 l 156 372 l 156 222 l 186 222 l 186 190.895 l 180.918 189.082 176.918
 185.082 175.105 180 c 124.895 180 l 123.082 185.082 119.082 189.082 114
 190.895 c 114 222 l 144 222 l 144 372 l 72 372 l 72 222 l 102 222 l 102
 190.895 l 96.918 189.082 92.918 185.082 91.105 180 c 48 180 l 48 120 l 
12 120 l 12 12 l 96 12 l 96 80.484 l 60 116.484 l 60 168 l 91.105 168 l 
93.609 160.812 100.387 155.996 108 155.996 c 115.613 155.996 122.391 160.812
 124.895 168 c 175.105 168 l 177.609 160.812 184.387 155.996 192 155.996
 c 199.613 155.996 206.391 160.812 208.895 168 c 259.105 168 l 261.609 160.812
 268.387 155.996 276 155.996 c 283.613 155.996 290.391 160.812 292.895 168
 c 324 168 l 324 96 l 322.688 96 l 320.094 106.375 l 318.086 114.387 310.887
 120.004 302.629 120 c 273.371 120 l 265.113 120 257.91 114.383 255.906 
106.367 c 252.18 91.453 l 252 12 l 372 12 l 372 78 l 372 87.941 363.941 
96 354 96 c h
252 360 m 300 360 l 300 234 l 252 234 l h
168 360 m 216 360 l 216 234 l 168 234 l h
84 360 m 132 360 l 132 234 l 84 234 l h
60 99.516 m 75.516 84 l 60 84 l h
24 24 m 24 108 l 48 108 l 48 72 l 84 72 l 84 24 l h
108 168 m 105.574 168 103.387 169.461 102.457 171.703 c 101.527 173.945
 102.043 176.527 103.758 178.242 c 105.473 179.957 108.055 180.473 110.297
 179.543 c 112.539 178.613 114 176.426 114 174 c 114 170.688 111.312 168
 108 168 c h
192 168 m 189.574 168 187.387 169.461 186.457 171.703 c 185.527 173.945
 186.043 176.527 187.758 178.242 c 189.473 179.957 192.055 180.473 194.297
 179.543 c 196.539 178.613 198 176.426 198 174 c 198 170.688 195.312 168
 192 168 c h
276 168 m 273.574 168 271.387 169.461 270.457 171.703 c 269.527 173.945
 270.043 176.527 271.758 178.242 c 273.473 179.957 276.055 180.473 278.297
 179.543 c 280.539 178.613 282 176.426 282 174 c 282 170.688 279.312 168
 276 168 c h
273.371 108 m 302.629 108 l 305.383 108.004 307.785 106.129 308.453 103.457
 c 310.312 96 l 265.688 96 l 267.547 103.453 l 268.215 106.125 270.617 108.004
 273.371 108 c h
360 24 m 264 24 l 264 84 l 354 84 l 357.312 84 360 81.312 360 78 c h
360 24 m f
112.262 256.262 m 110.535 257.961 107.953 258.461 105.719 257.52 c 104.211
 256.973 103.027 255.789 102.48 254.281 c 101.84 252.828 101.84 251.172 
102.48 249.719 c 102.785 248.992 103.211 248.324 103.738 247.738 c 106.105
 245.418 109.895 245.418 112.262 247.738 c 112.789 248.324 113.215 248.992
 113.52 249.719 c 114.16 251.172 114.16 252.828 113.52 254.281 c 113.215
 255.008 112.789 255.676 112.262 256.262 c h
112.262 256.262 m f
196.262 256.262 m 195.688 256.801 195.016 257.23 194.281 257.52 c 192.82
 258.125 191.18 258.125 189.719 257.52 c 188.984 257.23 188.312 256.801 
187.738 256.262 c 187.211 255.676 186.785 255.008 186.48 254.281 c 185.84
 252.828 185.84 251.172 186.48 249.719 c 186.785 248.992 187.211 248.324
 187.738 247.738 c 190.105 245.418 193.895 245.418 196.262 247.738 c 196.789
 248.324 197.215 248.992 197.52 249.719 c 198.16 251.172 198.16 252.828 
197.52 254.281 c 197.215 255.008 196.789 255.676 196.262 256.262 c h
196.262 256.262 m f
280.262 256.262 m 279.676 256.789 279.008 257.215 278.281 257.52 c 276.047
 258.461 273.465 257.961 271.738 256.262 c 271.211 255.676 270.785 255.008
 270.48 254.281 c 269.84 252.828 269.84 251.172 270.48 249.719 c 270.785
 248.992 271.211 248.324 271.738 247.738 c 274.105 245.418 277.895 245.418
 280.262 247.738 c 280.789 248.324 281.215 248.992 281.52 249.719 c 282.16
 251.172 282.16 252.828 281.52 254.281 c 281.215 255.008 280.789 255.676
 280.262 256.262 c h
280.262 256.262 m f
96 348 24 -12 re f
96 324 24 -12 re f
96 300 24 -12 re f
180 348 24 -12 re f
180 324 24 -12 re f
180 300 24 -12 re f
264 348 24 -12 re f
264 324 24 -12 re f
264 300 24 -12 re f
112.262 274.262 m 111.676 274.789 111.008 275.215 110.281 275.52 c 108.832
 276.18 107.168 276.18 105.719 275.52 c 104.211 274.973 103.027 273.789 
102.48 272.281 c 101.84 270.828 101.84 269.172 102.48 267.719 c 102.785 
266.992 103.211 266.324 103.738 265.738 c 104.324 265.211 104.992 264.785
 105.719 264.48 c 107.172 263.84 108.828 263.84 110.281 264.48 c 111.008
 264.785 111.676 265.211 112.262 265.738 c 112.789 266.324 113.215 266.992
 113.52 267.719 c 114.16 269.172 114.16 270.828 113.52 272.281 c 113.215
 273.008 112.789 273.676 112.262 274.262 c h
112.262 274.262 m f
196.262 274.262 m 195.977 274.52 195.676 274.758 195.359 274.98 c 195.027
 275.207 194.664 275.391 194.281 275.52 c 193.941 275.691 193.574 275.816
 193.199 275.879 c 191.223 276.285 189.176 275.676 187.738 274.262 c 187.199
 273.688 186.77 273.016 186.48 272.281 c 185.84 270.828 185.84 269.172 186.48
 267.719 c 186.785 266.992 187.211 266.324 187.738 265.738 c 188.324 265.211
 188.992 264.785 189.719 264.48 c 191.172 263.84 192.828 263.84 194.281 
264.48 c 195.008 264.785 195.676 265.211 196.262 265.738 c 197.977 267.457
 198.477 270.047 197.52 272.281 c 197.215 273.008 196.789 273.676 196.262
 274.262 c h
196.262 274.262 m f
280.262 274.262 m 278.824 275.676 276.777 276.285 274.801 275.879 c 274.426
 275.816 274.059 275.691 273.719 275.52 c 273.336 275.391 272.973 275.207
 272.641 274.98 c 272.324 274.758 272.023 274.52 271.738 274.262 c 271.211
 273.676 270.785 273.008 270.48 272.281 c 269.523 270.047 270.023 267.457
 271.738 265.738 c 273.457 264.023 276.047 263.523 278.281 264.48 c 279.008
 264.785 279.676 265.211 280.262 265.738 c 281.391 266.867 282.016 268.402
 282 270 c 282.02 270.785 281.855 271.566 281.52 272.281 c 281.215 273.008
 280.789 273.676 280.262 274.262 c h
280.262 274.262 m f
Q Q
showpage
%%Trailer
end restore
%%EOF
