%!PS-Adobe-3.0 EPSF-3.0
%%Creator: cairo 1.14.8 (http://cairographics.org)
%%CreationDate: Wed Feb 20 09:42:43 2019
%%Pages: 1
%%DocumentData: Clean7Bit
%%LanguageLevel: 2
%%BoundingBox: 12 11 372 373
%%EndComments
%%BeginProlog
save
50 dict begin
/q { gsave } bind def
/Q { grestore } bind def
/cm { 6 array astore concat } bind def
/w { setlinewidth } bind def
/J { setlinecap } bind def
/j { setlinejoin } bind def
/M { setmiterlimit } bind def
/d { setdash } bind def
/m { moveto } bind def
/l { lineto } bind def
/c { curveto } bind def
/h { closepath } bind def
/re { exch dup neg 3 1 roll 5 3 roll moveto 0 rlineto
      0 exch rlineto 0 rlineto closepath } bind def
/S { stroke } bind def
/f { fill } bind def
/f* { eofill } bind def
/n { newpath } bind def
/W { clip } bind def
/W* { eoclip } bind def
/BT { } bind def
/ET { } bind def
/pdfmark where { pop globaldict /?pdfmark /exec load put }
    { globaldict begin /?pdfmark /pop load def /pdfmark
    /cleartomark load def end } ifelse
/BDC { mark 3 1 roll /BDC pdfmark } bind def
/EMC { mark /EMC pdfmark } bind def
/cairo_store_point { /cairo_point_y exch def /cairo_point_x exch def } def
/Tj { show currentpoint cairo_store_point } bind def
/TJ {
  {
    dup
    type /stringtype eq
    { show } { -0.001 mul 0 cairo_font_matrix dtransform rmoveto } ifelse
  } forall
  currentpoint cairo_store_point
} bind def
/cairo_selectfont { cairo_font_matrix aload pop pop pop 0 0 6 array astore
    cairo_font exch selectfont cairo_point_x cairo_point_y moveto } bind def
/Tf { pop /cairo_font exch def /cairo_font_matrix where
      { pop cairo_selectfont } if } bind def
/Td { matrix translate cairo_font_matrix matrix concatmatrix dup
      /cairo_font_matrix exch def dup 4 get exch 5 get cairo_store_point
      /cairo_font where { pop cairo_selectfont } if } bind def
/Tm { 2 copy 8 2 roll 6 array astore /cairo_font_matrix exch def
      cairo_store_point /cairo_font where { pop cairo_selectfont } if } bind def
/g { setgray } bind def
/rg { setrgbcolor } bind def
/d1 { setcachedevice } bind def
%%EndProlog
%%BeginSetup
%%EndSetup
%%Page: 1 1
%%BeginPageSetup
%%PageBoundingBox: 12 11 372 373
%%EndPageSetup
q 12 11 360 362 rectclip q
0.423529 0.733333 0.780392 rg
324 270 m 319.863 270.008 315.75 269.398 311.789 268.199 c 310.461 287.719
 299.684 305.355 282.922 315.441 c 266.156 325.531 245.527 326.793 227.656
 318.828 c 214.375 349.75 182.754 368.656 149.227 365.719 c 115.703 362.785
 87.848 338.668 80.141 305.91 c 79.43 305.91 78.727 306.02 78 306.02 c 44.863
 306.02 18 279.156 18 246.02 c 18 212.883 44.863 186.02 78 186.02 c 324 
186.02 l 347.195 186.02 366 204.82 366 228.02 c 366 251.215 347.195 270.02
 324 270.02 c h
324 270 m f
0.960784 0.811765 0.407843 rg
102 138 180 -60 re f
0.513726 0.745098 0.72549 rg
102 198 180 -60 re f
1 0.854902 0.666667 rg
102 258 180 -60 re f
0 g
324 276 m 321.633 276 319.27 275.824 316.934 275.473 c 311.305 306.949 
283.977 329.898 252 330 c 244.746 330.008 237.543 328.805 230.684 326.441
 c 215 356.934 182.355 374.824 148.215 371.637 c 114.078 368.449 85.309 
344.82 75.547 311.953 c 39.625 310.582 11.406 280.715 12.074 244.773 c 12.742
 208.832 42.051 180.035 78 180 c 96 180 l 96 72 l 186 72 l 186 46.895 l 
180.918 45.082 176.918 41.082 175.105 36 c 84 36 l 84 24 l 175.105 24 l 
177.609 16.812 184.387 11.996 192 11.996 c 199.613 11.996 206.391 16.812
 208.895 24 c 300 24 l 300 36 l 208.895 36 l 207.082 41.082 203.082 45.082
 198 46.895 c 198 72 l 288 72 l 288 180 l 324 180 l 350.508 180 372 201.492
 372 228 c 372 254.508 350.508 276 324 276 c h
192 24 m 189.574 24 187.387 25.461 186.457 27.703 c 185.527 29.945 186.043
 32.527 187.758 34.242 c 189.473 35.957 192.055 36.473 194.297 35.543 c 
196.539 34.613 198 32.426 198 30 c 198 26.688 195.312 24 192 24 c h
276 204 m 108 204 l 108 252 l 276 252 l h
276 84 m 108 84 l 108 132 l 276 132 l h
108 144 m 108 192 l 276 192 l 276 144 l h
324 192 m 288 192 l 288 264 l 96 264 l 96 192 l 78 192 l 48.176 192 24 
216.176 24 246 c 24 275.824 48.176 300 78 300 c 84.863 299.734 l 85.984 
304.535 l 93.102 334.77 118.812 357.023 149.754 359.73 c 180.695 362.438
 209.883 344.984 222.137 316.445 c 224.539 310.871 l 230.09 313.34 l 246.168
 320.512 264.734 319.375 279.82 310.297 c 294.906 301.219 304.605 285.344
 305.797 267.781 c 306.316 260.27 l 313.52 262.453 l 323.535 265.488 334.375
 264.016 343.219 258.418 c 352.059 252.82 358.027 243.648 359.57 233.297
 c 361.109 222.945 358.07 212.438 351.238 204.508 c 344.41 196.578 334.465
 192.012 324 192 c h
324 192 m f
121.738 103.738 m 122.324 103.211 122.992 102.785 123.719 102.48 c 125.953
 101.523 128.543 102.023 130.262 103.738 c 130.789 104.324 131.215 104.992
 131.52 105.719 c 132.16 107.172 132.16 108.828 131.52 110.281 c 131.23 
111.016 130.801 111.688 130.262 112.262 c 127.855 114.48 124.145 114.48 
121.738 112.262 c 121.199 111.688 120.77 111.016 120.48 110.281 c 120.172
 109.559 120.008 108.785 120 108 c 119.98 107.215 120.145 106.434 120.48
 105.719 c 120.785 104.992 121.211 104.324 121.738 103.738 c h
121.738 103.738 m f
252 120 12 -24 re f
228 120 12 -24 re f
204 120 12 -24 re f
129.301 172.98 m 128.992 173.215 128.648 173.398 128.281 173.52 c 127.922
 173.703 127.535 173.824 127.133 173.879 c 125.176 174.273 123.152 173.664
 121.734 172.262 c 120.625 171.117 120.004 169.59 120 168 c 119.984 166.402
 120.609 164.867 121.738 163.738 c 122.324 163.211 122.992 162.785 123.719
 162.48 c 125.172 161.84 126.828 161.84 128.281 162.48 c 129.008 162.785
 129.676 163.211 130.262 163.738 c 131.387 164.871 132.012 166.406 132 168
 c 131.977 169.59 131.355 171.109 130.262 172.262 c 129.961 172.5 129.652
 172.738 129.301 172.98 c h
129.301 172.98 m f
252 180 12 -24 re f
228 180 12 -24 re f
204 180 12 -24 re f
121.738 223.738 m 122.324 223.211 122.992 222.785 123.719 222.48 c 125.172
 221.84 126.828 221.84 128.281 222.48 c 129.789 223.027 130.973 224.211 
131.52 225.719 c 131.828 226.441 131.992 227.215 132 228 c 132 231.312 129.312
 234 126 234 c 122.688 234 120 231.312 120 228 c 119.98 227.215 120.145 
226.434 120.48 225.719 c 120.785 224.992 121.211 224.324 121.738 223.738
 c h
121.738 223.738 m f
252 240 12 -24 re f
228 240 12 -24 re f
204 240 12 -24 re f
147.719 222.48 m 149.172 221.84 150.828 221.84 152.281 222.48 c 153.008
 222.785 153.676 223.211 154.262 223.738 c 155.977 225.457 156.477 228.047
 155.52 230.281 c 155.23 231.016 154.801 231.688 154.262 232.262 c 151.855
 234.48 148.145 234.48 145.738 232.262 c 145.199 231.688 144.77 231.016 
144.48 230.281 c 144.145 229.566 143.98 228.785 144 228 c 143.984 226.402
 144.609 224.867 145.738 223.738 c 146.324 223.211 146.992 222.785 147.719
 222.48 c h
147.719 222.48 m f
145.738 172.262 m 144.641 171.113 144.02 169.59 144 168 c 143.984 166.402
 144.609 164.867 145.738 163.738 c 146.324 163.211 146.992 162.785 147.719
 162.48 c 149.566 161.688 151.684 161.883 153.355 162.996 c 155.027 164.109
 156.02 165.992 156 168 c 156.016 170.438 154.551 172.641 152.301 173.578
 c 150.051 174.512 147.457 173.992 145.738 172.262 c h
145.738 172.262 m f
147.719 102.48 m 149.172 101.84 150.828 101.84 152.281 102.48 c 153.008
 102.785 153.676 103.211 154.262 103.738 c 155.977 105.457 156.477 108.047
 155.52 110.281 c 155.23 111.016 154.801 111.688 154.262 112.262 c 151.855
 114.48 148.145 114.48 145.738 112.262 c 145.199 111.688 144.77 111.016 
144.48 110.281 c 144.145 109.566 143.98 108.785 144 108 c 143.984 106.402
 144.609 104.867 145.738 103.738 c 146.324 103.211 146.992 102.785 147.719
 102.48 c h
147.719 102.48 m f
Q Q
showpage
%%Trailer
end restore
%%EOF
