%!PS-Adobe-3.0 EPSF-3.0
%%Creator: cairo 1.14.8 (http://cairographics.org)
%%CreationDate: Wed Feb 20 09:42:43 2019
%%Pages: 1
%%DocumentData: Clean7Bit
%%LanguageLevel: 2
%%BoundingBox: 12 12 372 372
%%EndComments
%%BeginProlog
save
50 dict begin
/q { gsave } bind def
/Q { grestore } bind def
/cm { 6 array astore concat } bind def
/w { setlinewidth } bind def
/J { setlinecap } bind def
/j { setlinejoin } bind def
/M { setmiterlimit } bind def
/d { setdash } bind def
/m { moveto } bind def
/l { lineto } bind def
/c { curveto } bind def
/h { closepath } bind def
/re { exch dup neg 3 1 roll 5 3 roll moveto 0 rlineto
      0 exch rlineto 0 rlineto closepath } bind def
/S { stroke } bind def
/f { fill } bind def
/f* { eofill } bind def
/n { newpath } bind def
/W { clip } bind def
/W* { eoclip } bind def
/BT { } bind def
/ET { } bind def
/pdfmark where { pop globaldict /?pdfmark /exec load put }
    { globaldict begin /?pdfmark /pop load def /pdfmark
    /cleartomark load def end } ifelse
/BDC { mark 3 1 roll /BDC pdfmark } bind def
/EMC { mark /EMC pdfmark } bind def
/cairo_store_point { /cairo_point_y exch def /cairo_point_x exch def } def
/Tj { show currentpoint cairo_store_point } bind def
/TJ {
  {
    dup
    type /stringtype eq
    { show } { -0.001 mul 0 cairo_font_matrix dtransform rmoveto } ifelse
  } forall
  currentpoint cairo_store_point
} bind def
/cairo_selectfont { cairo_font_matrix aload pop pop pop 0 0 6 array astore
    cairo_font exch selectfont cairo_point_x cairo_point_y moveto } bind def
/Tf { pop /cairo_font exch def /cairo_font_matrix where
      { pop cairo_selectfont } if } bind def
/Td { matrix translate cairo_font_matrix matrix concatmatrix dup
      /cairo_font_matrix exch def dup 4 get exch 5 get cairo_store_point
      /cairo_font where { pop cairo_selectfont } if } bind def
/Tm { 2 copy 8 2 roll 6 array astore /cairo_font_matrix exch def
      cairo_store_point /cairo_font where { pop cairo_selectfont } if } bind def
/g { setgray } bind def
/rg { setrgbcolor } bind def
/d1 { setcachedevice } bind def
%%EndProlog
%%BeginSetup
%%EndSetup
%%Page: 1 1
%%BeginPageSetup
%%PageBoundingBox: 12 12 372 372
%%EndPageSetup
q 12 12 360 360 rectclip q
0.501961 g
162 90 60 -54 re f
0.901961 g
18 306 348 -192 re f
0.701961 g
18 114 348 -36 re f
162 48 m 150 18 l 234 18 l 222 48 l h
162 48 m f
1 0.854902 0.666667 rg
162 174 m 114 174 l 88.969 199.031 l 85.785 202.215 81.469 204 76.969 204
 c 72.469 204 68.152 202.211 64.969 199.031 c 61.789 195.848 60 191.531 
60 187.031 c 60 182.531 61.785 178.215 64.969 175.031 c 102 138 l 324 138
 l 324 186 l 264 186 l 228 198 l 174 198 l 164.059 198 156 189.941 156 180
 c 156 170.059 164.059 162 174 162 c 228 162 l f
0.423529 0.733333 0.780392 rg
264 282 m 264 306 l 244.613 306 l 243.266 311.922 240.918 317.574 237.68
 322.711 c 251.398 336.426 l 234.426 353.398 l 220.711 339.68 l 215.574 
342.918 209.922 345.266 204 346.613 c 204 366 l 180 366 l 180 346.613 l 
174.078 345.266 168.426 342.918 163.289 339.68 c 149.574 353.398 l 132.602
 336.426 l 146.316 322.711 l 143.078 317.574 140.734 311.922 139.387 306
 c 120 306 l 120 282 l 139.387 282 l 140.734 276.078 143.082 270.426 146.32
 265.289 c 132.602 251.574 l 149.574 234.602 l 163.289 248.316 l 168.426
 245.078 174.078 242.734 180 241.387 c 180 222 l 204 222 l 204 241.387 l
 209.922 242.734 215.574 245.082 220.711 248.32 c 234.426 234.602 l 251.398
 251.574 l 237.684 265.289 l 240.922 270.426 243.266 276.078 244.613 282
 c h
192 264 m 179.867 264 168.926 271.309 164.285 282.52 c 159.641 293.73 162.207
 306.633 170.785 315.215 c 179.367 323.793 192.27 326.359 203.48 321.715
 c 214.691 317.074 222 306.133 222 294 c 222 277.43 208.57 264 192 264 c
 h
192 264 m f
0 g
228.973 204 m 174 204 l 160.746 204 150 193.254 150 180 c 116.484 180 l
 93.211 203.27 l 84.238 212.238 69.695 212.238 60.727 203.27 c 56.418 198.961
 54 193.117 54 187.027 c 54 180.934 56.418 175.09 60.727 170.785 c 99.516
 132 l 330 132 l 330 192 l 264.973 192 l h
318 144 m 104.484 144 l 69.211 179.27 l 66.074 182.406 65.137 187.125 66.832
 191.227 c 68.531 195.324 72.531 198 76.969 198 c 79.875 197.992 82.664 
196.836 84.727 194.785 c 111.516 168 l 153.223 168 l 157.508 160.578 165.43
 156.004 174 156 c 228 156 l 228 168 l 174 168 l 167.371 168 162 173.371
 162 180 c 162 186.629 167.371 192 174 192 c 227.027 192 l 263.027 180 l
 318 180 l h
318 144 m f
192 258 m 206.562 258 219.688 266.77 225.258 280.223 c 230.832 293.676 
227.75 309.16 217.457 319.457 c 207.16 329.75 191.676 332.832 178.223 327.258
 c 164.77 321.688 156 308.562 156 294 c 156.02 274.125 172.125 258.02 192
 258 c h
192 270 m 178.746 270 168 280.746 168 294 c 168.023 296.027 168.312 298.043
 168.852 300 c 215.148 300 l 215.688 298.043 215.977 296.027 216 294 c 216
 280.746 205.254 270 192 270 c h
207.707 312 m 176.293 312 l 185.234 320 198.766 320 207.707 312 c h
207.707 312 m f
249.203 312 m 248.148 315.352 246.797 318.602 245.164 321.715 c 259.879
 336.426 l 234.426 361.879 l 219.715 347.164 l 216.602 348.797 213.352 350.148
 210 351.203 c 210 372 l 174 372 l 174 351.203 l 170.648 350.148 167.398
 348.797 164.285 347.164 c 149.574 361.879 l 124.121 336.426 l 138.836 321.715
 l 137.203 318.602 135.852 315.352 134.797 312 c 12 312 l 12 72 l 156 72
 l 156 49.152 l 141.137 12 l 242.863 12 l 228 49.152 l 228 72 l 372 72 l
 372 312 l h
126 300 m 144.168 300 l 145.23 304.668 l 146.43 309.926 148.516 314.945
 151.391 319.508 c 153.949 323.562 l 141.09 336.426 l 149.574 344.91 l 162.434
 332.051 l 166.48 334.602 l 171.047 337.484 176.07 339.566 181.332 340.766
 c 186 341.824 l 186 360 l 198 360 l 198 341.824 l 202.668 340.766 l 207.93
 339.566 212.953 337.484 217.52 334.602 c 221.566 332.051 l 234.426 344.91
 l 242.91 336.426 l 230.051 323.562 l 232.609 319.508 l 235.496 314.945 
237.59 309.93 238.801 304.668 c 239.863 300 l 258 300 l 258 288 l 239.832
 288 l 238.77 283.332 l 237.57 278.074 235.484 273.055 232.609 268.492 c
 230.051 264.438 l 242.91 251.574 l 234.426 243.09 l 221.566 255.949 l 217.512
 253.398 l 212.949 250.516 207.93 248.43 202.668 247.234 c 198 246.176 l
 198 228 l 186 228 l 186 246.176 l 181.332 247.234 l 176.07 248.43 171.051
 250.516 166.488 253.398 c 162.434 255.949 l 149.574 243.09 l 141.09 251.574
 l 153.949 264.438 l 151.391 268.492 l 148.516 273.055 146.43 278.074 145.23
 283.332 c 144.168 288 l 126 288 l h
158.863 24 m 166.062 42 l 217.938 42 l 225.137 24 l h
216 54 m 168 54 l 168 72 l 216 72 l h
360 84 m 24 84 l 24 108 l 360 108 l h
360 300 m 360 120 l 24 120 l 24 300 l 114 300 l 114 276 l 134.797 276 l
 135.852 272.648 137.203 269.398 138.836 266.285 c 124.121 251.574 l 149.574
 226.121 l 164.285 240.828 l 167.398 239.199 170.648 237.852 174 236.797
 c 174 216 l 210 216 l 210 236.797 l 213.352 237.852 216.602 239.199 219.715
 240.828 c 234.426 226.121 l 259.879 251.574 l 245.164 266.285 l 246.797
 269.398 248.148 272.648 249.203 276 c 270 276 l 270 300 l h
360 300 m f
Q Q
showpage
%%Trailer
end restore
%%EOF
