%!PS-Adobe-3.0 EPSF-3.0
%%Creator: cairo 1.14.8 (http://cairographics.org)
%%CreationDate: Wed Feb 20 09:42:43 2019
%%Pages: 1
%%DocumentData: Clean7Bit
%%LanguageLevel: 2
%%BoundingBox: 12 12 372 372
%%EndComments
%%BeginProlog
save
50 dict begin
/q { gsave } bind def
/Q { grestore } bind def
/cm { 6 array astore concat } bind def
/w { setlinewidth } bind def
/J { setlinecap } bind def
/j { setlinejoin } bind def
/M { setmiterlimit } bind def
/d { setdash } bind def
/m { moveto } bind def
/l { lineto } bind def
/c { curveto } bind def
/h { closepath } bind def
/re { exch dup neg 3 1 roll 5 3 roll moveto 0 rlineto
      0 exch rlineto 0 rlineto closepath } bind def
/S { stroke } bind def
/f { fill } bind def
/f* { eofill } bind def
/n { newpath } bind def
/W { clip } bind def
/W* { eoclip } bind def
/BT { } bind def
/ET { } bind def
/pdfmark where { pop globaldict /?pdfmark /exec load put }
    { globaldict begin /?pdfmark /pop load def /pdfmark
    /cleartomark load def end } ifelse
/BDC { mark 3 1 roll /BDC pdfmark } bind def
/EMC { mark /EMC pdfmark } bind def
/cairo_store_point { /cairo_point_y exch def /cairo_point_x exch def } def
/Tj { show currentpoint cairo_store_point } bind def
/TJ {
  {
    dup
    type /stringtype eq
    { show } { -0.001 mul 0 cairo_font_matrix dtransform rmoveto } ifelse
  } forall
  currentpoint cairo_store_point
} bind def
/cairo_selectfont { cairo_font_matrix aload pop pop pop 0 0 6 array astore
    cairo_font exch selectfont cairo_point_x cairo_point_y moveto } bind def
/Tf { pop /cairo_font exch def /cairo_font_matrix where
      { pop cairo_selectfont } if } bind def
/Td { matrix translate cairo_font_matrix matrix concatmatrix dup
      /cairo_font_matrix exch def dup 4 get exch 5 get cairo_store_point
      /cairo_font where { pop cairo_selectfont } if } bind def
/Tm { 2 copy 8 2 roll 6 array astore /cairo_font_matrix exch def
      cairo_store_point /cairo_font where { pop cairo_selectfont } if } bind def
/g { setgray } bind def
/rg { setrgbcolor } bind def
/d1 { setcachedevice } bind def
%%EndProlog
%%BeginSetup
%%EndSetup
%%Page: 1 1
%%BeginPageSetup
%%PageBoundingBox: 12 12 372 372
%%EndPageSetup
q 12 12 360 360 rectclip q
0.901961 g
18 318 348 -276 re f
0.701961 g
18 366 348 -48 re f
0.654902 0.839216 0.866667 rg
42 18 m 42 114 l 42 133.883 58.117 150 78 150 c 126 150 l 145.883 150 162
 133.883 162 114 c 162 18 l h
42 18 m f
186 234 m 168 216 l 186 198 l 186 186 l 186 172.746 196.746 162 210 162
 c 318 162 l 331.254 162 342 172.746 342 186 c 342 270 l 342 283.254 331.254
 294 318 294 c 210 294 l 196.746 294 186 283.254 186 270 c h
186 234 m f
1 0.854902 0.666667 rg
78 150 m 102 114 l 126 150 l f
258 258 m 258 246 l 228 246 l 228 198 l 294 198 l 307.254 198 318 208.746
 318 222 c 318 234 l 318 240.629 312.629 246 306 246 c 282 246 l 282 258
 l 282 264.629 276.629 270 270 270 c 263.371 270 258 264.629 258 258 c h
258 258 m f
0.423529 0.733333 0.780392 rg
210 258 24 -72 re f
1 0.854902 0.666667 rg
102 240 m 138 240 l 138 204 l 138 184.117 121.883 168 102 168 c 82.117 
168 66 184.117 66 204 c 66 223.883 82.117 240 102 240 c h
102 240 m f
0.470588 0.290196 0.258824 rg
102 240 m 90.648 239.992 79.969 234.637 73.176 225.543 c 66.383 216.449
 64.277 204.684 67.492 193.801 c 78.863 207.828 95.945 215.98 114 216 c 
138 216 l 138 240 l h
102 240 m f
0 g
12 36 m 36 36 l 36 12 l 168 12 l 168 36 l 372 36 l 372 372 l 12 372 l h
156 24 m 48 24 l 48 114 l 48.051 129.359 59.715 142.188 75 143.695 c 102
 103.199 l 129 143.711 l 144.293 142.207 155.961 129.367 156 114 c h
89.207 144 m 114.793 144 l 102 124.801 l h
360 48 m 168 48 l 168 114 l 167.973 137.184 149.184 155.973 126 156 c 78
 156 l 54.816 155.973 36.027 137.184 36 114 c 36 48 l 24 48 l 24 312 l 360
 312 l h
24 360 m 360 360 l 360 324 l 24 324 l h
24 360 m f
39.719 347.52 m 38.984 347.23 38.312 346.801 37.738 346.262 c 35.418 343.895
 35.418 340.105 37.738 337.738 c 38.312 337.199 38.984 336.77 39.719 336.48
 c 40.441 336.172 41.215 336.008 42 336 c 44.438 335.984 46.641 337.449 
47.578 339.699 c 48.512 341.949 47.992 344.543 46.262 346.262 c 44.535 347.961
 41.953 348.461 39.719 347.52 c h
39.719 347.52 m f
70.262 346.262 m 67.855 348.48 64.145 348.48 61.738 346.262 c 61.211 345.676
 60.785 345.008 60.48 344.281 c 60.172 343.559 60.008 342.785 60 342 c 60.012
 341.598 60.055 341.195 60.121 340.801 c 60.184 340.426 60.309 340.059 60.48
 339.719 c 60.609 339.336 60.793 338.973 61.02 338.641 c 61.242 338.324 
61.48 338.023 61.738 337.738 c 63.457 336.008 66.051 335.488 68.301 336.422
 c 70.551 337.359 72.016 339.562 72 342 c 71.992 342.785 71.828 343.559 
71.52 344.281 c 71.215 345.008 70.789 345.676 70.262 346.262 c h
70.262 346.262 m f
94.262 346.262 m 92.805 347.641 90.773 348.246 88.801 347.879 c 88.426 
347.816 88.059 347.691 87.719 347.52 c 87.336 347.387 86.973 347.207 86.633
 346.98 c 85.738 346.262 l 85.199 345.688 84.77 345.016 84.48 344.281 c 
84.145 343.566 83.98 342.785 84 342 c 84.02 340.41 84.641 338.891 85.738
 337.738 c 86.633 337.02 l 86.973 336.793 87.336 336.613 87.719 336.48 c
 88.059 336.309 88.426 336.184 88.801 336.121 c 89.195 336.051 89.598 336.012
 90 336 c 91.598 335.984 93.133 336.609 94.262 337.738 c 95.391 338.867 
96.016 340.402 96 342 c 96.02 342.785 95.852 343.566 95.52 344.281 c 95.23
 345.016 94.801 345.688 94.262 346.262 c h
94.262 346.262 m f
180 186 m 180.02 169.441 193.441 156.02 210 156 c 318 156 l 334.559 156.02
 347.98 169.441 348 186 c 348 270 l 347.98 286.559 334.559 299.98 318 300
 c 210 300 l 193.441 299.98 180.02 286.559 180 270 c 180 236.484 l 159.516
 216 l 180 195.516 l h
176.484 216 m 192 231.516 l 192 270 l 192 279.941 200.059 288 210 288 c
 318 288 l 327.941 288 336 279.941 336 270 c 336 186 l 336 176.059 327.941
 168 318 168 c 210 168 l 200.059 168 192 176.059 192 186 c 192 200.484 l
 h
176.484 216 m f
102 162 m 125.184 162.027 143.973 180.816 144 204 c 144 246 l 102 246 l
 78.805 246 60 227.195 60 204 c 60 180.805 78.805 162 102 162 c h
102 174 m 89.871 174.02 78.941 181.328 74.297 192.535 c 84.531 203.621 
98.914 209.949 114 210 c 132 210 l 132 204 l 131.98 187.441 118.559 174.02
 102 174 c h
102 234 m 132 234 l 132 222 l 114 222 l 98.809 221.953 84.09 216.695 72.312
 207.098 c 73.863 222.34 86.676 233.953 102 234 c h
102 234 m f
104.281 89.52 m 102.832 90.18 101.168 90.18 99.719 89.52 c 98.984 89.23
 98.312 88.801 97.738 88.262 c 96.035 86.539 95.531 83.965 96.461 81.727
 c 97.395 79.492 99.578 78.035 102 78.035 c 104.422 78.035 106.605 79.492
 107.539 81.727 c 108.469 83.965 107.965 86.539 106.262 88.262 c 105.676
 88.789 105.008 89.215 104.281 89.52 c h
104.281 89.52 m f
97.738 58.262 m 96.035 56.539 95.531 53.965 96.461 51.727 c 97.395 49.492
 99.578 48.035 102 48.035 c 104.422 48.035 106.605 49.492 107.539 51.727
 c 108.469 53.965 107.965 56.539 106.262 58.262 c 103.855 60.48 100.145 
60.48 97.738 58.262 c h
97.738 58.262 m f
240 192 m 294 192 l 310.559 192.02 323.98 205.441 324 222 c 324 234 l 324
 243.941 315.941 252 306 252 c 288 252 l 288 258 l 288 267.941 279.941 276
 270 276 c 260.059 276 252 267.941 252 258 c 252 252 l 240 252 l 240 264
 l 204 264 l 204 180 l 240 180 l h
264 240 m 264 258 l 264 261.312 266.688 264 270 264 c 273.312 264 276 261.312
 276 258 c 276 240 l 306 240 l 309.312 240 312 237.312 312 234 c 312 222
 l 312 212.059 303.941 204 294 204 c 240 204 l 240 240 l h
216 192 m 216 252 l 228 252 l 228 192 l h
216 192 m f
Q Q
showpage
%%Trailer
end restore
%%EOF
