%!PS-Adobe-3.0 EPSF-3.0
%%Creator: cairo 1.14.8 (http://cairographics.org)
%%CreationDate: Wed Feb 20 09:42:43 2019
%%Pages: 1
%%DocumentData: Clean7Bit
%%LanguageLevel: 2
%%BoundingBox: 12 12 372 372
%%EndComments
%%BeginProlog
save
50 dict begin
/q { gsave } bind def
/Q { grestore } bind def
/cm { 6 array astore concat } bind def
/w { setlinewidth } bind def
/J { setlinecap } bind def
/j { setlinejoin } bind def
/M { setmiterlimit } bind def
/d { setdash } bind def
/m { moveto } bind def
/l { lineto } bind def
/c { curveto } bind def
/h { closepath } bind def
/re { exch dup neg 3 1 roll 5 3 roll moveto 0 rlineto
      0 exch rlineto 0 rlineto closepath } bind def
/S { stroke } bind def
/f { fill } bind def
/f* { eofill } bind def
/n { newpath } bind def
/W { clip } bind def
/W* { eoclip } bind def
/BT { } bind def
/ET { } bind def
/pdfmark where { pop globaldict /?pdfmark /exec load put }
    { globaldict begin /?pdfmark /pop load def /pdfmark
    /cleartomark load def end } ifelse
/BDC { mark 3 1 roll /BDC pdfmark } bind def
/EMC { mark /EMC pdfmark } bind def
/cairo_store_point { /cairo_point_y exch def /cairo_point_x exch def } def
/Tj { show currentpoint cairo_store_point } bind def
/TJ {
  {
    dup
    type /stringtype eq
    { show } { -0.001 mul 0 cairo_font_matrix dtransform rmoveto } ifelse
  } forall
  currentpoint cairo_store_point
} bind def
/cairo_selectfont { cairo_font_matrix aload pop pop pop 0 0 6 array astore
    cairo_font exch selectfont cairo_point_x cairo_point_y moveto } bind def
/Tf { pop /cairo_font exch def /cairo_font_matrix where
      { pop cairo_selectfont } if } bind def
/Td { matrix translate cairo_font_matrix matrix concatmatrix dup
      /cairo_font_matrix exch def dup 4 get exch 5 get cairo_store_point
      /cairo_font where { pop cairo_selectfont } if } bind def
/Tm { 2 copy 8 2 roll 6 array astore /cairo_font_matrix exch def
      cairo_store_point /cairo_font where { pop cairo_selectfont } if } bind def
/g { setgray } bind def
/rg { setrgbcolor } bind def
/d1 { setcachedevice } bind def
%%EndProlog
%%BeginSetup
%%EndSetup
%%Page: 1 1
%%BeginPageSetup
%%PageBoundingBox: 12 12 372 372
%%EndPageSetup
q 12 12 360 360 rectclip q
0.901961 g
162 366 60 -108 re f
0.701961 g
162 282 60 -24 re f
0.960784 0.811765 0.407843 rg
150 162 m 116.863 162 90 153.941 90 144 c 90 36 l 90 26.059 116.863 18 
150 18 c 183.137 18 210 26.059 210 36 c 210 144 l 210 153.941 183.137 162
 150 162 c h
150 162 m f
210 144 m 210 134.059 183.137 126 150 126 c 116.863 126 90 134.059 90 144
 c 90 153.941 116.863 162 150 162 c 183.137 162 210 153.941 210 144 c h
210 144 m f
0.992157 0.713726 0.184314 rg
90 36 m 90 26.059 116.863 18 150 18 c 183.137 18 210 26.059 210 36 c 210
 72 l 210 62.059 183.137 54 150 54 c 116.863 54 90 62.059 90 72 c h
90 36 m f
210 144 m 210 134.059 183.137 126 150 126 c 116.863 126 90 134.059 90 144
 c 90 108 l 90 98.059 116.863 90 150 90 c 183.137 90 210 98.059 210 108 
c h
210 144 m f
0.423529 0.733333 0.780392 rg
288 72 m 287.98 75.273 287.578 78.535 286.801 81.715 c 298.738 88.609 l
 286.738 109.391 l 274.801 102.496 l 270.043 107.016 264.285 110.352 258
 112.234 c 258 126 l 234 126 l 234 112.234 l 227.715 110.352 221.957 107.016
 217.199 102.496 c 205.254 109.391 l 193.254 88.609 l 205.195 81.715 l 203.625
 75.332 203.625 68.668 205.195 62.285 c 193.254 55.391 l 205.254 34.609 
l 217.199 41.504 l 221.957 36.984 227.715 33.648 234 31.766 c 234 18 l 258
 18 l 258 31.766 l 264.285 33.648 270.043 36.984 274.801 41.504 c 286.746
 34.609 l 298.746 55.391 l 286.801 62.285 l 287.578 65.465 287.98 68.727
 288 72 c h
246 54 m 238.719 54 232.156 58.387 229.371 65.113 c 226.586 71.836 228.125
 79.578 233.273 84.727 c 238.422 89.875 246.164 91.414 252.887 88.629 c 
259.613 85.844 264 79.281 264 72 c 264 62.059 255.941 54 246 54 c h
246 54 m f
0.901961 g
18 366 108 -84 re f
0.701961 g
18 306 108 -24 re f
0.501961 g
54 282 36 -24 re f
0.901961 g
258 366 108 -108 re f
0.701961 g
258 366 108 -36 re f
0 g
288.961 117.602 m 275.496 109.801 l 271.992 112.547 268.125 114.797 264
 116.477 c 264 132 l 228 132 l 228 116.477 l 223.879 114.801 220.008 112.559
 216.504 109.816 c 216 110.105 l 216 144 l 216 160.488 181.801 168 150 168
 c 118.199 168 84 160.488 84 144 c 84 36 l 84 19.512 118.199 12 150 12 c
 180.27 12 212.672 18.828 215.699 33.719 c 216.504 34.184 l 220.008 31.441
 223.879 29.199 228 27.523 c 228 12 l 264 12 l 264 27.523 l 268.121 29.199
 271.992 31.441 275.496 34.184 c 288.961 26.383 l 306.961 57.582 l 293.516
 65.348 l 294.16 69.75 294.16 74.227 293.516 78.629 c 306.961 86.398 l h
203.039 117.602 m 194.152 102.211 l 179.867 97.773 164.957 95.676 150 96
 c 114.895 96 96.898 104.762 96 108 c 96 129.402 l 96.086 129.359 96.188
 129.328 96.27 129.289 c 97.715 128.574 99.262 127.906 100.906 127.277 c
 101.348 127.109 101.824 126.961 102.281 126.793 c 103.555 126.336 104.863
 125.898 106.223 125.488 c 106.871 125.297 107.527 125.117 108.191 124.938
 c 109.492 124.578 110.824 124.238 112.195 123.926 c 112.848 123.77 113.496
 123.613 114.16 123.473 c 115.875 123.105 117.621 122.77 119.406 122.465
 c 120.414 122.281 l 122.551 121.934 124.73 121.625 126.953 121.355 c 128.875
 121.152 l 130.5 120.973 132.133 120.809 133.789 120.68 c 134.562 120.613
 135.336 120.551 136.117 120.496 c 137.73 120.391 139.352 120.293 140.977
 120.223 c 143.105 120.125 l 145.41 120.047 147.707 120 150 120 c 152.293
 120 154.59 120.047 156.895 120.125 c 159.023 120.223 l 160.648 120.293 
162.27 120.391 163.883 120.496 c 164.664 120.551 165.438 120.613 166.211
 120.68 c 167.867 120.809 169.5 120.973 171.125 121.152 c 173.047 121.355
 l 175.266 121.629 177.445 121.938 179.586 122.281 c 180.594 122.465 l 182.383
 122.773 184.129 123.109 185.84 123.473 c 186.504 123.613 187.152 123.77
 187.805 123.926 c 189.176 124.238 190.508 124.578 191.809 124.938 c 192.473
 125.117 193.129 125.297 193.777 125.488 c 195.137 125.898 196.445 126.336
 197.719 126.793 c 198.176 126.961 198.652 127.109 199.094 127.277 c 200.734
 127.902 202.281 128.57 203.73 129.289 c 203.812 129.328 203.914 129.359
 204 129.402 c 204 117.035 l h
150 156 m 152.184 156 154.301 155.965 156.359 155.902 c 157.086 155.902
 157.758 155.832 158.473 155.801 c 159.762 155.746 161.062 155.699 162.301
 155.621 c 163.312 155.555 164.262 155.465 165.238 155.387 c 166.109 155.316
 167.039 155.258 167.852 155.18 c 169.051 155.062 170.141 154.926 171.266
 154.793 c 171.836 154.723 172.465 154.668 172.984 154.598 c 174.461 154.402
 175.859 154.188 177.227 153.996 c 177.707 153.93 l 194.363 151.164 203.113
 146.383 203.969 144.047 c 203.926 143.945 203.875 143.844 203.812 143.746
 c 203.75 143.617 203.672 143.492 203.586 143.375 c 203.496 143.27 203.363
 143.152 203.258 143.039 c 203.148 142.926 202.973 142.738 202.781 142.578
 c 202.59 142.414 202.477 142.352 202.324 142.234 c 202.176 142.121 201.871
 141.887 201.59 141.703 c 201.414 141.59 201.191 141.469 200.988 141.348
 c 200.672 141.156 200.387 140.965 199.992 140.746 c 199.77 140.629 199.5
 140.508 199.266 140.387 c 198.859 140.18 198.461 139.973 198 139.789 c 
197.152 139.43 l 196.656 139.219 196.172 139.004 195.617 138.785 c 195.312
 138.664 194.957 138.547 194.633 138.426 c 194.035 138.211 193.477 137.992
 192.836 137.785 c 192.461 137.656 192.043 137.539 191.633 137.41 c 190.98
 137.207 190.344 136.996 189.641 136.812 c 189.191 136.68 188.695 136.559
 188.227 136.434 c 187.52 136.242 186.82 136.051 186.066 135.863 c 185.531
 135.73 184.945 135.613 184.387 135.484 c 183.637 135.312 182.902 135.137
 182.113 134.977 c 181.469 134.844 180.773 134.73 180.102 134.605 c 179.32
 134.461 178.559 134.305 177.742 134.172 c 176.93 134.039 176.172 133.938
 175.387 133.816 c 174.602 133.699 173.824 133.57 172.984 133.465 c 172.145
 133.355 171.188 133.254 170.262 133.152 c 169.445 133.062 168.66 132.961
 167.82 132.875 c 166.801 132.781 165.715 132.707 164.652 132.625 c 163.855
 132.562 163.094 132.484 162.254 132.434 c 160.914 132.348 159.512 132.293
 158.105 132.238 c 157.508 132.238 156.906 132.176 156.305 132.148 c 154.246
 132.09 152.105 132.055 149.945 132.055 c 145.559 132.055 141.438 132.191
 137.586 132.438 c 110.707 134.152 96.84 141.168 95.965 144.023 c 97.098
 147.328 115.074 156 150 156 c h
96 93.438 m 108.762 87 129.852 84 150 84 c 161.953 83.922 173.883 85.055
 185.605 87.383 c 185.039 86.406 l 198.484 78.641 l 198.164 76.441 198.004
 74.223 198 72 c 198 70.648 198.176 69.266 198.301 67.891 c 182.895 62.043
 166.465 59.359 150 60 c 114.895 60 96.898 68.762 96 72 c h
96 36 m 96 57.402 l 108.773 51 129.875 48 150 48 c 162.863 47.895 175.695
 49.246 188.258 52.027 c 199.523 32.496 l 192.137 28.68 175.66 24 150 24
 c 114.895 24 96.898 32.762 96 36 c h
280.984 80.336 m 282.34 74.859 282.34 69.141 280.984 63.664 c 279.961 59.32
 l 290.566 53.195 l 284.566 42.805 l 273.953 48.93 l 270.703 45.871 l 266.621
 42 261.688 39.137 256.301 37.512 c 252 36.238 l 252 24 l 240 24 l 240 36.238
 l 235.711 37.512 l 230.324 39.137 225.395 42 221.309 45.871 c 218.059 48.93
 l 207.445 42.805 l 201.445 53.195 l 212.051 59.32 l 211.027 63.664 l 209.676
 69.141 209.676 74.859 211.027 80.336 c 212.051 84.68 l 201.445 90.805 l
 207.445 101.195 l 218.059 95.07 l 221.309 98.129 l 225.395 102 230.324 
104.863 235.711 106.488 c 240 107.762 l 240 120 l 252 120 l 252 107.762 
l 256.289 106.488 l 261.676 104.863 266.605 102 270.691 98.129 c 273.941
 95.07 l 284.555 101.195 l 290.555 90.805 l 279.961 84.68 l h
280.984 80.336 m f
246 96 m 236.293 96 227.543 90.152 223.828 81.184 c 220.113 72.215 222.164
 61.895 229.031 55.031 c 235.895 48.164 246.215 46.113 255.184 49.828 c 
264.152 53.543 270 62.293 270 72 c 270 85.254 259.254 96 246 96 c h
246 60 m 241.145 60 236.77 62.922 234.914 67.406 c 233.055 71.891 234.082
 77.055 237.516 80.484 c 240.945 83.918 246.109 84.945 250.594 83.086 c 
255.078 81.23 258 76.855 258 72 c 258 65.371 252.629 60 246 60 c h
246 60 m f
228 372 m 156 372 l 156 252 l 228 252 l h
216 360 m 216 288 l 168 288 l 168 360 l h
192 264 m 168 264 l 168 276 l 216 276 l 216 264 l h
192 264 m f
198 270 m 197.977 271.59 197.355 273.109 196.262 274.262 c 194.82 275.668
 192.777 276.273 190.801 275.879 c 190.426 275.816 190.059 275.691 189.719
 275.52 c 189.336 275.387 188.973 275.207 188.633 274.98 c 188.324 274.758
 188.023 274.516 187.738 274.262 c 186.641 273.113 186.02 271.59 186 270
 c 186 266.688 188.688 264 192 264 c 195.312 264 198 266.688 198 270 c h
198 270 m f
78 240 m 66 240 l 66 204 l 186 204 l 186 180 l 198 180 l 198 204 l 318 
204 l 318 240 l 306 240 l 306 216 l 198 216 l 198 240 l 186 240 l 186 216
 l 78 216 l h
78 240 m f
48 264 m 36 264 l 36 252 l 108 252 l 108 264 l 96 264 l 96 276 l 132 276
 l 132 372 l 12 372 l 12 276 l 48 276 l h
84 264 m 60 264 l 60 276 l 84 276 l h
24 360 m 120 360 l 120 312 l 24 312 l h
24 288 m 24 300 l 120 300 l 120 288 l h
24 288 m f
252 252 m 372 252 l 372 372 l 252 372 l h
360 264 m 264 264 l 264 324 l 360 324 l h
264 360 m 360 360 l 360 336 l 264 336 l h
264 360 m f
279.301 352.98 m 278.992 353.215 278.648 353.398 278.281 353.52 c 277.922
 353.703 277.535 353.824 277.133 353.879 c 275.176 354.273 273.152 353.664
 271.734 352.262 c 271.191 351.688 270.766 351.016 270.473 350.281 c 269.516
 348.047 270.016 345.457 271.734 343.738 c 272.316 343.211 272.988 342.785
 273.715 342.48 c 275.168 341.84 276.82 341.84 278.273 342.48 c 279 342.785
 279.668 343.211 280.254 343.738 c 281.383 344.867 282.012 346.402 282 348
 c 281.977 349.59 281.355 351.109 280.262 352.262 c 279.965 352.531 279.645
 352.773 279.301 352.98 c h
279.301 352.98 m f
298.262 352.262 m 295.855 354.48 292.145 354.48 289.738 352.262 c 289.199
 351.688 288.77 351.016 288.48 350.281 c 288.172 349.559 288.008 348.785
 288 348 c 287.98 347.215 288.145 346.434 288.48 345.719 c 288.785 344.992
 289.211 344.324 289.738 343.738 c 291.457 342.023 294.047 341.523 296.281
 342.48 c 297.008 342.785 297.676 343.211 298.262 343.738 c 298.789 344.324
 299.215 344.992 299.52 345.719 c 300.16 347.172 300.16 348.828 299.52 350.281
 c 299.215 351.008 298.789 351.676 298.262 352.262 c h
298.262 352.262 m f
316.262 352.262 m 315.676 352.789 315.008 353.215 314.281 353.52 c 313.188
 354.004 311.969 354.129 310.801 353.879 c 310.426 353.816 310.059 353.691
 309.719 353.52 c 309.336 353.387 308.973 353.207 308.633 352.98 c 308.324
 352.758 308.023 352.516 307.738 352.262 c 307.184 351.695 306.754 351.023
 306.48 350.281 c 305.84 348.828 305.84 347.172 306.48 345.719 c 306.785
 344.992 307.211 344.324 307.738 343.738 c 308.324 343.211 308.992 342.785
 309.719 342.48 c 310.441 342.172 311.215 342.008 312 342 c 313.59 342.012
 315.117 342.637 316.262 343.738 c 316.789 344.324 317.215 344.992 317.52
 345.719 c 318.16 347.172 318.16 348.828 317.52 350.281 c 317.246 351.023
 316.816 351.695 316.262 352.262 c h
316.262 352.262 m f
Q Q
showpage
%%Trailer
end restore
%%EOF
