%!PS-Adobe-3.0 EPSF-3.0
%%Creator: cairo 1.14.8 (http://cairographics.org)
%%CreationDate: Wed Feb 20 09:42:43 2019
%%Pages: 1
%%DocumentData: Clean7Bit
%%LanguageLevel: 2
%%BoundingBox: 12 12 372 372
%%EndComments
%%BeginProlog
save
50 dict begin
/q { gsave } bind def
/Q { grestore } bind def
/cm { 6 array astore concat } bind def
/w { setlinewidth } bind def
/J { setlinecap } bind def
/j { setlinejoin } bind def
/M { setmiterlimit } bind def
/d { setdash } bind def
/m { moveto } bind def
/l { lineto } bind def
/c { curveto } bind def
/h { closepath } bind def
/re { exch dup neg 3 1 roll 5 3 roll moveto 0 rlineto
      0 exch rlineto 0 rlineto closepath } bind def
/S { stroke } bind def
/f { fill } bind def
/f* { eofill } bind def
/n { newpath } bind def
/W { clip } bind def
/W* { eoclip } bind def
/BT { } bind def
/ET { } bind def
/pdfmark where { pop globaldict /?pdfmark /exec load put }
    { globaldict begin /?pdfmark /pop load def /pdfmark
    /cleartomark load def end } ifelse
/BDC { mark 3 1 roll /BDC pdfmark } bind def
/EMC { mark /EMC pdfmark } bind def
/cairo_store_point { /cairo_point_y exch def /cairo_point_x exch def } def
/Tj { show currentpoint cairo_store_point } bind def
/TJ {
  {
    dup
    type /stringtype eq
    { show } { -0.001 mul 0 cairo_font_matrix dtransform rmoveto } ifelse
  } forall
  currentpoint cairo_store_point
} bind def
/cairo_selectfont { cairo_font_matrix aload pop pop pop 0 0 6 array astore
    cairo_font exch selectfont cairo_point_x cairo_point_y moveto } bind def
/Tf { pop /cairo_font exch def /cairo_font_matrix where
      { pop cairo_selectfont } if } bind def
/Td { matrix translate cairo_font_matrix matrix concatmatrix dup
      /cairo_font_matrix exch def dup 4 get exch 5 get cairo_store_point
      /cairo_font where { pop cairo_selectfont } if } bind def
/Tm { 2 copy 8 2 roll 6 array astore /cairo_font_matrix exch def
      cairo_store_point /cairo_font where { pop cairo_selectfont } if } bind def
/g { setgray } bind def
/rg { setrgbcolor } bind def
/d1 { setcachedevice } bind def
%%EndProlog
%%BeginSetup
%%EndSetup
%%Page: 1 1
%%BeginPageSetup
%%PageBoundingBox: 12 12 372 372
%%EndPageSetup
q 12 12 360 360 rectclip q
1 0.854902 0.666667 rg
234 366 m 342 366 l 355.297 366 366 355.297 366 342 c 366 234 l 366 220.703
 355.297 210 342 210 c 234 210 l 220.703 210 210 220.703 210 234 c 210 342
 l 210 355.297 220.703 366 234 366 c h
234 366 m f
0.901961 g
42 138 300 -120 re f
0.701961 g
42 174 300 -36 re f
0.654902 0.839216 0.866667 rg
150 240 m 258 240 l 271.297 240 282 229.297 282 216 c 282 108 l 282 94.703
 271.297 84 258 84 c 150 84 l 136.703 84 126 94.703 126 108 c 126 216 l 
126 229.297 136.703 240 150 240 c h
150 240 m f
0.513726 0.745098 0.72549 rg
156 162 m 126 132 l 126 108 l 126 94.746 136.746 84 150 84 c 234 84 l h
156 162 m f
0.00784314 0.6 0.541176 rg
186 132 m 234 84 l 258 84 l 271.254 84 282 94.746 282 108 c 282 156 l 246
 192 l h
186 132 m f
1 0.854902 0.666667 rg
168 66 m 174 66 l 174 54 l 174 47.371 179.371 42 186 42 c 222 42 l 228.629
 42 234 47.371 234 54 c 234 90 l 234 103.254 223.254 114 210 114 c 198 114
 l 184.746 114 174 103.254 174 90 c 168 90 l 161.371 90 156 84.629 156 78
 c 156 71.371 161.371 66 168 66 c h
168 66 m f
0 g
342 372 m 234 372 l 217.441 371.98 204.02 358.559 204 342 c 204 246 l 180
 246 l 180 252 l 168 252 l 168 246 l 150 246 l 133.441 245.98 120.02 232.559
 120 216 c 114.684 216 l 114.684 204 l 120 204 l 120 180 l 36 180 l 36 12
 l 348 12 l 348 180 l 288 180 l 288 204 l 342 204 l 358.559 204.02 371.98
 217.441 372 234 c 372 342 l 371.98 358.559 358.559 371.98 342 372 c h
150 234 m 258 234 l 267.941 234 276 225.941 276 216 c 276 170.484 l 246
 200.484 l 186 140.484 l 156 170.484 l 132 146.484 l 132 216 l 132 225.941
 140.059 234 150 234 c h
210 120 m 206.484 120 l 194.484 132 l 246 183.516 l 276 153.516 l 276 108
 l 276 98.059 267.941 90 258 90 c 240 90 l 239.98 106.559 226.559 119.98
 210 120 c h
168 72 m 164.688 72 162 74.688 162 78 c 162 81.312 164.688 84 168 84 c 
180 84 l 180 90 l 180 99.941 188.059 108 198 108 c 210 108 l 219.941 108
 228 99.941 228 90 c 228 54 l 228 50.688 225.312 48 222 48 c 186 48 l 182.688
 48 180 50.688 180 54 c 180 72 l h
154.68 90 m 150 90 l 140.059 90 132 98.059 132 108 c 132 129.516 l 156 
153.516 l 190.559 118.949 l 179.457 116.121 170.938 107.215 168.602 96 c
 168 96 l 162.91 95.984 158.066 93.801 154.68 90 c h
48 168 m 120 168 l 120 144 l 48 144 l h
336 24 m 48 24 l 48 132 l 120 132 l 120 108 l 120.02 91.441 133.441 78.02
 150 78 c 150 68.059 158.059 60 168 60 c 168 54 l 168 44.059 176.059 36 
186 36 c 222 36 l 231.941 36 240 44.059 240 54 c 240 78 l 258 78 l 274.559
 78.02 287.98 91.441 288 108 c 288 132 l 336 132 l h
336 168 m 336 144 l 288 144 l 288 168 l h
360 234 m 360 224.059 351.941 216 342 216 c 288 216 l 287.996 220.133 287.129
 224.219 285.457 228 c 306 228 l 306 240 l 294 240 l 294 336 l 324 336 l
 324 324 l 336 324 l 336 348 l 240 348 l 240 324 l 252 324 l 252 336 l 282
 336 l 282 240 l 275.812 240 l 270.684 243.875 264.43 245.98 258 246 c 216
 246 l 216 342 l 216 351.941 224.059 360 234 360 c 342 360 l 351.941 360
 360 351.941 360 342 c h
360 234 m f
55.738 160.262 m 54.645 159.109 54.023 157.59 54 156 c 54.012 154.41 54.637
 152.883 55.738 151.738 c 56.891 150.645 58.41 150.023 60 150 c 60.402 150.012
 60.805 150.051 61.199 150.121 c 61.574 150.184 61.941 150.309 62.281 150.48
 c 62.648 150.598 62.992 150.781 63.301 151.02 c 63.66 151.262 63.961 151.5
 64.262 151.738 c 65.363 152.883 65.988 154.41 66 156 c 66.016 158.438 64.551
 160.641 62.301 161.578 c 60.051 162.512 57.457 161.992 55.738 160.262 c
 h
55.738 160.262 m f
75.719 161.52 m 74.992 161.215 74.324 160.789 73.738 160.262 c 72.645 159.109
 72.023 157.59 72 156 c 72.012 154.41 72.637 152.883 73.738 151.738 c 74.324
 151.211 74.992 150.785 75.719 150.48 c 76.434 150.145 77.215 149.98 78 
150 c 79.59 150.023 81.109 150.645 82.262 151.738 c 83.363 152.883 83.988
 154.41 84 156 c 83.977 157.59 83.355 159.109 82.262 160.262 c 80.535 161.961
 77.953 162.461 75.719 161.52 c h
75.719 161.52 m f
100.262 160.262 m 98.543 161.992 95.949 162.512 93.699 161.578 c 91.449
 160.641 89.984 158.438 90 156 c 90.012 154.41 90.637 152.883 91.738 151.738
 c 94.105 149.418 97.895 149.418 100.262 151.738 c 100.52 152.023 100.758
 152.324 100.98 152.641 c 101.207 152.973 101.391 153.336 101.52 153.719
 c 101.691 154.059 101.816 154.426 101.879 154.801 c 101.949 155.195 101.988
 155.598 102 156 c 101.977 157.59 101.355 159.109 100.262 160.262 c h
100.262 160.262 m f
150 372 m 131.797 372 l 131.797 360 l 150.277 360 l h
150 372 m f
162.527 354.926 m 165.844 351.727 167.805 347.371 168 342.77 c 180 343.273
 l 179.68 350.949 176.414 358.207 170.879 363.539 c h
162.527 354.926 m f
78.27 216 18.203 -12 re f
24 342.07 m 12 342 l 12 323.867 l 24 323.867 l h
24 342.07 m f
95.383 372 18.203 -12 re f
58.973 372 18.207 -12 re f
168 324.816 12 -18.203 re f
168 288.406 12 -18.203 re f
40.465 371.957 m 32.793 371.582 25.566 368.266 20.281 362.695 c 28.969 
354.422 l 32.133 357.766 36.469 359.766 41.07 360 c h
40.465 371.957 m f
41.863 216 m 42 204 l 60.066 204 l 60.066 216 l 42.371 215.988 l h
41.863 216 m f
12.035 232.555 m 12.391 224.883 15.691 217.645 21.246 212.34 c 29.551 221.004
 l 26.207 224.18 24.219 228.52 24 233.125 c h
12.035 232.555 m f
12 269.25 12 -18.203 re f
12 305.656 12 -18.207 re f
1 0.396078 0.211765 rg
174 204 m 174 197.371 168.629 192 162 192 c 155.371 192 150 197.371 150
 204 c 150 210.629 155.371 216 162 216 c 168.629 216 174 210.629 174 204
 c h
174 204 m f
0 g
162 186 m 169.281 186 175.844 190.387 178.629 197.113 c 181.414 203.836
 179.875 211.578 174.727 216.727 c 169.578 221.875 161.836 223.414 155.113
 220.629 c 148.387 217.844 144 211.281 144 204 c 144 194.059 152.059 186
 162 186 c h
162 210 m 164.426 210 166.613 208.539 167.543 206.297 c 168.473 204.055
 167.957 201.473 166.242 199.758 c 164.527 198.043 161.945 197.527 159.703
 198.457 c 157.461 199.387 156 201.574 156 204 c 156 207.312 158.688 210
 162 210 c h
162 210 m f
Q Q
showpage
%%Trailer
end restore
%%EOF
