%!PS-Adobe-3.0 EPSF-3.0
%%Creator: cairo 1.14.8 (http://cairographics.org)
%%CreationDate: Wed Feb 20 09:42:43 2019
%%Pages: 1
%%DocumentData: Clean7Bit
%%LanguageLevel: 2
%%BoundingBox: 12 12 372 372
%%EndComments
%%BeginProlog
save
50 dict begin
/q { gsave } bind def
/Q { grestore } bind def
/cm { 6 array astore concat } bind def
/w { setlinewidth } bind def
/J { setlinecap } bind def
/j { setlinejoin } bind def
/M { setmiterlimit } bind def
/d { setdash } bind def
/m { moveto } bind def
/l { lineto } bind def
/c { curveto } bind def
/h { closepath } bind def
/re { exch dup neg 3 1 roll 5 3 roll moveto 0 rlineto
      0 exch rlineto 0 rlineto closepath } bind def
/S { stroke } bind def
/f { fill } bind def
/f* { eofill } bind def
/n { newpath } bind def
/W { clip } bind def
/W* { eoclip } bind def
/BT { } bind def
/ET { } bind def
/pdfmark where { pop globaldict /?pdfmark /exec load put }
    { globaldict begin /?pdfmark /pop load def /pdfmark
    /cleartomark load def end } ifelse
/BDC { mark 3 1 roll /BDC pdfmark } bind def
/EMC { mark /EMC pdfmark } bind def
/cairo_store_point { /cairo_point_y exch def /cairo_point_x exch def } def
/Tj { show currentpoint cairo_store_point } bind def
/TJ {
  {
    dup
    type /stringtype eq
    { show } { -0.001 mul 0 cairo_font_matrix dtransform rmoveto } ifelse
  } forall
  currentpoint cairo_store_point
} bind def
/cairo_selectfont { cairo_font_matrix aload pop pop pop 0 0 6 array astore
    cairo_font exch selectfont cairo_point_x cairo_point_y moveto } bind def
/Tf { pop /cairo_font exch def /cairo_font_matrix where
      { pop cairo_selectfont } if } bind def
/Td { matrix translate cairo_font_matrix matrix concatmatrix dup
      /cairo_font_matrix exch def dup 4 get exch 5 get cairo_store_point
      /cairo_font where { pop cairo_selectfont } if } bind def
/Tm { 2 copy 8 2 roll 6 array astore /cairo_font_matrix exch def
      cairo_store_point /cairo_font where { pop cairo_selectfont } if } bind def
/g { setgray } bind def
/rg { setrgbcolor } bind def
/d1 { setcachedevice } bind def
%%EndProlog
%%BeginSetup
%%EndSetup
%%Page: 1 1
%%BeginPageSetup
%%PageBoundingBox: 12 12 372 372
%%EndPageSetup
q 12 12 360 360 rectclip q
0.901961 g
30 18 m 354 18 l 360.629 18 366 23.371 366 30 c 366 318 l 18 318 l 18 30
 l 18 23.371 23.371 18 30 18 c h
30 18 m f
0.513726 0.745098 0.72549 rg
42 294 96 -60 re f
1 0.854902 0.666667 rg
210 138 132 -96 re f
0.701961 g
18 318 m 366 318 l 366 354 l 366 360.629 360.629 366 354 366 c 30 366 l
 23.371 366 18 360.629 18 354 c h
18 318 m f
0.654902 0.839216 0.866667 rg
162 294 180 -60 re f
0.960784 0.811765 0.407843 rg
42 210 300 -48 re f
0.513726 0.745098 0.72549 rg
42 138 144 -96 re f
0 g
354 372 m 30 372 l 20.059 372 12 363.941 12 354 c 12 30 l 12 20.059 20.059
 12 30 12 c 354 12 l 363.941 12 372 20.059 372 30 c 372 354 l 372 363.941
 363.941 372 354 372 c h
360 30 m 360 26.688 357.312 24 354 24 c 30 24 l 26.688 24 24 26.688 24 
30 c 24 312 l 360 312 l h
24 324 m 24 354 l 24 357.312 26.688 360 30 360 c 354 360 l 357.312 360 
360 357.312 360 354 c 360 324 l h
24 324 m f
294 348 m 90 348 l 86.688 348 84 345.312 84 342 c 84 338.688 86.688 336
 90 336 c 294 336 l 297.312 336 300 338.688 300 342 c 300 345.312 297.312
 348 294 348 c h
294 348 m f
144 300 m 36 300 l 36 228 l 144 228 l h
78.68 264 m 48 244.801 l 48 283.141 l h
62.922 288 m 117.078 288 l 90 271.078 l h
90 256.922 m 117.078 240 l 62.922 240 l h
101.32 264 m 132 283.172 l 132 244.801 l h
101.32 264 m f
348 300 m 156 300 l 156 228 l 348 228 l h
336 240 m 168 240 l 168 288 l 336 288 l h
336 240 m f
348 216 m 36 216 l 36 156 l 348 156 l h
336 168 m 48 168 l 48 204 l 336 204 l h
336 168 m f
192 144 m 36 144 l 36 36 l 192 36 l h
180 48 m 48 48 l 48 132 l 180 132 l h
180 48 m f
204 36 m 348 36 l 348 144 l 204 144 l h
286.199 90 m 336 126.223 l 336 53.777 l h
323.551 48 m 228.449 48 l 276 82.586 l h
276 97.414 m 228.449 132 l 323.551 132 l h
265.801 90 m 216 53.777 l 216 126.223 l h
265.801 90 m f
Q Q
showpage
%%Trailer
end restore
%%EOF
