%!PS-Adobe-3.0 EPSF-3.0
%%Creator: cairo 1.14.8 (http://cairographics.org)
%%CreationDate: Wed Feb 20 09:42:43 2019
%%Pages: 1
%%DocumentData: Clean7Bit
%%LanguageLevel: 2
%%BoundingBox: 12 12 373 372
%%EndComments
%%BeginProlog
save
50 dict begin
/q { gsave } bind def
/Q { grestore } bind def
/cm { 6 array astore concat } bind def
/w { setlinewidth } bind def
/J { setlinecap } bind def
/j { setlinejoin } bind def
/M { setmiterlimit } bind def
/d { setdash } bind def
/m { moveto } bind def
/l { lineto } bind def
/c { curveto } bind def
/h { closepath } bind def
/re { exch dup neg 3 1 roll 5 3 roll moveto 0 rlineto
      0 exch rlineto 0 rlineto closepath } bind def
/S { stroke } bind def
/f { fill } bind def
/f* { eofill } bind def
/n { newpath } bind def
/W { clip } bind def
/W* { eoclip } bind def
/BT { } bind def
/ET { } bind def
/pdfmark where { pop globaldict /?pdfmark /exec load put }
    { globaldict begin /?pdfmark /pop load def /pdfmark
    /cleartomark load def end } ifelse
/BDC { mark 3 1 roll /BDC pdfmark } bind def
/EMC { mark /EMC pdfmark } bind def
/cairo_store_point { /cairo_point_y exch def /cairo_point_x exch def } def
/Tj { show currentpoint cairo_store_point } bind def
/TJ {
  {
    dup
    type /stringtype eq
    { show } { -0.001 mul 0 cairo_font_matrix dtransform rmoveto } ifelse
  } forall
  currentpoint cairo_store_point
} bind def
/cairo_selectfont { cairo_font_matrix aload pop pop pop 0 0 6 array astore
    cairo_font exch selectfont cairo_point_x cairo_point_y moveto } bind def
/Tf { pop /cairo_font exch def /cairo_font_matrix where
      { pop cairo_selectfont } if } bind def
/Td { matrix translate cairo_font_matrix matrix concatmatrix dup
      /cairo_font_matrix exch def dup 4 get exch 5 get cairo_store_point
      /cairo_font where { pop cairo_selectfont } if } bind def
/Tm { 2 copy 8 2 roll 6 array astore /cairo_font_matrix exch def
      cairo_store_point /cairo_font where { pop cairo_selectfont } if } bind def
/g { setgray } bind def
/rg { setrgbcolor } bind def
/d1 { setcachedevice } bind def
%%EndProlog
%%BeginSetup
%%EndSetup
%%Page: 1 1
%%BeginPageSetup
%%PageBoundingBox: 12 12 373 372
%%EndPageSetup
q 12 12 361 360 rectclip q
0.901961 g
30 18 m 294 18 l 297.211 18.031 300.281 19.336 302.531 21.629 c 304.781
 23.922 306.031 27.016 306 30.227 c 306 348 l 18 348 l 18 30.227 l 17.969
 27.016 19.219 23.922 21.469 21.629 c 23.719 19.336 26.789 18.031 30 18 
c h
30 18 m f
0.654902 0.839216 0.866667 rg
66 300 m 198 300 l 258 240 l 258 48 l 66 48 l h
66 300 m f
0.701961 g
18 330 m 306 330 l 306 354 l 306 360.629 300.629 366 294 366 c 30 366 l
 23.371 366 18 360.629 18 354 c h
18 330 m f
0.423529 0.733333 0.780392 rg
258 240 m 198 300 l 198 240 l h
258 240 m f
1 0.396078 0.211765 rg
186 90 m 361.031 265.031 l 364.215 268.215 366 272.531 366 277.031 c 366
 286.402 358.402 294 349.031 294 c 344.531 294 340.215 292.215 337.031 289.031
 c 162 114 l 150 78 l h
186 90 m f
0.960784 0.811765 0.407843 rg
162 114 m 150 78 l 186 90 l 198 102 l 174 126 l h
162 114 m f
324 276 m 337.031 289.031 l 340.215 292.215 344.531 294 349.031 294 c 353.531
 294 357.848 292.211 361.031 289.031 c 364.211 285.848 366 281.531 366 277.031
 c 366 272.531 364.215 268.215 361.031 265.031 c 348 252 l h
324 276 m f
0 g
31.738 352.262 m 31.199 351.688 30.77 351.016 30.48 350.281 c 29.84 348.828
 29.84 347.172 30.48 345.719 c 30.754 344.977 31.184 344.305 31.738 343.738
 c 34.105 341.418 37.895 341.418 40.262 343.738 c 42.582 346.105 42.582 
349.895 40.262 352.262 c 37.855 354.48 34.145 354.48 31.738 352.262 c h
31.738 352.262 m f
51.719 353.52 m 50.977 353.246 50.305 352.816 49.738 352.262 c 47.418 349.895
 47.418 346.105 49.738 343.738 c 51.457 342.008 54.051 341.488 56.301 342.422
 c 58.551 343.359 60.016 345.562 60 348 c 59.977 349.59 59.355 351.109 58.262
 352.262 c 56.523 353.938 53.957 354.434 51.719 353.52 c h
51.719 353.52 m f
69.719 353.52 m 68.984 353.23 68.312 352.801 67.738 352.262 c 65.418 349.895
 65.418 346.105 67.738 343.738 c 68.324 343.211 68.992 342.785 69.719 342.48
 c 70.441 342.172 71.215 342.008 72 342 c 73.598 341.984 75.133 342.609 
76.262 343.738 c 77.391 344.867 78.016 346.402 78 348 c 77.977 349.59 77.355
 351.109 76.262 352.262 c 74.508 353.91 71.961 354.398 69.719 353.52 c h
69.719 353.52 m f
90 270 84 -12 re f
90 234 84 -12 re f
90 198 114 -12 re f
90 162 78 -12 re f
90 126 48 -12 re f
90 90 36 -12 re f
349.027 300 m 342.93 300.02 337.082 297.594 332.785 293.27 c 312 272.484
 l 312 354 l 312 363.941 303.941 372 294 372 c 30 372 l 20.059 372 12 363.941
 12 354 c 12 30 l 12 20.059 20.059 12 30 12 c 294 12 l 303.941 12 312 20.059
 312 30 c 312 207.516 l 365.27 260.785 l 371.844 267.352 373.809 277.234
 370.254 285.82 c 366.699 294.406 358.32 300.004 349.027 300 c h
24 354 m 24 357.312 26.688 360 30 360 c 294 360 l 297.312 360 300 357.312
 300 354 c 300 336 l 24 336 l h
300 30 m 300 26.688 297.312 24 294 24 c 30 24 l 26.688 24 24 26.688 24 
30 c 24 324 l 300 324 l 300 260.484 l 264 224.484 l 264 242.484 l 200.484
 306 l 60 306 l 60 42 l 264 42 l 264 159.516 l 300 195.516 l h
156.758 117.238 m 140.516 68.516 l 189.238 84.758 l 206.484 102 l 252 147.516
 l 252 54 l 72 54 l 72 294 l 192 294 l 192 234 l 252 234 l 252 212.484 l
 174 134.484 l h
174 117.516 m 189.516 102 l 182.762 95.242 l 159.484 87.484 l 167.242 110.762
 l h
204 285.516 m 243.516 246 l 204 246 l h
198 110.484 m 182.484 126 l 324 267.516 l 339.516 252 l h
356.785 269.27 m 348 260.484 l 332.484 276 l 341.27 284.785 l 343.309 286.914
 346.125 288.133 349.074 288.168 c 352.027 288.199 354.867 287.039 356.953
 284.953 c 359.039 282.867 360.199 280.027 360.168 277.074 c 360.133 274.125
 358.914 271.309 356.785 269.27 c h
356.785 269.27 m f
Q Q
showpage
%%Trailer
end restore
%%EOF
